branches/Float/src/br/ufscar/dc/lalp/examples/matmult/gnu/t_matmult.vcd
$date
  Wed Dec 12 13:47:08 2012
$end
$version
  GHDL v0
$end
$timescale
  1 fs
$end
$var reg 1 ! \clear\ $end
$var reg 1 " \clk\ $end
$var reg 1 # \done\ $end
$var reg 1 $ \init\ $end
$var reg 1 % \reset\ $end
$var reg 16 & \result\[15:0] $end
$scope module uut $end
$var reg 1 ' \clear\ $end
$var reg 1 ( \clk\ $end
$var reg 1 ) \done\ $end
$var reg 1 * \init\ $end
$var reg 1 + \reset\ $end
$var reg 16 , \result\[15:0] $end
$var reg 16 - s0[15:0] $end
$var reg 1 . s52[0:0] $end
$var reg 16 / s15[15:0] $end
$var reg 1 0 s48[0:0] $end
$var reg 16 1 s45[15:0] $end
$var reg 16 2 s30[15:0] $end
$var reg 1 3 s29 $end
$var reg 16 4 s34[15:0] $end
$var reg 16 5 s33[15:0] $end
$var reg 16 6 s27[15:0] $end
$var reg 16 7 s13[15:0] $end
$var reg 16 8 s17[15:0] $end
$var reg 1 9 s50[0:0] $end
$var reg 16 : s28[15:0] $end
$var reg 16 ; s31[15:0] $end
$var reg 16 < s35[15:0] $end
$var reg 16 = s51[15:0] $end
$var reg 1 > s49 $end
$var reg 1 ? s16[0:0] $end
$var reg 16 @ s10[15:0] $end
$var reg 16 A s53[15:0] $end
$var reg 16 B s47[15:0] $end
$var reg 16 C s26[15:0] $end
$var reg 1 D s40[0:0] $end
$var reg 16 E s44[15:0] $end
$var reg 16 F s41[15:0] $end
$var reg 1 G s55[0:0] $end
$var reg 16 H s19[15:0] $end
$var reg 1 I s25 $end
$var reg 16 J s56[15:0] $end
$var reg 16 K s21[15:0] $end
$var reg 16 L s23[15:0] $end
$var reg 16 M s7[15:0] $end
$var reg 16 N s3[15:0] $end
$var reg 16 O s1[15:0] $end
$var reg 16 P s20[15:0] $end
$var reg 16 Q s57[15:0] $end
$var reg 1 R s54 $end
$var reg 1 S s43 $end
$var reg 16 T s42[15:0] $end
$var reg 16 U s39[15:0] $end
$var reg 16 V s36[15:0] $end
$var reg 16 W s18[15:0] $end
$var reg 16 X s4[15:0] $end
$scope module \addrs_delay_op_4\ $end
$var reg 16 Y a[15:0] $end
$var reg 1 Z clk $end
$var reg 1 [ reset $end
$var reg 16 \ a_delayed[15:0] $end
$comment int is not handled $end
$upscope $end
$scope module \a_mult_op_s_b\ $end
$var reg 16 ] i0[15:0] $end
$var reg 16 ^ i1[15:0] $end
$var reg 16 _ o0[15:0] $end
$upscope $end
$scope module \i\ $end
$var reg 16 ` input[15:0] $end
$var reg 16 a termination[15:0] $end
$var reg 1 b clk $end
$var reg 1 c clk_en $end
$var reg 1 d reset $end
$var reg 1 e load $end
$var reg 1 f step $end
$var reg 1 g done $end
$var reg 16 h output[15:0] $end
$var reg 1 i shsteps[0:0] $end
$var reg 16 j value[15:0] $end
$var reg 1 k init $end
$var reg 1 l stepi $end
$var reg 1 m cond $end
$upscope $end
$scope module \a\ $end
$var reg 16 n data_in[15:0] $end
$var reg 5 o address[4:0] $end
$var reg 1 p we $end
$var reg 1 q oe $end
$var reg 1 r clk $end
$var reg 16 s data_out[15:0] $end
$var reg 5 t read_a[4:0] $end
$comment ram is not handled $end
$upscope $end
$scope module \c44\ $end
$var reg 16 u a[15:0] $end
$var reg 1 v clk $end
$var reg 1 w reset $end
$var reg 16 x a_delayed[15:0] $end
$comment int is not handled $end
$upscope $end
$scope module \i_step_not_op_delay_op_5\ $end
$var reg 1 y a[0:0] $end
$var reg 1 z clk $end
$var reg 1 { reset $end
$var reg 1 | a_delayed[0:0] $end
$comment int is not handled $end
$upscope $end
$scope module \i_step_delay_op_4\ $end
$var reg 1 } a[0:0] $end
$var reg 1 !" clk $end
$var reg 1 "" reset $end
$var reg 1 #" a_delayed[0:0] $end
$comment int is not handled $end
$upscope $end
$scope module \sum1\ $end
$var reg 1 $" clk $end
$var reg 1 %" reset $end
$var reg 1 &" we $end
$var reg 1 '" sel1[0:0] $end
$var reg 16 (" i0[15:0] $end
$var reg 16 )" i1[15:0] $end
$var reg 16 *" o0[15:0] $end
$upscope $end
$scope module \reg\ $end
$var reg 1 +" clk $end
$var reg 1 ," reset $end
$var reg 1 -" we $end
$var reg 1 ." sel1[0:0] $end
$var reg 16 /" i0[15:0] $end
$var reg 16 0" i1[15:0] $end
$var reg 16 1" o0[15:0] $end
$upscope $end
$scope module \m_add_op_s_5\ $end
$var reg 16 2" i0[15:0] $end
$var reg 16 3" i1[15:0] $end
$var reg 16 4" o0[15:0] $end
$upscope $end
$scope module \i_step_delay_op_5\ $end
$var reg 1 5" a[0:0] $end
$var reg 1 6" clk $end
$var reg 1 7" reset $end
$var reg 1 8" a_delayed[0:0] $end
$comment int is not handled $end
$upscope $end
$scope module \j\ $end
$var reg 16 9" input[15:0] $end
$var reg 16 :" termination[15:0] $end
$var reg 1 ;" clk $end
$var reg 1 <" clk_en $end
$var reg 1 =" reset $end
$var reg 1 >" load $end
$var reg 1 ?" step $end
$var reg 1 @" done $end
$var reg 16 A" output[15:0] $end
$var reg 1 B" shsteps[0:0] $end
$var reg 16 C" value[15:0] $end
$var reg 1 D" init $end
$var reg 1 E" stepi $end
$var reg 1 F" cond $end
$upscope $end
$scope module \addra\ $end
$var reg 1 G" clk $end
$var reg 1 H" reset $end
$var reg 1 I" we $end
$var reg 16 J" i0[15:0] $end
$var reg 16 K" o0[15:0] $end
$upscope $end
$scope module \addrb\ $end
$var reg 1 L" clk $end
$var reg 1 M" reset $end
$var reg 1 N" we $end
$var reg 16 O" i0[15:0] $end
$var reg 16 P" o0[15:0] $end
$upscope $end
$scope module \m_plus_5\ $end
$var reg 1 Q" clk $end
$var reg 1 R" reset $end
$var reg 1 S" we $end
$var reg 16 T" i0[15:0] $end
$var reg 16 U" o0[15:0] $end
$upscope $end
$scope module \sum\ $end
$var reg 1 V" clk $end
$var reg 1 W" reset $end
$var reg 1 X" we $end
$var reg 16 Y" i0[15:0] $end
$var reg 16 Z" o0[15:0] $end
$upscope $end
$scope module \l_if_gt_op_s_3\ $end
$var reg 16 [" i0[15:0] $end
$var reg 16 \" i1[15:0] $end
$var reg 1 ]" o0[0:0] $end
$upscope $end
$scope module \l_add_op_s_20\ $end
$var reg 16 ^" i0[15:0] $end
$var reg 16 _" i1[15:0] $end
$var reg 16 `" o0[15:0] $end
$upscope $end
$scope module \sum1_add_op_s_sum\ $end
$var reg 16 a" i0[15:0] $end
$var reg 16 b" i1[15:0] $end
$var reg 16 c" o0[15:0] $end
$upscope $end
$scope module \i_step_not_op\ $end
$var reg 1 d" i0[0:0] $end
$var reg 1 e" o0[0:0] $end
$upscope $end
$scope module \c43\ $end
$var reg 1 f" a[0:0] $end
$var reg 1 g" clk $end
$var reg 1 h" reset $end
$var reg 1 i" a_delayed[0:0] $end
$comment int is not handled $end
$upscope $end
$scope module \b\ $end
$var reg 16 j" data_in[15:0] $end
$var reg 5 k" address[4:0] $end
$var reg 1 l" we $end
$var reg 1 m" oe $end
$var reg 1 n" clk $end
$var reg 16 o" data_out[15:0] $end
$var reg 5 p" read_a[4:0] $end
$comment ram is not handled $end
$upscope $end
$scope module \l_plus_20\ $end
$var reg 1 q" clk $end
$var reg 1 r" reset $end
$var reg 1 s" we $end
$var reg 16 t" i0[15:0] $end
$var reg 16 u" o0[15:0] $end
$upscope $end
$scope module \s\ $end
$var reg 16 v" data_in[15:0] $end
$var reg 5 w" address[4:0] $end
$var reg 1 x" we $end
$var reg 1 y" oe $end
$var reg 1 z" clk $end
$var reg 16 {" data_out[15:0] $end
$var reg 5 |" read_a[4:0] $end
$comment ram is not handled $end
$upscope $end
$scope module \addrs\ $end
$var reg 1 }" clk $end
$var reg 1 !# reset $end
$var reg 1 "# we $end
$var reg 16 ## i0[15:0] $end
$var reg 16 $# o0[15:0] $end
$upscope $end
$scope module \l_add_op_s_1\ $end
$var reg 16 %# i0[15:0] $end
$var reg 16 &# i1[15:0] $end
$var reg 16 '# o0[15:0] $end
$upscope $end
$scope module \k\ $end
$var reg 16 (# input[15:0] $end
$var reg 16 )# termination[15:0] $end
$var reg 1 *# clk $end
$var reg 1 +# clk_en $end
$var reg 1 ,# reset $end
$var reg 1 -# load $end
$var reg 1 .# step $end
$var reg 1 /# done $end
$var reg 16 0# output[15:0] $end
$var reg 6 1# shsteps[5:0] $end
$var reg 16 2# value[15:0] $end
$var reg 1 3# init $end
$var reg 1 4# stepi $end
$var reg 1 5# cond $end
$upscope $end
$scope module \l\ $end
$var reg 1 6# clk $end
$var reg 1 7# reset $end
$var reg 1 8# we $end
$var reg 16 9# i0[15:0] $end
$var reg 16 :# o0[15:0] $end
$upscope $end
$scope module \m\ $end
$var reg 16 ;# input[15:0] $end
$var reg 16 <# termination[15:0] $end
$var reg 1 =# clk $end
$var reg 1 ># clk_en $end
$var reg 1 ?# reset $end
$var reg 1 @# load $end
$var reg 1 A# step $end
$var reg 1 B# done $end
$var reg 16 C# output[15:0] $end
$var reg 30 D# shsteps[29:0] $end
$var reg 16 E# value[15:0] $end
$var reg 1 F# init $end
$var reg 1 G# stepi $end
$var reg 1 H# cond $end
$upscope $end
$upscope $end
$enddefinitions $end
#0
0!
0"
0#
0$
1%
bUUUUUUUUUUUUUUUU &
0'
0(
0)
0*
1+
bUUUUUUUUUUUUUUUU ,
b0000000000000000 -
b0 .
b0000000000000001 /
b0 0
bUUUUUUUUUUUUUUUU 1
b0000000000000000 2
03
b0000000000000000 4
b0000000000000000 5
b0000000000000101 6
b0000000000000011 7
b0000000000000000 8
b1 9
b0000000000000101 :
b0000000000000000 ;
b0000000000000000 <
b0000000000000000 =
0>
b0 ?
b0000000000000000 @
bUUUUUUUUUUUUUUUU A
bXXXXXXXXXXXXXXXX B
b0000000000000000 C
b0 D
bUUUUUUUUUUUUUUUU E
b0000000000000000 F
b0 G
b0000000000000000 H
0I
b0000000000000000 J
b0000000000010100 K
b0000000000000000 L
b0000000000000000 M
b0000000000000000 N
b0000000000011001 O
b0000000000010100 P
b0000000000000000 Q
1R
0S
b0000000000000000 T
b0000000000000000 U
b0000000000000000 V
b0000000000000001 W
b0000000000011001 X
b0000000000000000 Y
0Z
1[
b0000000000000000 \
bUUUUUUUUUUUUUUUU ]
bUUUUUUUUUUUUUUUU ^
bXXXXXXXXXXXXXXXX _
b0000000000000000 `
b0000000000000000 a
0b
0c
1d
0e
0f
1g
b0000000000000000 h
b1 i
b0000000000000000 j
1k
0l
0m
b0000000000000000 n
b00000 o
0p
1q
0r
bUUUUUUUUUUUUUUUU s
bUUUUU t
b0000000000000000 u
0v
1w
b0000000000000000 x
b1 y
0z
1{
b0 |
b0 }
0!"
1""
b0 #"
0$"
1%"
0&"
b0 '"
b0000000000000000 ("
b0000000000000000 )"
b0000000000000000 *"
0+"
1,"
1-"
b0 ."
b0000000000000001 /"
b0000000000000000 0"
b0000000000000000 1"
b0000000000000000 2"
b0000000000000101 3"
b0000000000000101 4"
b0 5"
06"
17"
b0 8"
b0000000000000000 9"
b0000000000000000 :"
0;"
0<"
1="
0>"
0?"
1@"
b0000000000000000 A"
b1 B"
b0000000000000000 C"
1D"
0E"
0F"
0G"
1H"
1I"
b0000000000000000 J"
b0000000000000000 K"
0L"
1M"
1N"
b0000000000000000 O"
b0000000000000000 P"
0Q"
1R"
0S"
b0000000000000101 T"
b0000000000000000 U"
0V"
1W"
0X"
bXXXXXXXXXXXXXXXX Y"
b0000000000000000 Z"
b0000000000000000 ["
b0000000000000011 \"
b0 ]"
b0000000000000000 ^"
b0000000000010100 _"
b0000000000010100 `"
b0000000000000000 a"
b0000000000000000 b"
b0000000000000000 c"
b0 d"
b1 e"
b1 f"
0g"
1h"
b0 i"
b0000000000000000 j"
b00000 k"
0l"
1m"
0n"
bUUUUUUUUUUUUUUUU o"
bUUUUU p"
0q"
1r"
1s"
b0000000000010100 t"
b0000000000000000 u"
b0000000000000000 v"
b00000 w"
0x"
1y"
0z"
bUUUUUUUUUUUUUUUU {"
bUUUUU |"
0}"
1!#
1"#
b0000000000000000 ##
b0000000000000000 $#
b0000000000000000 %#
b0000000000000001 &#
b0000000000000001 '#
b0000000000000000 (#
b0000000000011001 )#
0*#
0+#
1,#
0-#
0.#
0/#
b0000000000000000 0#
b000001 1#
b0000000000000000 2#
13#
04#
15#
06#
17#
08#
b0000000000000000 9#
b0000000000000000 :#
b0000000000000000 ;#
b0000000000011001 <#
0=#
0>#
1?#
0@#
0A#
0B#
b0000000000000000 C#
b000000000000000000000000000001 D#
b0000000000000000 E#
1F#
0G#
1H#
#5000000
1"
1(
b0000000000000011 1
b0000000000000011 B
b0000000000000001 E
1Z
b0000000000000001 ]
b0000000000000011 ^
b0000000000000011 _
1b
1r
b0000000000000001 s
b00000 t
1v
1z
1!"
1$"
1+"
16"
1;"
1G"
1L"
1Q"
1V"
b0000000000000011 Y"
1g"
1n"
b0000000000000011 o"
b00000 p"
1q"
1z"
b00000 |"
1}"
1*#
16#
1=#
#10000000
0"
0(
0Z
0b
0r
0v
0z
0!"
0$"
0+"
06"
0;"
0G"
0L"
0Q"
0V"
0g"
0n"
0q"
0z"
0}"
0*#
06#
0=#
#15000000
1"
1(
1Z
1b
1r
1v
1z
1!"
1$"
1+"
16"
1;"
1G"
1L"
1Q"
1V"
1g"
1n"
1q"
1z"
1}"
1*#
16#
1=#
#20000000
0"
0(
0Z
0b
0r
0v
0z
0!"
0$"
0+"
06"
0;"
0G"
0L"
0Q"
0V"
0g"
0n"
0q"
0z"
0}"
0*#
06#
0=#
#25000000
1"
1(
1Z
1b
1r
1v
1z
1!"
1$"
1+"
16"
1;"
1G"
1L"
1Q"
1V"
1g"
1n"
1q"
1z"
1}"
1*#
16#
1=#
#30000000
0"
0(
0Z
0b
0r
0v
0z
0!"
0$"
0+"
06"
0;"
0G"
0L"
0Q"
0V"
0g"
0n"
0q"
0z"
0}"
0*#
06#
0=#
#35000000
1"
1(
1Z
1b
1r
1v
1z
1!"
1$"
1+"
16"
1;"
1G"
1L"
1Q"
1V"
1g"
1n"
1q"
1z"
1}"
1*#
16#
1=#
#40000000
0"
0(
0Z
0b
0r
0v
0z
0!"
0$"
0+"
06"
0;"
0G"
0L"
0Q"
0V"
0g"
0n"
0q"
0z"
0}"
0*#
06#
0=#
#45000000
1"
1(
1Z
1b
1r
1v
1z
1!"
1$"
1+"
16"
1;"
1G"
1L"
1Q"
1V"
1g"
1n"
1q"
1z"
1}"
1*#
16#
1=#
#50000000
0"
0%
0(
0+
0Z
0[
0b
0d
0r
0v
0w
0z
0{
0!"
0""
0$"
0%"
0+"
0,"
06"
07"
0;"
0="
0G"
0H"
0L"
0M"
0Q"
0R"
0V"
0W"
0g"
0h"
0n"
0q"
0r"
0z"
0}"
0!#
0*#
0,#
06#
07#
0=#
0?#
#55000000
1"
1(
b0000000000000001 @
b0000000000010100 M
1Z
1b
1r
1v
1z
1!"
1$"
1+"
b0000000000000001 1"
16"
b0000000000010100 :"
1;"
0@"
1F"
1G"
1L"
1Q"
1V"
1g"
1n"
1q"
b0000000000010100 u"
1z"
1}"
1*#
16#
b0000000000000001 9#
1=#
#60000000
0"
0(
0Z
0b
0r
0v
0z
0!"
0$"
0+"
06"
0;"
0G"
0L"
0Q"
0V"
0g"
0n"
0q"
0z"
0}"
0*#
06#
0=#
#65000000
1"
1(
1Z
1b
1r
1v
1z
1!"
1$"
1+"
16"
1;"
1G"
1L"
1Q"
1V"
1g"
1n"
1q"
1z"
1}"
1*#
16#
1=#
#70000000
0"
0(
0Z
0b
0r
0v
0z
0!"
0$"
0+"
06"
0;"
0G"
0L"
0Q"
0V"
0g"
0n"
0q"
0z"
0}"
0*#
06#
0=#
#75000000
1"
1(
1Z
1b
1r
1v
1z
1!"
1$"
1+"
16"
1;"
1G"
1L"
1Q"
1V"
1g"
1n"
1q"
1z"
1}"
1*#
16#
1=#
#80000000
0"
0(
0Z
0b
0r
0v
0z
0!"
0$"
0+"
06"
0;"
0G"
0L"
0Q"
0V"
0g"
0n"
0q"
0z"
0}"
0*#
06#
0=#
#85000000
1"
1(
1Z
1b
1r
1v
1z
1!"
1$"
1+"
16"
1;"
1G"
1L"
1Q"
1V"
1g"
1n"
1q"
1z"
1}"
1*#
16#
1=#
#90000000
0"
0(
0Z
0b
0r
0v
0z
0!"
0$"
0+"
06"
0;"
0G"
0L"
0Q"
0V"
0g"
0n"
0q"
0z"
0}"
0*#
06#
0=#
#95000000
1"
1(
b1 .
1Z
1b
1r
1v
1z
b1 |
1!"
1$"
1+"
16"
1;"
1G"
1L"
1Q"
1V"
1g"
1n"
1q"
1x"
1z"
1}"
1*#
16#
1=#
#100000000
0"
1$
0(
1*
1S
0Z
0b
1c
0r
0v
0z
0!"
0$"
1&"
0+"
06"
0;"
1<"
0G"
0L"
0Q"
0V"
0g"
0n"
0q"
0z"
0}"
0*#
1+#
06#
0=#
1>#
#105000000
1"
1(
13
1I
1Z
1b
1e
0k
1l
1r
1v
1z
1!"
1$"
1+"
16"
1;"
1>"
0?"
0D"
1E"
1G"
1L"
1Q"
1S"
1V"
1g"
1n"
1q"
1z"
1}"
1*#
1.#
b100000 1#
03#
14#
16#
18#
1=#
1A#
b100000000000000000000000000000 D#
0F#
1G#
#110000000
0"
0(
0Z
0b
0r
0v
0z
0!"
0$"
0+"
06"
0;"
0G"
0L"
0Q"
0V"
0g"
0n"
0q"
0z"
0}"
0*#
06#
0=#
#115000000
1"
b0000000000000000 &
1(
b0000000000000000 ,
03
b0 9
1>
b0000000000000000 A
b0000000000000001 H
0I
b0000000000010101 K
b0000000000000101 L
0R
b0000000000000010 W
1Z
b0000000000000101 a
1b
0e
1f
0g
1k
1m
1r
1v
b0 y
1z
b1 }
1!"
1$"
1+"
b0000000000000010 /"
b1 5"
16"
b0000000000000001 9"
1;"
0>"
1?"
1D"
1G"
1L"
1Q"
0S"
b0000000000000101 U"
1V"
b0000000000000001 ["
b0000000000000001 ^"
b0000000000010101 `"
b1 d"
b0 e"
b0 f"
1g"
1n"
1q"
b0000000000010101 t"
1z"
b0000000000000000 {"
1}"
b0000000000000001 %#
b0000000000000010 '#
1*#
0.#
b010000 1#
04#
16#
08#
b0000000000000001 :#
1=#
0A#
b010000000000000000000000000000 D#
0G#
#120000000
0"
0(
0Z
0b
0r
0v
0z
0!"
0$"
0+"
06"
0;"
0G"
0L"
0Q"
0V"
0g"
0n"
0q"
0z"
0}"
0*#
06#
0=#
#125000000
1"
1#
1(
1)
b0000000000000010 @
b1 G
b0000000000010101 M
1Z
1b
0k
1r
1v
1z
1!"
1$"
1+"
b0000000000000010 1"
16"
b0000000000010101 :"
1;"
0D"
1G"
1L"
1Q"
1V"
1g"
b1 i"
1n"
1q"
b0000000000010101 u"
1z"
1}"
1*#
b001000 1#
16#
b0000000000000010 9#
1=#
b001000000000000000000000000000 D#
#130000000
0"
0(
0Z
0b
0r
0v
0z
0!"
0$"
0+"
06"
0;"
0G"
0L"
0Q"
0V"
0g"
0n"
0q"
0z"
0}"
0*#
06#
0=#
#135000000
1"
1(
b0000000000000001 2
b0000000000000101 ;
1Z
1b
b0000000000000001 h
b0000000000000001 j
1r
1v
1z
1!"
1$"
1+"
16"
1;"
b0000000000000101 A"
b0000000000000101 C"
1G"
b0000000000000001 J"
1L"
b0000000000000101 O"
1Q"
1V"
1g"
1n"
1q"
1z"
1}"
1*#
b000100 1#
16#
1=#
b000100000000000000000000000000 D#
#140000000
0"
0(
0Z
0b
0r
0v
0z
0!"
0$"
0+"
06"
0;"
0G"
0L"
0Q"
0V"
0g"
0n"
0q"
0z"
0}"
0*#
06#
0=#
#145000000
1"
1(
b0000000000000010 2
b0000000000000101 4
b0000000000000001 5
b0000000000001010 ;
1Z
1b
b0000000000000010 h
b0000000000000010 j
b00001 o
1r
1v
1z
1!"
1$"
1+"
16"
1;"
b0000000000001010 A"
b0000000000001010 C"
1G"
b0000000000000010 J"
b0000000000000001 K"
1L"
b0000000000001010 O"
b0000000000000101 P"
1Q"
1V"
1g"
b00101 k"
1n"
1q"
1z"
1}"
1*#
b000010 1#
16#
1=#
b000010000000000000000000000000 D#
#150000000
0"
0(
0Z
0b
0r
0v
0z
0!"
0$"
0+"
06"
0;"
0G"
0L"
0Q"
0V"
0g"
0n"
0q"
0z"
0}"
0*#
06#
0=#
#155000000
1"
1(
b1 0
b0000000000000011 2
b0000000000001010 4
b0000000000000010 5
b0000000000001111 ;
1Z
1b
b0000000000000011 h
b0000000000000011 j
b00010 o
1r
b00001 t
1v
1z
1!"
b1 #"
1$"
1+"
16"
1;"
b0000000000001111 A"
b0000000000001111 C"
1G"
b0000000000000011 J"
b0000000000000010 K"
1L"
b0000000000001111 O"
b0000000000001010 P"
1Q"
1V"
1X"
1g"
b01010 k"
1n"
b00101 p"
1q"
1z"
1}"
1*#
b000001 1#
16#
1=#
b000001000000000000000000000000 D#
#160000000
0"
0(
0Z
0b
0r
0v
0z
0!"
0$"
0+"
06"
0;"
0G"
0L"
0Q"
0V"
0g"
0n"
0q"
0z"
0}"
0*#
06#
0=#
#165000000
1"
1(
b0 .
b0000000000000010 1
b0000000000000100 2
b0000000000001111 4
b0000000000000011 5
b1 9
b0000000000010100 ;
0>
b0000000000000100 B
b1 D
b0000000000000010 E
b0000000000000011 F
1I
b0000000000000001 J
b0000000000000011 U
1Z
b0000000000000010 ]
b0000000000000010 ^
b0000000000000100 _
1b
1e
0f
b0000000000000100 h
b0000000000000100 j
b00011 o
1r
b0000000000000010 s
b00010 t
b0000000000000001 u
1v
b1 y
1z
b0 |
b0 }
1!"
1$"
b1 '"
b0000000000000011 )"
1+"
b0 5"
16"
b1 8"
1;"
1>"
0?"
b0000000000010100 A"
b0000000000010100 C"
1G"
b0000000000000100 J"
b0000000000000011 K"
1L"
b0000000000010100 O"
b0000000000001111 P"
1Q"
1V"
b0000000000000100 Y"
b0000000000000011 Z"
b0000000000000011 b"
b0000000000000011 c"
b0 d"
b1 e"
1g"
b01111 k"
1n"
b0000000000000010 o"
b01010 p"
1q"
0x"
1z"
1}"
1*#
1.#
b0000000000000001 0#
b100000 1#
b0000000000000001 2#
14#
16#
18#
1=#
b000000100000000000000000000000 D#
#170000000
0"
0(
0Z
0b
0r
0v
0z
0!"
0$"
0+"
06"
0;"
0G"
0L"
0Q"
0V"
0g"
0n"
0q"
0z"
0}"
0*#
06#
0=#
#175000000
1"
1(
b0000000000000000 1
b0000000000000000 2
b0000000000010100 4
b0000000000000100 5
b0 9
b0000000000000001 ;
b0000000000000011 =
1>
b0000000000000000 B
b0000000000000011 E
b0000000000000111 F
b0000000000000010 H
0I
b0000000000010110 K
b0000000000000100 U
b0000000000000011 W
1Z
b0000000000000011 ]
b0000000000000000 ^
b0000000000000000 _
1b
0e
1f
b0000000000000000 h
b0000000000000000 j
1k
b00100 o
1r
b0000000000000011 s
b00011 t
1v
b0 y
1z
b1 }
1!"
1$"
b0000000000000111 )"
b0000000000000011 *"
1+"
b0000000000000011 /"
b1 5"
16"
b0000000000000010 9"
1;"
0>"
1?"
b0000000000000001 A"
b0000000000000001 C"
1D"
1G"
b0000000000000000 J"
b0000000000000100 K"
1L"
b0000000000000001 O"
b0000000000010100 P"
1Q"
1V"
b0000000000000000 Y"
b0000000000000100 Z"
b0000000000000010 ["
b0000000000000010 ^"
b0000000000010110 `"
b0000000000000011 a"
b0000000000000100 b"
b0000000000000111 c"
b1 d"
b0 e"
1g"
b10100 k"
1n"
b0000000000000000 o"
b01111 p"
1q"
b0000000000010110 t"
b0000000000000011 v"
1z"
1}"
b0000000000000010 %#
b0000000000000011 '#
1*#
0.#
b010000 1#
04#
16#
08#
b0000000000000010 :#
1=#
b000000010000000000000000000000 D#
#180000000
0"
0(
0Z
0b
0r
0v
0z
0!"
0$"
0+"
06"
0;"
0G"
0L"
0Q"
0V"
0g"
0n"
0q"
0z"
0}"
0*#
06#
0=#
#185000000
1"
1(
b0000000000000001 1
b0000000000000001 4
b0000000000000000 5
b0000000000000111 =
b0000000000000011 @
b0000000000000100 B
b0000000000000100 E
b0000000000010110 M
b0000000000000001 Q
b0000000000000000 U
1Z
b0000000000000100 ]
b0000000000000001 ^
b0000000000000100 _
1b
0k
b00000 o
1r
b0000000000000100 s
b00100 t
1v
b0000000000000001 x
1z
1!"
1$"
b0000000000000111 *"
1+"
b0000000000000011 1"
16"
b0000000000010110 :"
1;"
0D"
1G"
b0000000000000000 K"
1L"
b0000000000000001 P"
1Q"
1V"
b0000000000000100 Y"
b0000000000000000 Z"
b0000000000000111 a"
b0000000000000000 b"
1g"
b00001 k"
1n"
b0000000000000001 o"
b10100 p"
1q"
b0000000000010110 u"
b0000000000000111 v"
1z"
1}"
b0000000000000001 ##
1*#
b001000 1#
16#
b0000000000000011 9#
1=#
b000000001000000000000000000000 D#
#190000000
0"
0(
0Z
0b
0r
0v
0z
0!"
0$"
0+"
06"
0;"
0G"
0L"
0Q"
0V"
0g"
0n"
0q"
0z"
0}"
0*#
06#
0=#
#195000000
1"
0#
1(
0)
b0000000000000011 1
b0000000000000001 2
b0000000000000110 ;
b0000000000000001 <
b0000000000010010 B
b0000000000000110 E
b0000000000001011 F
b0 G
b0000000000000100 U
b0000000000000001 Y
1Z
b0000000000000110 ]
b0000000000000011 ^
b0000000000010010 _
1b
b0000000000000001 h
b0000000000000001 j
1r
b0000000000000110 s
b00000 t
1v
1z
1!"
1$"
b0000000000001011 )"
1+"
16"
1;"
b0000000000000110 A"
b0000000000000110 C"
1G"
b0000000000000001 J"
1L"
b0000000000000110 O"
1Q"
1V"
b0000000000010010 Y"
b0000000000000100 Z"
b0000000000000100 b"
b0000000000001011 c"
1g"
b0 i"
1n"
b0000000000000011 o"
b00001 p"
1q"
1z"
1}"
b0000000000000001 $#
1*#
b000100 1#
16#
1=#
b000000000100000000000000000000 D#
#200000000
0"
0(
0Z
0b
0r
0v
0z
0!"
0$"
0+"
06"
0;"
0G"
0L"
0Q"
0V"
0g"
0n"
0q"
0z"
0}"
0*#
06#
0=#
#205000000
1"
1(
b0 0
b0000000000000101 1
b0000000000000010 2
b0000000000000110 4
b0000000000000001 5
b0000000000001011 ;
b0000000000001011 =
b0000000000000101 B
b0000000000000001 E
b0000000000011101 F
b0000000000010010 U
1Z
b0000000000000001 ]
b0000000000000101 ^
b0000000000000101 _
1b
b0000000000000010 h
b0000000000000010 j
b00001 o
1r
b0000000000000001 s
1v
1z
1!"
b0 #"
1$"
b0000000000011101 )"
b0000000000001011 *"
1+"
16"
1;"
b0000000000001011 A"
b0000000000001011 C"
1G"
b0000000000000010 J"
b0000000000000001 K"
1L"
b0000000000001011 O"
b0000000000000110 P"
1Q"
1V"
0X"
b0000000000000101 Y"
b0000000000010010 Z"
b0000000000001011 a"
b0000000000010010 b"
b0000000000011101 c"
1g"
b00110 k"
1n"
b0000000000000101 o"
1q"
b0000000000001011 v"
1z"
1}"
1*#
b000010 1#
16#
1=#
b000000000010000000000000000000 D#
#210000000
0"
0(
0Z
0b
0r
0v
0z
0!"
0$"
0+"
06"
0;"
0G"
0L"
0Q"
0V"
0g"
0n"
0q"
0z"
0}"
0*#
06#
0=#
#215000000
1"
1(
b1 .
b1 0
b0000000000000011 2
b0000000000001011 4
b0000000000000010 5
b0000000000010000 ;
b0000000000011101 =
b0 D
b0000000000101111 F
1Z
1b
b0000000000000011 h
b0000000000000011 j
b00010 o
1r
b00001 t
1v
1z
b1 |
1!"
b1 #"
1$"
b0 '"
b0000000000101111 )"
b0000000000011101 *"
1+"
16"
b0 8"
1;"
b0000000000010000 A"
b0000000000010000 C"
1G"
b0000000000000011 J"
b0000000000000010 K"
1L"
b0000000000010000 O"
b0000000000001011 P"
1Q"
1V"
1X"
b0000000000011101 a"
b0000000000101111 c"
1g"
b01011 k"
1n"
b00110 p"
1q"
b0000000000011101 v"
1x"
1z"
1}"
1*#
b000001 1#
16#
1=#
b000000000001000000000000000000 D#
#220000000
0"
0(
0Z
0b
0r
0v
0z
0!"
0$"
0+"
06"
0;"
0G"
0L"
0Q"
0V"
0g"
0n"
0q"
0z"
0}"
0*#
06#
0=#
#225000000
1"
1(
b0 .
b0000000000000010 1
b0000000000000100 2
b0000000000010000 4
b0000000000000011 5
b1 9
b0000000000010101 ;
b0000000000000000 =
0>
b0000000000000100 B
b1 D
b0000000000000010 E
b0000000000000101 F
1I
b0000000000000010 J
b0000000000000101 U
1Z
b0000000000000010 ]
b0000000000000010 ^
b0000000000000100 _
1b
1e
0f
b0000000000000100 h
b0000000000000100 j
b00011 o
1r
b0000000000000010 s
b00010 t
b0000000000000010 u
1v
b1 y
1z
b0 |
b0 }
1!"
1$"
b1 '"
b0000000000000101 )"
b0000000000000000 *"
1+"
b0 5"
16"
b1 8"
1;"
1>"
0?"
b0000000000010101 A"
b0000000000010101 C"
1G"
b0000000000000100 J"
b0000000000000011 K"
1L"
b0000000000010101 O"
b0000000000010000 P"
1Q"
1V"
b0000000000000100 Y"
b0000000000000101 Z"
b0000000000000000 a"
b0000000000000101 b"
b0000000000000101 c"
b0 d"
b1 e"
1g"
b10000 k"
1n"
b0000000000000010 o"
b01011 p"
1q"
b0000000000000000 v"
0x"
1z"
1}"
1*#
1.#
b0000000000000010 0#
b100000 1#
b0000000000000010 2#
14#
16#
18#
1=#
b000000000000100000000000000000 D#
#230000000
0"
0(
0Z
0b
0r
0v
0z
0!"
0$"
0+"
06"
0;"
0G"
0L"
0Q"
0V"
0g"
0n"
0q"
0z"
0}"
0*#
06#
0=#
