src/lalp/examples/max/t_max_alp.vcd
$date
  Tue May 10 19:39:41 2011
$end
$version
  GHDL v0
$end
$timescale
  1 fs
$end
$var reg 1 ! \clear\ $end
$var reg 1 " \clk\ $end
$var reg 1 # \done\ $end
$var reg 1 $ \init\ $end
$var reg 32 % \maxval\[31:0] $end
$var reg 1 & \reset\ $end
$scope module uut $end
$var reg 1 ' \clear\ $end
$var reg 1 ( \clk\ $end
$var reg 1 ) \done\ $end
$var reg 1 * \init\ $end
$var reg 32 + \maxval\[31:0] $end
$var reg 1 , \reset\ $end
$var reg 12 - s0[11:0] $end
$var reg 1 . s13[0:0] $end
$var reg 1 / s11 $end
$var reg 1 0 s10[0:0] $end
$var reg 1 1 s12 $end
$var reg 1 2 s7[0:0] $end
$var reg 1 3 s9 $end
$var reg 32 4 s3[31:0] $end
$var reg 12 5 s1[11:0] $end
$var reg 32 6 s6[31:0] $end
$var reg 32 7 s8[31:0] $end
$var reg 12 8 s2[11:0] $end
$scope module \c14\ $end
$var reg 1 9 a[0:0] $end
$var reg 1 : clk $end
$var reg 1 ; reset $end
$var reg 1 < a_delayed[0:0] $end
$comment int is not handled $end
$upscope $end
$scope module \c13\ $end
$var reg 1 = a[0:0] $end
$var reg 1 > clk $end
$var reg 1 ? reset $end
$var reg 1 @ a_delayed[0:0] $end
$comment int is not handled $end
$upscope $end
$scope module \a_if_gt_op_s_b\ $end
$var reg 32 A i0[31:0] $end
$var reg 32 B i1[31:0] $end
$var reg 1 C o0[0:0] $end
$upscope $end
$scope module \i\ $end
$var reg 12 D input[11:0] $end
$var reg 12 E termination[11:0] $end
$var reg 1 F clk $end
$var reg 1 G clk_en $end
$var reg 1 H reset $end
$var reg 1 I load $end
$var reg 1 J step $end
$var reg 1 K done $end
$var reg 12 L output[11:0] $end
$var reg 1 M shsteps[0:0] $end
$var reg 12 N value[11:0] $end
$var reg 1 O init $end
$var reg 1 P stepi $end
$var reg 1 Q cond $end
$upscope $end
$scope module \a\ $end
$var reg 1 R clk $end
$var reg 1 S reset $end
$var reg 1 T we $end
$var reg 32 U i0[31:0] $end
$var reg 32 V o0[31:0] $end
$upscope $end
$scope module \v\ $end
$var reg 32 W data_in[31:0] $end
$var reg 11 X address[10:0] $end
$var reg 1 Y we $end
$var reg 1 Z oe $end
$var reg 1 [ clk $end
$var reg 32 \ data_out[31:0] $end
$var reg 11 ] read_a[10:0] $end
$comment ram is not handled $end
$upscope $end
$scope module \b\ $end
$var reg 1 ^ clk $end
$var reg 1 _ reset $end
$var reg 1 ` we $end
$var reg 32 a i0[31:0] $end
$var reg 32 b o0[31:0] $end
$upscope $end
$upscope $end
$enddefinitions $end
#0
0!
0"
0#
0$
b00000000000000000000000000000000 %
1&
0'
0(
0)
0*
b00000000000000000000000000000000 +
1,
b000000000000 -
b0 .
0/
b0 0
01
b0 2
03
bUUUUUUUUUUUUUUUUUUUUUUUUUUUUUUUU 4
b100000000000 5
b00000000000000000000000000000000 6
b00000000000000000000000000000000 7
b000000000000 8
b0 9
0:
1;
b0 <
b0 =
0>
1?
b0 @
b00000000000000000000000000000000 A
b00000000000000000000000000000000 B
b0 C
b000000000000 D
b100000000000 E
0F
0G
1H
0I
0J
0K
b000000000000 L
b1 M
b000000000000 N
1O
0P
1Q
0R
1S
0T
bUUUUUUUUUUUUUUUUUUUUUUUUUUUUUUUU U
b00000000000000000000000000000000 V
b00000000000000000000000000000000 W
b00000000000 X
0Y
1Z
0[
bUUUUUUUUUUUUUUUUUUUUUUUUUUUUUUUU \
bUUUUUUUUUUU ]
0^
1_
0`
b00000000000000000000000000000000 a
b00000000000000000000000000000000 b
#5000000
1"
1(
b00000000000000000000000000000001 4
1:
1>
1F
1R
b00000000000000000000000000000001 U
1[
b00000000000000000000000000000001 \
b00000000000 ]
1^
#10000000
0"
0(
0:
0>
0F
0R
0[
0^
#15000000
1"
1(
1:
1>
1F
1R
1[
1^
#20000000
0"
0(
0:
0>
0F
0R
0[
0^
#25000000
1"
1(
1:
1>
1F
1R
1[
1^
#30000000
0"
0(
0:
0>
0F
0R
0[
0^
#35000000
1"
1(
1:
1>
1F
1R
1[
1^
#40000000
0"
0(
0:
0>
0F
0R
0[
0^
#45000000
1"
1(
1:
1>
1F
1R
1[
1^
#50000000
0"
0&
0(
0,
0:
0;
0>
0?
0F
0H
0R
0S
0[
0^
0_
#55000000
1"
1(
1:
1>
1F
1R
1[
1^
#60000000
0"
0(
0:
0>
0F
0R
0[
0^
#65000000
1"
1(
1:
1>
1F
1R
1[
1^
#70000000
0"
0(
0:
0>
0F
0R
0[
0^
#75000000
1"
1(
1:
1>
1F
1R
1[
1^
#80000000
0"
0(
0:
0>
0F
0R
0[
0^
#85000000
1"
1(
1:
1>
1F
1R
1[
1^
#90000000
0"
0(
0:
0>
0F
0R
0[
0^
#95000000
1"
1(
1:
1>
1F
1R
1[
1^
#100000000
0"
1$
0(
1*
1/
0:
0>
0F
1G
0R
0[
0^
#105000000
1"
1(
13
1:
b1 =
1>
1F
1J
0O
1P
1R
1[
1^
#110000000
0"
0(
0:
0>
0F
0R
0[
0^
#115000000
1"
1(
b000000000001 8
1:
1>
1F
b000000000001 L
b000000000001 N
1R
b00000000001 X
1[
1^
#120000000
0"
0(
0:
0>
0F
0R
0[
0^
#125000000
1"
1(
b1 0
b000000000010 8
1:
1>
b1 @
1F
b000000000010 L
b000000000010 N
1R
1T
b00000000010 X
1[
b00000000001 ]
1^
#130000000
0"
0(
0:
0>
0F
0R
0[
0^
#135000000
1"
1(
b1 2
b00000000000000000000000000000010 4
b00000000000000000000000000000001 6
b000000000011 8
1:
1>
b00000000000000000000000000000001 A
b1 C
1F
b000000000011 L
b000000000011 N
1R
b00000000000000000000000000000010 U
b00000000000000000000000000000001 V
b00000000011 X
1[
b00000000000000000000000000000010 \
b00000000010 ]
1^
1`
b00000000000000000000000000000001 a
#140000000
0"
0(
0:
0>
0F
0R
0[
0^
#145000000
1"
b00000000000000000000000000000001 %
1(
b00000000000000000000000000000001 +
b00000000000000000000000000000011 4
b00000000000000000000000000000010 6
b00000000000000000000000000000001 7
b000000000100 8
1:
1>
b00000000000000000000000000000010 A
b00000000000000000000000000000001 B
1F
b000000000100 L
b000000000100 N
1R
b00000000000000000000000000000011 U
b00000000000000000000000000000010 V
b00000000100 X
1[
b00000000000000000000000000000011 \
b00000000011 ]
1^
b00000000000000000000000000000010 a
b00000000000000000000000000000001 b
#150000000
0"
0(
0:
0>
0F
0R
0[
0^
#155000000
1"
b00000000000000000000000000000010 %
1(
b00000000000000000000000000000010 +
b00000000000000000000000000000100 4
b00000000000000000000000000000011 6
b00000000000000000000000000000010 7
b000000000101 8
1:
1>
b00000000000000000000000000000011 A
b00000000000000000000000000000010 B
1F
b000000000101 L
b000000000101 N
1R
b00000000000000000000000000000100 U
b00000000000000000000000000000011 V
b00000000101 X
1[
b00000000000000000000000000000100 \
b00000000100 ]
1^
b00000000000000000000000000000011 a
b00000000000000000000000000000010 b
#160000000
0"
0(
0:
0>
0F
0R
0[
0^
#165000000
1"
b00000000000000000000000000000011 %
1(
b00000000000000000000000000000011 +
b00000000000000000000000000000101 4
b00000000000000000000000000000100 6
b00000000000000000000000000000011 7
b000000000110 8
1:
1>
b00000000000000000000000000000100 A
b00000000000000000000000000000011 B
1F
b000000000110 L
b000000000110 N
1R
b00000000000000000000000000000101 U
b00000000000000000000000000000100 V
b00000000110 X
1[
b00000000000000000000000000000101 \
b00000000101 ]
1^
b00000000000000000000000000000100 a
b00000000000000000000000000000011 b
#170000000
0"
0(
0:
0>
0F
0R
0[
0^
#175000000
1"
b00000000000000000000000000000100 %
1(
b00000000000000000000000000000100 +
b00000000000000000000000000000110 4
b00000000000000000000000000000101 6
b00000000000000000000000000000100 7
b000000000111 8
1:
1>
b00000000000000000000000000000101 A
b00000000000000000000000000000100 B
1F
b000000000111 L
b000000000111 N
1R
b00000000000000000000000000000110 U
b00000000000000000000000000000101 V
b00000000111 X
1[
b00000000000000000000000000000110 \
b00000000110 ]
1^
b00000000000000000000000000000101 a
b00000000000000000000000000000100 b
#180000000
0"
0(
0:
0>
0F
0R
0[
0^
#185000000
1"
b00000000000000000000000000000101 %
1(
b00000000000000000000000000000101 +
b00000000000000000000000000000111 4
b00000000000000000000000000000110 6
b00000000000000000000000000000101 7
b000000001000 8
1:
1>
b00000000000000000000000000000110 A
b00000000000000000000000000000101 B
1F
b000000001000 L
b000000001000 N
1R
b00000000000000000000000000000111 U
b00000000000000000000000000000110 V
b00000001000 X
1[
b00000000000000000000000000000111 \
b00000000111 ]
1^
b00000000000000000000000000000110 a
b00000000000000000000000000000101 b
#190000000
0"
0(
0:
0>
0F
0R
0[
0^
#195000000
1"
b00000000000000000000000000000110 %
1(
b00000000000000000000000000000110 +
b00000000000000000000000000001000 4
b00000000000000000000000000000111 6
b00000000000000000000000000000110 7
b000000001001 8
1:
1>
b00000000000000000000000000000111 A
b00000000000000000000000000000110 B
1F
b000000001001 L
b000000001001 N
1R
b00000000000000000000000000001000 U
b00000000000000000000000000000111 V
b00000001001 X
1[
b00000000000000000000000000001000 \
b00000001000 ]
1^
b00000000000000000000000000000111 a
b00000000000000000000000000000110 b
#200000000
0"
0(
0:
0>
0F
0R
0[
0^
#205000000
1"
b00000000000000000000000000000111 %
1(
b00000000000000000000000000000111 +
b00000000000000000000000000000001 4
b00000000000000000000000000001000 6
b00000000000000000000000000000111 7
b000000001010 8
1:
1>
b00000000000000000000000000001000 A
b00000000000000000000000000000111 B
1F
b000000001010 L
b000000001010 N
1R
b00000000000000000000000000000001 U
b00000000000000000000000000001000 V
b00000001010 X
1[
b00000000000000000000000000000001 \
b00000001001 ]
1^
b00000000000000000000000000001000 a
b00000000000000000000000000000111 b
#210000000
0"
0(
0:
0>
0F
0R
0[
0^
#215000000
1"
b00000000000000000000000000001000 %
1(
b00000000000000000000000000001000 +
b0 2
b00000000000000000000000000000010 4
b00000000000000000000000000000001 6
b00000000000000000000000000001000 7
b000000001011 8
1:
1>
b00000000000000000000000000000001 A
b00000000000000000000000000001000 B
b0 C
1F
b000000001011 L
b000000001011 N
1R
b00000000000000000000000000000010 U
b00000000000000000000000000000001 V
b00000001011 X
1[
b00000000000000000000000000000010 \
b00000001010 ]
1^
0`
b00000000000000000000000000000001 a
b00000000000000000000000000001000 b
#220000000
0"
0(
0:
0>
0F
0R
0[
0^
#225000000
1"
1(
b00000000000000000000000000000011 4
b00000000000000000000000000000010 6
b000000001100 8
1:
1>
b00000000000000000000000000000010 A
1F
b000000001100 L
b000000001100 N
1R
b00000000000000000000000000000011 U
b00000000000000000000000000000010 V
b00000001100 X
1[
b00000000000000000000000000000011 \
b00000001011 ]
1^
b00000000000000000000000000000010 a
#230000000
0"
0(
0:
0>
0F
0R
0[
0^
#235000000
1"
1(
b00000000000000000000000000000100 4
b00000000000000000000000000000011 6
b000000001101 8
1:
1>
b00000000000000000000000000000011 A
1F
b000000001101 L
b000000001101 N
1R
b00000000000000000000000000000100 U
b00000000000000000000000000000011 V
b00000001101 X
1[
b00000000000000000000000000000100 \
b00000001100 ]
1^
b00000000000000000000000000000011 a
#240000000
0"
0(
0:
0>
0F
0R
0[
0^
#245000000
1"
1(
b00000000000000000000000000000101 4
b00000000000000000000000000000100 6
b000000001110 8
1:
1>
b00000000000000000000000000000100 A
1F
b000000001110 L
b000000001110 N
1R
b00000000000000000000000000000101 U
b00000000000000000000000000000100 V
b00000001110 X
1[
b00000000000000000000000000000101 \
b00000001101 ]
1^
b00000000000000000000000000000100 a
#250000000
0"
0(
0:
0>
0F
0R
0[
0^
#255000000
1"
1(
b00000000000000000000000000000110 4
b00000000000000000000000000000101 6
b000000001111 8
1:
1>
b00000000000000000000000000000101 A
1F
b000000001111 L
b000000001111 N
1R
b00000000000000000000000000000110 U
b00000000000000000000000000000101 V
b00000001111 X
1[
b00000000000000000000000000000110 \
b00000001110 ]
1^
b00000000000000000000000000000101 a
#260000000
0"
0(
0:
0>
0F
0R
0[
0^
#265000000
1"
1(
b00000000000000000000000000000111 4
b00000000000000000000000000000110 6
b000000010000 8
1:
1>
b00000000000000000000000000000110 A
1F
b000000010000 L
b000000010000 N
1R
b00000000000000000000000000000111 U
b00000000000000000000000000000110 V
b00000010000 X
1[
b00000000000000000000000000000111 \
b00000001111 ]
1^
b00000000000000000000000000000110 a
#270000000
0"
0(
0:
0>
0F
0R
0[
0^
#275000000
1"
1(
b00000000000000000000000000001000 4
b00000000000000000000000000000111 6
b000000010001 8
1:
1>
b00000000000000000000000000000111 A
1F
b000000010001 L
b000000010001 N
1R
b00000000000000000000000000001000 U
b00000000000000000000000000000111 V
b00000010001 X
1[
b00000000000000000000000000001000 \
b00000010000 ]
1^
b00000000000000000000000000000111 a
#280000000
0"
0(
0:
0>
0F
0R
0[
0^
#285000000
1"
1(
b00000000000000000000000000000001 4
b00000000000000000000000000001000 6
b000000010010 8
1:
1>
b00000000000000000000000000001000 A
1F
b000000010010 L
b000000010010 N
1R
b00000000000000000000000000000001 U
b00000000000000000000000000001000 V
b00000010010 X
1[
b00000000000000000000000000000001 \
b00000010001 ]
1^
b00000000000000000000000000001000 a
#290000000
0"
0(
0:
0>
0F
0R
0[
0^
#295000000
1"
1(
b00000000000000000000000000000010 4
b00000000000000000000000000000001 6
b000000010011 8
1:
1>
b00000000000000000000000000000001 A
1F
b000000010011 L
b000000010011 N
1R
b00000000000000000000000000000010 U
b00000000000000000000000000000001 V
b00000010011 X
1[
b00000000000000000000000000000010 \
b00000010010 ]
1^
b00000000000000000000000000000001 a
#300000000
0"
0(
0:
0>
0F
0R
0[
0^
#305000000
1"
1(
b00000000000000000000000000000011 4
b00000000000000000000000000000010 6
b000000010100 8
1:
1>
b00000000000000000000000000000010 A
1F
b000000010100 L
b000000010100 N
1R
b00000000000000000000000000000011 U
b00000000000000000000000000000010 V
b00000010100 X
1[
b00000000000000000000000000000011 \
b00000010011 ]
1^
b00000000000000000000000000000010 a
#310000000
0"
0(
0:
0>
0F
0R
0[
0^
#315000000
1"
1(
b00000000000000000000000000000100 4
b00000000000000000000000000000011 6
b000000010101 8
1:
1>
b00000000000000000000000000000011 A
1F
b000000010101 L
b000000010101 N
1R
b00000000000000000000000000000100 U
b00000000000000000000000000000011 V
b00000010101 X
1[
b00000000000000000000000000000100 \
b00000010100 ]
1^
b00000000000000000000000000000011 a
#320000000
0"
0(
0:
0>
0F
0R
0[
0^
#325000000
1"
1(
b00000000000000000000000000000101 4
b00000000000000000000000000000100 6
b000000010110 8
1:
1>
b00000000000000000000000000000100 A
1F
b000000010110 L
b000000010110 N
1R
b00000000000000000000000000000101 U
b00000000000000000000000000000100 V
b00000010110 X
1[
b00000000000000000000000000000101 \
b00000010101 ]
1^
b00000000000000000000000000000100 a
#330000000
0"
0(
0:
0>
0F
0R
0[
0^
#335000000
1"
1(
b00000000000000000000000000000110 4
b00000000000000000000000000000101 6
b000000010111 8
1:
1>
b00000000000000000000000000000101 A
1F
b000000010111 L
b000000010111 N
1R
b00000000000000000000000000000110 U
b00000000000000000000000000000101 V
b00000010111 X
1[
b00000000000000000000000000000110 \
b00000010110 ]
1^
b00000000000000000000000000000101 a
#340000000
0"
0(
0:
0>
0F
0R
0[
0^
#345000000
1"
1(
b00000000000000000000000000000111 4
b00000000000000000000000000000110 6
b000000011000 8
1:
1>
b00000000000000000000000000000110 A
1F
b000000011000 L
b000000011000 N
1R
b00000000000000000000000000000111 U
b00000000000000000000000000000110 V
b00000011000 X
1[
b00000000000000000000000000000111 \
b00000010111 ]
1^
b00000000000000000000000000000110 a
#350000000
0"
0(
0:
0>
0F
0R
0[
0^
#355000000
1"
1(
b00000000000000000000000000001000 4
b00000000000000000000000000000111 6
b000000011001 8
1:
1>
b00000000000000000000000000000111 A
1F
b000000011001 L
b000000011001 N
1R
b00000000000000000000000000001000 U
b00000000000000000000000000000111 V
b00000011001 X
1[
b00000000000000000000000000001000 \
b00000011000 ]
1^
b00000000000000000000000000000111 a
#360000000
0"
0(
0:
0>
0F
0R
0[
0^
#365000000
1"
1(
b00000000000000000000000000000001 4
b00000000000000000000000000001000 6
b000000011010 8
1:
1>
b00000000000000000000000000001000 A
1F
b000000011010 L
b000000011010 N
1R
b00000000000000000000000000000001 U
b00000000000000000000000000001000 V
b00000011010 X
1[
b00000000000000000000000000000001 \
b00000011001 ]
1^
b00000000000000000000000000001000 a
#370000000
0"
0(
0:
0>
0F
0R
0[
0^
#375000000
1"
1(
b00000000000000000000000000000010 4
b00000000000000000000000000000001 6
b000000011011 8
1:
1>
b00000000000000000000000000000001 A
1F
b000000011011 L
b000000011011 N
1R
b00000000000000000000000000000010 U
b00000000000000000000000000000001 V
b00000011011 X
1[
b00000000000000000000000000000010 \
b00000011010 ]
1^
b00000000000000000000000000000001 a
#380000000
0"
0(
0:
0>
0F
0R
0[
0^
#385000000
1"
1(
b00000000000000000000000000000011 4
b00000000000000000000000000000010 6
b000000011100 8
1:
1>
b00000000000000000000000000000010 A
1F
b000000011100 L
b000000011100 N
1R
b00000000000000000000000000000011 U
b00000000000000000000000000000010 V
b00000011100 X
1[
b00000000000000000000000000000011 \
b00000011011 ]
1^
b00000000000000000000000000000010 a
#390000000
0"
0(
0:
0>
0F
0R
0[
0^
#395000000
1"
1(
b00000000000000000000000000000100 4
b00000000000000000000000000000011 6
b000000011101 8
1:
1>
b00000000000000000000000000000011 A
1F
b000000011101 L
b000000011101 N
1R
b00000000000000000000000000000100 U
b00000000000000000000000000000011 V
b00000011101 X
1[
b00000000000000000000000000000100 \
b00000011100 ]
1^
b00000000000000000000000000000011 a
#400000000
0"
0(
0:
0>
0F
0R
0[
0^
#405000000
1"
1(
b00000000000000000000000000000101 4
b00000000000000000000000000000100 6
b000000011110 8
1:
1>
b00000000000000000000000000000100 A
1F
b000000011110 L
b000000011110 N
1R
b00000000000000000000000000000101 U
b00000000000000000000000000000100 V
b00000011110 X
1[
b00000000000000000000000000000101 \
b00000011101 ]
1^
b00000000000000000000000000000100 a
#410000000
0"
0(
0:
0>
0F
0R
0[
0^
#415000000
1"
1(
b00000000000000000000000000000110 4
b00000000000000000000000000000101 6
b000000011111 8
1:
1>
b00000000000000000000000000000101 A
1F
b000000011111 L
b000000011111 N
1R
b00000000000000000000000000000110 U
b00000000000000000000000000000101 V
b00000011111 X
1[
b00000000000000000000000000000110 \
b00000011110 ]
1^
b00000000000000000000000000000101 a
#420000000
0"
0(
0:
0>
0F
0R
0[
0^
#425000000
1"
1(
b00000000000000000000000000000111 4
b00000000000000000000000000000110 6
b000000100000 8
1:
1>
b00000000000000000000000000000110 A
1F
b000000100000 L
b000000100000 N
1R
b00000000000000000000000000000111 U
b00000000000000000000000000000110 V
b00000100000 X
1[
b00000000000000000000000000000111 \
b00000011111 ]
1^
b00000000000000000000000000000110 a
#430000000
0"
0(
0:
0>
0F
0R
0[
0^
#435000000
1"
1(
b00000000000000000000000000001000 4
b00000000000000000000000000000111 6
b000000100001 8
1:
1>
b00000000000000000000000000000111 A
1F
b000000100001 L
b000000100001 N
1R
b00000000000000000000000000001000 U
b00000000000000000000000000000111 V
b00000100001 X
1[
b00000000000000000000000000001000 \
b00000100000 ]
1^
b00000000000000000000000000000111 a
#440000000
0"
0(
0:
0>
0F
0R
0[
0^
#445000000
1"
1(
b00000000000000000000000000000001 4
b00000000000000000000000000001000 6
b000000100010 8
1:
1>
b00000000000000000000000000001000 A
1F
b000000100010 L
b000000100010 N
1R
b00000000000000000000000000000001 U
b00000000000000000000000000001000 V
b00000100010 X
1[
b00000000000000000000000000000001 \
b00000100001 ]
1^
b00000000000000000000000000001000 a
#450000000
0"
0(
0:
0>
0F
0R
0[
0^
#455000000
1"
1(
b00000000000000000000000000000010 4
b00000000000000000000000000000001 6
b000000100011 8
1:
1>
b00000000000000000000000000000001 A
1F
b000000100011 L
b000000100011 N
1R
b00000000000000000000000000000010 U
b00000000000000000000000000000001 V
b00000100011 X
1[
b00000000000000000000000000000010 \
b00000100010 ]
1^
b00000000000000000000000000000001 a
#460000000
0"
0(
0:
0>
0F
0R
0[
0^
#465000000
1"
1(
b00000000000000000000000000000011 4
b00000000000000000000000000000010 6
b000000100100 8
1:
1>
b00000000000000000000000000000010 A
1F
b000000100100 L
b000000100100 N
1R
b00000000000000000000000000000011 U
b00000000000000000000000000000010 V
b00000100100 X
1[
b00000000000000000000000000000011 \
b00000100011 ]
1^
b00000000000000000000000000000010 a
#470000000
0"
0(
0:
0>
0F
0R
0[
0^
#475000000
1"
1(
b00000000000000000000000000000100 4
b00000000000000000000000000000011 6
b000000100101 8
1:
1>
b00000000000000000000000000000011 A
1F
b000000100101 L
b000000100101 N
1R
b00000000000000000000000000000100 U
b00000000000000000000000000000011 V
b00000100101 X
1[
b00000000000000000000000000000100 \
b00000100100 ]
1^
b00000000000000000000000000000011 a
#480000000
0"
0(
0:
0>
0F
0R
0[
0^
#485000000
1"
1(
b00000000000000000000000000000101 4
b00000000000000000000000000000100 6
b000000100110 8
1:
1>
b00000000000000000000000000000100 A
1F
b000000100110 L
b000000100110 N
1R
b00000000000000000000000000000101 U
b00000000000000000000000000000100 V
b00000100110 X
1[
b00000000000000000000000000000101 \
b00000100101 ]
1^
b00000000000000000000000000000100 a
#490000000
0"
0(
0:
0>
0F
0R
0[
0^
#495000000
1"
1(
b00000000000000000000000000000110 4
b00000000000000000000000000000101 6
b000000100111 8
1:
1>
b00000000000000000000000000000101 A
1F
b000000100111 L
b000000100111 N
1R
b00000000000000000000000000000110 U
b00000000000000000000000000000101 V
b00000100111 X
1[
b00000000000000000000000000000110 \
b00000100110 ]
1^
b00000000000000000000000000000101 a
#500000000
0"
0(
0:
0>
0F
0R
0[
0^
#505000000
1"
1(
b00000000000000000000000000000111 4
b00000000000000000000000000000110 6
b000000101000 8
1:
1>
b00000000000000000000000000000110 A
1F
b000000101000 L
b000000101000 N
1R
b00000000000000000000000000000111 U
b00000000000000000000000000000110 V
b00000101000 X
1[
b00000000000000000000000000000111 \
b00000100111 ]
1^
b00000000000000000000000000000110 a
#510000000
0"
0(
0:
0>
0F
0R
0[
0^
#515000000
1"
1(
b00000000000000000000000000001000 4
b00000000000000000000000000000111 6
b000000101001 8
1:
1>
b00000000000000000000000000000111 A
1F
b000000101001 L
b000000101001 N
1R
b00000000000000000000000000001000 U
b00000000000000000000000000000111 V
b00000101001 X
1[
b00000000000000000000000000001000 \
b00000101000 ]
1^
b00000000000000000000000000000111 a
#520000000
0"
0(
0:
0>
0F
0R
0[
0^
#525000000
1"
1(
b00000000000000000000000000000001 4
b00000000000000000000000000001000 6
b000000101010 8
1:
1>
b00000000000000000000000000001000 A
1F
b000000101010 L
b000000101010 N
1R
b00000000000000000000000000000001 U
b00000000000000000000000000001000 V
b00000101010 X
1[
b00000000000000000000000000000001 \
b00000101001 ]
1^
b00000000000000000000000000001000 a
#530000000
0"
0(
0:
0>
0F
0R
0[
0^
#535000000
1"
1(
b00000000000000000000000000000010 4
b00000000000000000000000000000001 6
b000000101011 8
1:
1>
b00000000000000000000000000000001 A
1F
b000000101011 L
b000000101011 N
1R
b00000000000000000000000000000010 U
b00000000000000000000000000000001 V
b00000101011 X
1[
b00000000000000000000000000000010 \
b00000101010 ]
1^
b00000000000000000000000000000001 a
#540000000
0"
0(
0:
0>
0F
0R
0[
0^
#545000000
1"
1(
b00000000000000000000000000000011 4
b00000000000000000000000000000010 6
b000000101100 8
1:
1>
b00000000000000000000000000000010 A
1F
b000000101100 L
b000000101100 N
1R
b00000000000000000000000000000011 U
b00000000000000000000000000000010 V
b00000101100 X
1[
b00000000000000000000000000000011 \
b00000101011 ]
1^
b00000000000000000000000000000010 a
#550000000
0"
0(
0:
0>
0F
0R
0[
0^
#555000000
1"
1(
b00000000000000000000000000000100 4
b00000000000000000000000000000011 6
b000000101101 8
1:
1>
b00000000000000000000000000000011 A
1F
b000000101101 L
b000000101101 N
1R
b00000000000000000000000000000100 U
b00000000000000000000000000000011 V
b00000101101 X
1[
b00000000000000000000000000000100 \
b00000101100 ]
1^
b00000000000000000000000000000011 a
#560000000
0"
0(
0:
0>
0F
0R
0[
0^
#565000000
1"
1(
b00000000000000000000000000000101 4
b00000000000000000000000000000100 6
b000000101110 8
1:
1>
b00000000000000000000000000000100 A
1F
b000000101110 L
b000000101110 N
1R
b00000000000000000000000000000101 U
b00000000000000000000000000000100 V
b00000101110 X
1[
b00000000000000000000000000000101 \
b00000101101 ]
1^
b00000000000000000000000000000100 a
#570000000
0"
0(
0:
0>
0F
0R
0[
0^
#575000000
1"
1(
b00000000000000000000000000000110 4
b00000000000000000000000000000101 6
b000000101111 8
1:
1>
b00000000000000000000000000000101 A
1F
b000000101111 L
b000000101111 N
1R
b00000000000000000000000000000110 U
b00000000000000000000000000000101 V
b00000101111 X
1[
b00000000000000000000000000000110 \
b00000101110 ]
1^
b00000000000000000000000000000101 a
#580000000
0"
0(
0:
0>
0F
0R
0[
0^
#585000000
1"
1(
b00000000000000000000000000000111 4
b00000000000000000000000000000110 6
b000000110000 8
1:
1>
b00000000000000000000000000000110 A
1F
b000000110000 L
b000000110000 N
1R
b00000000000000000000000000000111 U
b00000000000000000000000000000110 V
b00000110000 X
1[
b00000000000000000000000000000111 \
b00000101111 ]
1^
b00000000000000000000000000000110 a
#590000000
0"
0(
0:
0>
0F
0R
0[
0^
#595000000
1"
1(
b00000000000000000000000000001000 4
b00000000000000000000000000000111 6
b000000110001 8
1:
1>
b00000000000000000000000000000111 A
1F
b000000110001 L
b000000110001 N
1R
b00000000000000000000000000001000 U
b00000000000000000000000000000111 V
b00000110001 X
1[
b00000000000000000000000000001000 \
b00000110000 ]
1^
b00000000000000000000000000000111 a
#600000000
0"
0(
0:
0>
0F
0R
0[
0^
#605000000
1"
1(
b00000000000000000000000000000001 4
b00000000000000000000000000001000 6
b000000110010 8
1:
1>
b00000000000000000000000000001000 A
1F
b000000110010 L
b000000110010 N
1R
b00000000000000000000000000000001 U
b00000000000000000000000000001000 V
b00000110010 X
1[
b00000000000000000000000000000001 \
b00000110001 ]
1^
b00000000000000000000000000001000 a
#610000000
0"
0(
0:
0>
0F
0R
0[
0^
#615000000
1"
1(
b00000000000000000000000000000010 4
b00000000000000000000000000000001 6
b000000110011 8
1:
1>
b00000000000000000000000000000001 A
1F
b000000110011 L
b000000110011 N
1R
b00000000000000000000000000000010 U
b00000000000000000000000000000001 V
b00000110011 X
1[
b00000000000000000000000000000010 \
b00000110010 ]
1^
b00000000000000000000000000000001 a
#620000000
0"
0(
0:
0>
0F
0R
0[
0^
#625000000
1"
1(
b00000000000000000000000000000011 4
b00000000000000000000000000000010 6
b000000110100 8
1:
1>
b00000000000000000000000000000010 A
1F
b000000110100 L
b000000110100 N
1R
b00000000000000000000000000000011 U
b00000000000000000000000000000010 V
b00000110100 X
1[
b00000000000000000000000000000011 \
b00000110011 ]
1^
b00000000000000000000000000000010 a
#630000000
0"
0(
0:
0>
0F
0R
0[
0^
#635000000
1"
1(
b00000000000000000000000000000100 4
b00000000000000000000000000000011 6
b000000110101 8
1:
1>
b00000000000000000000000000000011 A
1F
b000000110101 L
b000000110101 N
1R
b00000000000000000000000000000100 U
b00000000000000000000000000000011 V
b00000110101 X
1[
b00000000000000000000000000000100 \
b00000110100 ]
1^
b00000000000000000000000000000011 a
#640000000
0"
0(
0:
0>
0F
0R
0[
0^
#645000000
1"
1(
b00000000000000000000000000000101 4
b00000000000000000000000000000100 6
b000000110110 8
1:
1>
b00000000000000000000000000000100 A
1F
b000000110110 L
b000000110110 N
1R
b00000000000000000000000000000101 U
b00000000000000000000000000000100 V
b00000110110 X
1[
b00000000000000000000000000000101 \
b00000110101 ]
1^
b00000000000000000000000000000100 a
#650000000
0"
0(
0:
0>
0F
0R
0[
0^
#655000000
1"
1(
b00000000000000000000000000000110 4
b00000000000000000000000000000101 6
b000000110111 8
1:
1>
b00000000000000000000000000000101 A
1F
b000000110111 L
b000000110111 N
1R
b00000000000000000000000000000110 U
b00000000000000000000000000000101 V
b00000110111 X
1[
b00000000000000000000000000000110 \
b00000110110 ]
1^
b00000000000000000000000000000101 a
#660000000
0"
0(
0:
0>
0F
0R
0[
0^
#665000000
1"
1(
b00000000000000000000000000000111 4
b00000000000000000000000000000110 6
b000000111000 8
1:
1>
b00000000000000000000000000000110 A
1F
b000000111000 L
b000000111000 N
1R
b00000000000000000000000000000111 U
b00000000000000000000000000000110 V
b00000111000 X
1[
b00000000000000000000000000000111 \
b00000110111 ]
1^
b00000000000000000000000000000110 a
#670000000
0"
0(
0:
0>
0F
0R
0[
0^
#675000000
1"
1(
b00000000000000000000000000001000 4
b00000000000000000000000000000111 6
b000000111001 8
1:
1>
b00000000000000000000000000000111 A
1F
b000000111001 L
b000000111001 N
1R
b00000000000000000000000000001000 U
b00000000000000000000000000000111 V
b00000111001 X
1[
b00000000000000000000000000001000 \
b00000111000 ]
1^
b00000000000000000000000000000111 a
#680000000
0"
0(
0:
0>
0F
0R
0[
0^
#685000000
1"
1(
b00000000000000000000000000000001 4
b00000000000000000000000000001000 6
b000000111010 8
1:
1>
b00000000000000000000000000001000 A
1F
b000000111010 L
b000000111010 N
1R
b00000000000000000000000000000001 U
b00000000000000000000000000001000 V
b00000111010 X
1[
b00000000000000000000000000000001 \
b00000111001 ]
1^
b00000000000000000000000000001000 a
#690000000
0"
0(
0:
0>
0F
0R
0[
0^
