src/lalp/examples/dotprod/t_dotprod_alp.vcd
$date
  Wed May 11 10:00:41 2011
$end
$version
  GHDL v0
$end
$timescale
  1 fs
$end
$var reg 1 ! \clear\ $end
$var reg 1 " \clk\ $end
$var reg 1 # \done\ $end
$var reg 1 $ \init\ $end
$var reg 1 % \reset\ $end
$var reg 32 & \sum\[31:0] $end
$scope module uut $end
$var reg 1 ' \clear\ $end
$var reg 1 ( \clk\ $end
$var reg 1 ) \done\ $end
$var reg 1 * \init\ $end
$var reg 1 + \reset\ $end
$var reg 32 , \sum\[31:0] $end
$var reg 16 - s0[15:0] $end
$var reg 1 . s13 $end
$var reg 32 / s11[31:0] $end
$var reg 1 0 s15 $end
$var reg 1 1 s14[0:0] $end
$var reg 1 2 s16[0:0] $end
$var reg 1 3 s12 $end
$var reg 32 4 s7[31:0] $end
$var reg 32 5 s9[31:0] $end
$var reg 32 6 s5[31:0] $end
$var reg 16 7 s3[15:0] $end
$var reg 16 8 s1[15:0] $end
$var reg 32 9 s6[31:0] $end
$var reg 32 : s4[31:0] $end
$scope module \y_delay_op_1\ $end
$var reg 32 ; a[31:0] $end
$var reg 1 < clk $end
$var reg 1 = reset $end
$var reg 32 > a_delayed[31:0] $end
$comment int is not handled $end
$upscope $end
$scope module \c15\ $end
$var reg 1 ? a[0:0] $end
$var reg 1 @ clk $end
$var reg 1 A reset $end
$var reg 1 B a_delayed[0:0] $end
$comment int is not handled $end
$upscope $end
$scope module \c16\ $end
$var reg 1 C a[0:0] $end
$var reg 1 D clk $end
$var reg 1 E reset $end
$var reg 1 F a_delayed[0:0] $end
$comment int is not handled $end
$upscope $end
$scope module \x_delay_op_1\ $end
$var reg 32 G a[31:0] $end
$var reg 1 H clk $end
$var reg 1 I reset $end
$var reg 32 J a_delayed[31:0] $end
$comment int is not handled $end
$upscope $end
$scope module \x_delay_op_1_mult_op_s_p_y_delay_op_1_5\ $end
$var reg 1 K clk $end
$var reg 32 L i0[31:0] $end
$var reg 32 M i1[31:0] $end
$var reg 32 N o0[31:0] $end
$comment int is not handled $end
$upscope $end
$scope module \i\ $end
$var reg 16 O input[15:0] $end
$var reg 16 P termination[15:0] $end
$var reg 1 Q clk $end
$var reg 1 R clk_en $end
$var reg 1 S reset $end
$var reg 1 T load $end
$var reg 1 U step $end
$var reg 1 V done $end
$var reg 16 W output[15:0] $end
$var reg 1 X shsteps[0:0] $end
$var reg 16 Y value[15:0] $end
$var reg 1 Z init $end
$var reg 1 [ stepi $end
$var reg 1 \ cond $end
$upscope $end
$scope module \y\ $end
$var reg 32 ] data_in[31:0] $end
$var reg 4 ^ address[3:0] $end
$var reg 1 _ we $end
$var reg 1 ` oe $end
$var reg 1 a clk $end
$var reg 32 b data_out[31:0] $end
$var reg 4 c read_a[3:0] $end
$comment ram is not handled $end
$upscope $end
$scope module \x\ $end
$var reg 32 d data_in[31:0] $end
$var reg 4 e address[3:0] $end
$var reg 1 f we $end
$var reg 1 g oe $end
$var reg 1 h clk $end
$var reg 32 i data_out[31:0] $end
$var reg 4 j read_a[3:0] $end
$comment ram is not handled $end
$upscope $end
$scope module \acc\ $end
$var reg 1 k clk $end
$var reg 1 l reset $end
$var reg 1 m we $end
$var reg 1 n sel1[0:0] $end
$var reg 32 o i0[31:0] $end
$var reg 32 p i1[31:0] $end
$var reg 32 q o0[31:0] $end
$upscope $end
$upscope $end
$enddefinitions $end
#0
0!
0"
0#
0$
1%
b00000000000000000000000000000000 &
0'
0(
0)
0*
1+
b00000000000000000000000000000000 ,
b0000000000000000 -
0.
b00000000000000000000000000000000 /
00
b0 1
b0 2
03
b00000000000000000000000000000000 4
bUUUUUUUUUUUUUUUUUUUUUUUUUUUUUUUU 5
bUUUUUUUUUUUUUUUUUUUUUUUUUUUUUUUU 6
b0000000000000000 7
b0000100000000000 8
b00000000000000000000000000000000 9
bUUUUUUUUUUUUUUUUUUUUUUUUUUUUUUUU :
bUUUUUUUUUUUUUUUUUUUUUUUUUUUUUUUU ;
0<
1=
b00000000000000000000000000000000 >
b0 ?
0@
1A
b0 B
b0 C
0D
1E
b0 F
bUUUUUUUUUUUUUUUUUUUUUUUUUUUUUUUU G
0H
1I
b00000000000000000000000000000000 J
0K
b00000000000000000000000000000000 L
b00000000000000000000000000000000 M
bUUUUUUUUUUUUUUUUUUUUUUUUUUUUUUUU N
b0000000000000000 O
b0000100000000000 P
0Q
0R
1S
0T
0U
0V
b0000000000000000 W
b1 X
b0000000000000000 Y
1Z
0[
1\
b00000000000000000000000000000000 ]
b0000 ^
0_
1`
0a
bUUUUUUUUUUUUUUUUUUUUUUUUUUUUUUUU b
bUUUU c
b00000000000000000000000000000000 d
b0000 e
0f
1g
0h
bUUUUUUUUUUUUUUUUUUUUUUUUUUUUUUUU i
bUUUU j
0k
1l
0m
b1 n
b00000000000000000000000000000000 o
bUUUUUUUUUUUUUUUUUUUUUUUUUUUUUUUU p
b00000000000000000000000000000000 q
#5000000
1"
1(
b00000000000000000000000000000100 6
b00000000000000000000000000000001 :
b00000000000000000000000000000100 ;
1<
1@
1D
b00000000000000000000000000000001 G
1H
1K
1Q
1a
b00000000000000000000000000000100 b
b0000 c
1h
b00000000000000000000000000000001 i
b0000 j
1k
#10000000
0"
0(
0<
0@
0D
0H
0K
0Q
0a
0h
0k
#15000000
1"
1(
1<
1@
1D
1H
1K
1Q
1a
1h
1k
#20000000
0"
0(
0<
0@
0D
0H
0K
0Q
0a
0h
0k
#25000000
1"
1(
1<
1@
1D
1H
1K
1Q
1a
1h
1k
#30000000
0"
0(
0<
0@
0D
0H
0K
0Q
0a
0h
0k
#35000000
1"
1(
1<
1@
1D
1H
1K
1Q
1a
1h
1k
#40000000
0"
0(
0<
0@
0D
0H
0K
0Q
0a
0h
0k
#45000000
1"
1(
b00000000000000000000000000000000 5
1<
1@
1D
1H
1K
b00000000000000000000000000000000 N
1Q
1a
1h
1k
b00000000000000000000000000000000 p
#50000000
0"
0%
0(
0+
0<
0=
0@
0A
0D
0E
0H
0I
0K
0Q
0S
0a
0h
0k
0l
#55000000
1"
1(
b00000000000000000000000000000100 4
b00000000000000000000000000000001 9
1<
b00000000000000000000000000000100 >
1@
1D
1H
b00000000000000000000000000000001 J
1K
b00000000000000000000000000000001 L
b00000000000000000000000000000100 M
1Q
1a
1h
1k
#60000000
0"
0(
0<
0@
0D
0H
0K
0Q
0a
0h
0k
#65000000
1"
1(
1<
1@
1D
1H
1K
1Q
1a
1h
1k
#70000000
0"
0(
0<
0@
0D
0H
0K
0Q
0a
0h
0k
#75000000
1"
1(
1<
1@
1D
1H
1K
1Q
1a
1h
1k
#80000000
0"
0(
0<
0@
0D
0H
0K
0Q
0a
0h
0k
#85000000
1"
1(
1<
1@
1D
1H
1K
1Q
1a
1h
1k
#90000000
0"
0(
0<
0@
0D
0H
0K
0Q
0a
0h
0k
#95000000
1"
1(
1<
1@
1D
1H
1K
1Q
1a
1h
1k
#100000000
0"
1$
0(
1*
13
0<
0@
0D
0H
0K
0Q
1R
0a
0h
0k
#105000000
1"
1(
10
b00000000000000000000000000000100 5
1<
1@
b1 C
1D
1H
1K
b00000000000000000000000000000100 N
1Q
1U
0Z
1[
1a
1h
1k
b00000000000000000000000000000100 p
#110000000
0"
0(
0<
0@
0D
0H
0K
0Q
0a
0h
0k
#115000000
1"
1(
b0000000000000001 7
1<
1@
1D
1H
1K
1Q
b0000000000000001 W
b0000000000000001 Y
b0001 ^
1a
b0001 e
1h
1k
#120000000
0"
0(
0<
0@
0D
0H
0K
0Q
0a
0h
0k
#125000000
1"
1(
b0000000000000010 7
1<
1@
1D
1H
1K
1Q
b0000000000000010 W
b0000000000000010 Y
b0010 ^
1a
b0001 c
b0010 e
1h
b0001 j
1k
#130000000
0"
0(
0<
0@
0D
0H
0K
0Q
0a
0h
0k
#135000000
1"
1(
b00000000000000000000000000000101 6
b0000000000000011 7
b00000000000000000000000000000010 :
b00000000000000000000000000000101 ;
1<
1@
1D
b00000000000000000000000000000010 G
1H
1K
1Q
b0000000000000011 W
b0000000000000011 Y
b0011 ^
1a
b00000000000000000000000000000101 b
b0010 c
b0011 e
1h
b00000000000000000000000000000010 i
b0010 j
1k
#140000000
0"
0(
0<
0@
0D
0H
0K
0Q
0a
0h
0k
#145000000
1"
1(
b00000000000000000000000000000101 4
b00000000000000000000000000000110 6
b0000000000000100 7
b00000000000000000000000000000010 9
b00000000000000000000000000000011 :
b00000000000000000000000000000110 ;
1<
b00000000000000000000000000000101 >
1@
1D
b00000000000000000000000000000011 G
1H
b00000000000000000000000000000010 J
1K
b00000000000000000000000000000010 L
b00000000000000000000000000000101 M
1Q
b0000000000000100 W
b0000000000000100 Y
b0100 ^
1a
b00000000000000000000000000000110 b
b0011 c
b0100 e
1h
b00000000000000000000000000000011 i
b0011 j
1k
#150000000
0"
0(
0<
0@
0D
0H
0K
0Q
0a
0h
0k
#155000000
1"
1(
b00000000000000000000000000000110 4
b00000000000000000000000000000000 6
b0000000000000101 7
b00000000000000000000000000000011 9
b00000000000000000000000000000000 :
b00000000000000000000000000000000 ;
1<
b00000000000000000000000000000110 >
1@
1D
b00000000000000000000000000000000 G
1H
b00000000000000000000000000000011 J
1K
b00000000000000000000000000000011 L
b00000000000000000000000000000110 M
1Q
b0000000000000101 W
b0000000000000101 Y
b0101 ^
1a
b00000000000000000000000000000000 b
b0100 c
b0101 e
1h
b00000000000000000000000000000000 i
b0100 j
1k
#160000000
0"
0(
0<
0@
0D
0H
0K
0Q
0a
0h
0k
#165000000
1"
1(
b00000000000000000000000000000000 4
b0000000000000110 7
b00000000000000000000000000000000 9
1<
b00000000000000000000000000000000 >
1@
1D
1H
b00000000000000000000000000000000 J
1K
b00000000000000000000000000000000 L
b00000000000000000000000000000000 M
1Q
b0000000000000110 W
b0000000000000110 Y
b0110 ^
1a
b0101 c
b0110 e
1h
b0101 j
1k
#170000000
0"
0(
0<
0@
0D
0H
0K
0Q
0a
0h
0k
#175000000
1"
1(
b0000000000000111 7
1<
1@
1D
1H
1K
1Q
b0000000000000111 W
b0000000000000111 Y
b0111 ^
1a
b0110 c
b0111 e
1h
b0110 j
1k
#180000000
0"
0(
0<
0@
0D
0H
0K
0Q
0a
0h
0k
#185000000
1"
1(
b1 2
b0000000000001000 7
1<
1@
1D
b1 F
1H
1K
1Q
b0000000000001000 W
b0000000000001000 Y
b1000 ^
1a
b0111 c
b1000 e
1h
b0111 j
1k
1m
#190000000
0"
0(
0<
0@
0D
0H
0K
0Q
0a
0h
0k
#195000000
1"
b00000000000000000000000000000100 &
1(
b00000000000000000000000000000100 ,
b00000000000000000000000000000100 /
b00000000000000000000000000001010 5
b0000000000001001 7
1<
1@
1D
1H
1K
b00000000000000000000000000001010 N
1Q
b0000000000001001 W
b0000000000001001 Y
b1001 ^
1a
b1000 c
b1001 e
1h
b1000 j
1k
b00000000000000000000000000000100 o
b00000000000000000000000000001010 p
b00000000000000000000000000000100 q
#200000000
0"
0(
0<
0@
0D
0H
0K
0Q
0a
0h
0k
#205000000
1"
b00000000000000000000000000001110 &
1(
b00000000000000000000000000001110 ,
b00000000000000000000000000001110 /
b00000000000000000000000000010010 5
b0000000000001010 7
1<
1@
1D
1H
1K
b00000000000000000000000000010010 N
1Q
b0000000000001010 W
b0000000000001010 Y
b1010 ^
1a
b1001 c
b1010 e
1h
b1001 j
1k
b00000000000000000000000000001110 o
b00000000000000000000000000010010 p
b00000000000000000000000000001110 q
#210000000
0"
0(
0<
0@
0D
0H
0K
0Q
0a
0h
0k
#215000000
1"
b00000000000000000000000000100000 &
1(
b00000000000000000000000000100000 ,
b00000000000000000000000000100000 /
b00000000000000000000000000000000 5
b0000000000001011 7
1<
1@
1D
1H
1K
b00000000000000000000000000000000 N
1Q
b0000000000001011 W
b0000000000001011 Y
b1011 ^
1a
b1010 c
b1011 e
1h
b1010 j
1k
b00000000000000000000000000100000 o
b00000000000000000000000000000000 p
b00000000000000000000000000100000 q
#220000000
0"
0(
0<
0@
0D
0H
0K
0Q
0a
0h
0k
#225000000
1"
1(
b0000000000001100 7
1<
1@
1D
1H
1K
1Q
b0000000000001100 W
b0000000000001100 Y
b1100 ^
1a
b1011 c
b1100 e
1h
b1011 j
1k
#230000000
0"
0(
0<
0@
0D
0H
0K
0Q
0a
0h
0k
#235000000
1"
1(
b0000000000001101 7
1<
1@
1D
1H
1K
1Q
b0000000000001101 W
b0000000000001101 Y
b1101 ^
1a
b1100 c
b1101 e
1h
b1100 j
1k
#240000000
0"
0(
0<
0@
0D
0H
0K
0Q
0a
0h
0k
#245000000
1"
1(
b0000000000001110 7
1<
1@
1D
1H
1K
1Q
b0000000000001110 W
b0000000000001110 Y
b1110 ^
1a
b1101 c
b1110 e
1h
b1101 j
1k
#250000000
0"
0(
0<
0@
0D
0H
0K
0Q
0a
0h
0k
#255000000
1"
1(
b0000000000001111 7
1<
1@
1D
1H
1K
1Q
b0000000000001111 W
b0000000000001111 Y
b1111 ^
1a
b1110 c
b1111 e
1h
b1110 j
1k
#260000000
0"
0(
0<
0@
0D
0H
0K
0Q
0a
0h
0k
#265000000
1"
1(
b0000000000010000 7
1<
1@
1D
1H
1K
1Q
b0000000000010000 W
b0000000000010000 Y
b0000 ^
1a
b1111 c
b0000 e
1h
b1111 j
1k
#270000000
0"
0(
0<
0@
0D
0H
0K
0Q
0a
0h
0k
#275000000
1"
1(
b0000000000010001 7
1<
1@
1D
1H
1K
1Q
b0000000000010001 W
b0000000000010001 Y
b0001 ^
1a
b0000 c
b0001 e
1h
b0000 j
1k
#280000000
0"
0(
0<
0@
0D
0H
0K
0Q
0a
0h
0k
#285000000
1"
1(
b00000000000000000000000000000100 6
b0000000000010010 7
b00000000000000000000000000000001 :
b00000000000000000000000000000100 ;
1<
1@
1D
b00000000000000000000000000000001 G
1H
1K
1Q
b0000000000010010 W
b0000000000010010 Y
b0010 ^
1a
b00000000000000000000000000000100 b
b0001 c
b0010 e
1h
b00000000000000000000000000000001 i
b0001 j
1k
#290000000
0"
0(
0<
0@
0D
0H
0K
0Q
0a
0h
0k
#295000000
1"
1(
b00000000000000000000000000000100 4
b00000000000000000000000000000101 6
b0000000000010011 7
b00000000000000000000000000000001 9
b00000000000000000000000000000010 :
b00000000000000000000000000000101 ;
1<
b00000000000000000000000000000100 >
1@
1D
b00000000000000000000000000000010 G
1H
b00000000000000000000000000000001 J
1K
b00000000000000000000000000000001 L
b00000000000000000000000000000100 M
1Q
b0000000000010011 W
b0000000000010011 Y
b0011 ^
1a
b00000000000000000000000000000101 b
b0010 c
b0011 e
1h
b00000000000000000000000000000010 i
b0010 j
1k
#300000000
0"
0(
0<
0@
0D
0H
0K
0Q
0a
0h
0k
#305000000
1"
1(
b00000000000000000000000000000101 4
b00000000000000000000000000000110 6
b0000000000010100 7
b00000000000000000000000000000010 9
b00000000000000000000000000000011 :
b00000000000000000000000000000110 ;
1<
b00000000000000000000000000000101 >
1@
1D
b00000000000000000000000000000011 G
1H
b00000000000000000000000000000010 J
1K
b00000000000000000000000000000010 L
b00000000000000000000000000000101 M
1Q
b0000000000010100 W
b0000000000010100 Y
b0100 ^
1a
b00000000000000000000000000000110 b
b0011 c
b0100 e
1h
b00000000000000000000000000000011 i
b0011 j
1k
#310000000
0"
0(
0<
0@
0D
0H
0K
0Q
0a
0h
0k
#315000000
1"
1(
b00000000000000000000000000000110 4
b00000000000000000000000000000000 6
b0000000000010101 7
b00000000000000000000000000000011 9
b00000000000000000000000000000000 :
b00000000000000000000000000000000 ;
1<
b00000000000000000000000000000110 >
1@
1D
b00000000000000000000000000000000 G
1H
b00000000000000000000000000000011 J
1K
b00000000000000000000000000000011 L
b00000000000000000000000000000110 M
1Q
b0000000000010101 W
b0000000000010101 Y
b0101 ^
1a
b00000000000000000000000000000000 b
b0100 c
b0101 e
1h
b00000000000000000000000000000000 i
b0100 j
1k
#320000000
0"
0(
0<
0@
0D
0H
0K
0Q
0a
0h
0k
#325000000
1"
1(
b00000000000000000000000000000000 4
b0000000000010110 7
b00000000000000000000000000000000 9
1<
b00000000000000000000000000000000 >
1@
1D
1H
b00000000000000000000000000000000 J
1K
b00000000000000000000000000000000 L
b00000000000000000000000000000000 M
1Q
b0000000000010110 W
b0000000000010110 Y
b0110 ^
1a
b0101 c
b0110 e
1h
b0101 j
1k
#330000000
0"
0(
0<
0@
0D
0H
0K
0Q
0a
0h
0k
#335000000
1"
1(
b0000000000010111 7
1<
1@
1D
1H
1K
1Q
b0000000000010111 W
b0000000000010111 Y
b0111 ^
1a
b0110 c
b0111 e
1h
b0110 j
1k
#340000000
0"
0(
0<
0@
0D
0H
0K
0Q
0a
0h
0k
#345000000
1"
1(
b00000000000000000000000000000100 5
b0000000000011000 7
1<
1@
1D
1H
1K
b00000000000000000000000000000100 N
1Q
b0000000000011000 W
b0000000000011000 Y
b1000 ^
1a
b0111 c
b1000 e
1h
b0111 j
1k
b00000000000000000000000000000100 p
#350000000
0"
0(
0<
0@
0D
0H
0K
0Q
0a
0h
0k
#355000000
1"
b00000000000000000000000000100100 &
1(
b00000000000000000000000000100100 ,
b00000000000000000000000000100100 /
b00000000000000000000000000001010 5
b0000000000011001 7
1<
1@
1D
1H
1K
b00000000000000000000000000001010 N
1Q
b0000000000011001 W
b0000000000011001 Y
b1001 ^
1a
b1000 c
b1001 e
1h
b1000 j
1k
b00000000000000000000000000100100 o
b00000000000000000000000000001010 p
b00000000000000000000000000100100 q
#360000000
0"
0(
0<
0@
0D
0H
0K
0Q
0a
0h
0k
#365000000
1"
b00000000000000000000000000101110 &
1(
b00000000000000000000000000101110 ,
b00000000000000000000000000101110 /
b00000000000000000000000000010010 5
b0000000000011010 7
1<
1@
1D
1H
1K
b00000000000000000000000000010010 N
1Q
b0000000000011010 W
b0000000000011010 Y
b1010 ^
1a
b1001 c
b1010 e
1h
b1001 j
1k
b00000000000000000000000000101110 o
b00000000000000000000000000010010 p
b00000000000000000000000000101110 q
#370000000
0"
0(
0<
0@
0D
0H
0K
0Q
0a
0h
0k
#375000000
1"
b00000000000000000000000001000000 &
1(
b00000000000000000000000001000000 ,
b00000000000000000000000001000000 /
b00000000000000000000000000000000 5
b0000000000011011 7
1<
1@
1D
1H
1K
b00000000000000000000000000000000 N
1Q
b0000000000011011 W
b0000000000011011 Y
b1011 ^
1a
b1010 c
b1011 e
1h
b1010 j
1k
b00000000000000000000000001000000 o
b00000000000000000000000000000000 p
b00000000000000000000000001000000 q
#380000000
0"
0(
0<
0@
0D
0H
0K
0Q
0a
0h
0k
#385000000
1"
1(
b0000000000011100 7
1<
1@
1D
1H
1K
1Q
b0000000000011100 W
b0000000000011100 Y
b1100 ^
1a
b1011 c
b1100 e
1h
b1011 j
1k
#390000000
0"
0(
0<
0@
0D
0H
0K
0Q
0a
0h
0k
#395000000
1"
1(
b0000000000011101 7
1<
1@
1D
1H
1K
1Q
b0000000000011101 W
b0000000000011101 Y
b1101 ^
1a
b1100 c
b1101 e
1h
b1100 j
1k
#400000000
0"
0(
0<
0@
0D
0H
0K
0Q
0a
0h
0k
#405000000
1"
1(
b0000000000011110 7
1<
1@
1D
1H
1K
1Q
b0000000000011110 W
b0000000000011110 Y
b1110 ^
1a
b1101 c
b1110 e
1h
b1101 j
1k
#410000000
0"
0(
0<
0@
0D
0H
0K
0Q
0a
0h
0k
#415000000
1"
1(
b0000000000011111 7
1<
1@
1D
1H
1K
1Q
b0000000000011111 W
b0000000000011111 Y
b1111 ^
1a
b1110 c
b1111 e
1h
b1110 j
1k
#420000000
0"
0(
0<
0@
0D
0H
0K
0Q
0a
0h
0k
#425000000
1"
1(
b0000000000100000 7
1<
1@
1D
1H
1K
1Q
b0000000000100000 W
b0000000000100000 Y
b0000 ^
1a
b1111 c
b0000 e
1h
b1111 j
1k
#430000000
0"
0(
0<
0@
0D
0H
0K
0Q
0a
0h
0k
#435000000
1"
1(
b0000000000100001 7
1<
1@
1D
1H
1K
1Q
b0000000000100001 W
b0000000000100001 Y
b0001 ^
1a
b0000 c
b0001 e
1h
b0000 j
1k
#440000000
0"
0(
0<
0@
0D
0H
0K
0Q
0a
0h
0k
#445000000
1"
1(
b00000000000000000000000000000100 6
b0000000000100010 7
b00000000000000000000000000000001 :
b00000000000000000000000000000100 ;
1<
1@
1D
b00000000000000000000000000000001 G
1H
1K
1Q
b0000000000100010 W
b0000000000100010 Y
b0010 ^
1a
b00000000000000000000000000000100 b
b0001 c
b0010 e
1h
b00000000000000000000000000000001 i
b0001 j
1k
#450000000
0"
0(
0<
0@
0D
0H
0K
0Q
0a
0h
0k
#455000000
1"
1(
b00000000000000000000000000000100 4
b00000000000000000000000000000101 6
b0000000000100011 7
b00000000000000000000000000000001 9
b00000000000000000000000000000010 :
b00000000000000000000000000000101 ;
1<
b00000000000000000000000000000100 >
1@
1D
b00000000000000000000000000000010 G
1H
b00000000000000000000000000000001 J
1K
b00000000000000000000000000000001 L
b00000000000000000000000000000100 M
1Q
b0000000000100011 W
b0000000000100011 Y
b0011 ^
1a
b00000000000000000000000000000101 b
b0010 c
b0011 e
1h
b00000000000000000000000000000010 i
b0010 j
1k
#460000000
0"
0(
0<
0@
0D
0H
0K
0Q
0a
0h
0k
#465000000
1"
1(
b00000000000000000000000000000101 4
b00000000000000000000000000000110 6
b0000000000100100 7
b00000000000000000000000000000010 9
b00000000000000000000000000000011 :
b00000000000000000000000000000110 ;
1<
b00000000000000000000000000000101 >
1@
1D
b00000000000000000000000000000011 G
1H
b00000000000000000000000000000010 J
1K
b00000000000000000000000000000010 L
b00000000000000000000000000000101 M
1Q
b0000000000100100 W
b0000000000100100 Y
b0100 ^
1a
b00000000000000000000000000000110 b
b0011 c
b0100 e
1h
b00000000000000000000000000000011 i
b0011 j
1k
#470000000
0"
0(
0<
0@
0D
0H
0K
0Q
0a
0h
0k
#475000000
1"
1(
b00000000000000000000000000000110 4
b00000000000000000000000000000000 6
b0000000000100101 7
b00000000000000000000000000000011 9
b00000000000000000000000000000000 :
b00000000000000000000000000000000 ;
1<
b00000000000000000000000000000110 >
1@
1D
b00000000000000000000000000000000 G
1H
b00000000000000000000000000000011 J
1K
b00000000000000000000000000000011 L
b00000000000000000000000000000110 M
1Q
b0000000000100101 W
b0000000000100101 Y
b0101 ^
1a
b00000000000000000000000000000000 b
b0100 c
b0101 e
1h
b00000000000000000000000000000000 i
b0100 j
1k
#480000000
0"
0(
0<
0@
0D
0H
0K
0Q
0a
0h
0k
#485000000
1"
1(
b00000000000000000000000000000000 4
b0000000000100110 7
b00000000000000000000000000000000 9
1<
b00000000000000000000000000000000 >
1@
1D
1H
b00000000000000000000000000000000 J
1K
b00000000000000000000000000000000 L
b00000000000000000000000000000000 M
1Q
b0000000000100110 W
b0000000000100110 Y
b0110 ^
1a
b0101 c
b0110 e
1h
b0101 j
1k
#490000000
0"
0(
0<
0@
0D
0H
0K
0Q
0a
0h
0k
#495000000
1"
1(
b0000000000100111 7
1<
1@
1D
1H
1K
1Q
b0000000000100111 W
b0000000000100111 Y
b0111 ^
1a
b0110 c
b0111 e
1h
b0110 j
1k
#500000000
0"
0(
0<
0@
0D
0H
0K
0Q
0a
0h
0k
#505000000
1"
1(
b00000000000000000000000000000100 5
b0000000000101000 7
1<
1@
1D
1H
1K
b00000000000000000000000000000100 N
1Q
b0000000000101000 W
b0000000000101000 Y
b1000 ^
1a
b0111 c
b1000 e
1h
b0111 j
1k
b00000000000000000000000000000100 p
#510000000
0"
0(
0<
0@
0D
0H
0K
0Q
0a
0h
0k
#515000000
1"
b00000000000000000000000001000100 &
1(
b00000000000000000000000001000100 ,
b00000000000000000000000001000100 /
b00000000000000000000000000001010 5
b0000000000101001 7
1<
1@
1D
1H
1K
b00000000000000000000000000001010 N
1Q
b0000000000101001 W
b0000000000101001 Y
b1001 ^
1a
b1000 c
b1001 e
1h
b1000 j
1k
b00000000000000000000000001000100 o
b00000000000000000000000000001010 p
b00000000000000000000000001000100 q
#520000000
0"
0(
0<
0@
0D
0H
0K
0Q
0a
0h
0k
#525000000
1"
b00000000000000000000000001001110 &
1(
b00000000000000000000000001001110 ,
b00000000000000000000000001001110 /
b00000000000000000000000000010010 5
b0000000000101010 7
1<
1@
1D
1H
1K
b00000000000000000000000000010010 N
1Q
b0000000000101010 W
b0000000000101010 Y
b1010 ^
1a
b1001 c
b1010 e
1h
b1001 j
1k
b00000000000000000000000001001110 o
b00000000000000000000000000010010 p
b00000000000000000000000001001110 q
#530000000
0"
0(
0<
0@
0D
0H
0K
0Q
0a
0h
0k
#535000000
1"
b00000000000000000000000001100000 &
1(
b00000000000000000000000001100000 ,
b00000000000000000000000001100000 /
b00000000000000000000000000000000 5
b0000000000101011 7
1<
1@
1D
1H
1K
b00000000000000000000000000000000 N
1Q
b0000000000101011 W
b0000000000101011 Y
b1011 ^
1a
b1010 c
b1011 e
1h
b1010 j
1k
b00000000000000000000000001100000 o
b00000000000000000000000000000000 p
b00000000000000000000000001100000 q
#540000000
0"
0(
0<
0@
0D
0H
0K
0Q
0a
0h
0k
#545000000
1"
1(
b0000000000101100 7
1<
1@
1D
1H
1K
1Q
b0000000000101100 W
b0000000000101100 Y
b1100 ^
1a
b1011 c
b1100 e
1h
b1011 j
1k
#550000000
0"
0(
0<
0@
0D
0H
0K
0Q
0a
0h
0k
#555000000
1"
1(
b0000000000101101 7
1<
1@
1D
1H
1K
1Q
b0000000000101101 W
b0000000000101101 Y
b1101 ^
1a
b1100 c
b1101 e
1h
b1100 j
1k
#560000000
0"
0(
0<
0@
0D
0H
0K
0Q
0a
0h
0k
#565000000
1"
1(
b0000000000101110 7
1<
1@
1D
1H
1K
1Q
b0000000000101110 W
b0000000000101110 Y
b1110 ^
1a
b1101 c
b1110 e
1h
b1101 j
1k
#570000000
0"
0(
0<
0@
0D
0H
0K
0Q
0a
0h
0k
#575000000
1"
1(
b0000000000101111 7
1<
1@
1D
1H
1K
1Q
b0000000000101111 W
b0000000000101111 Y
b1111 ^
1a
b1110 c
b1111 e
1h
b1110 j
1k
#580000000
0"
0(
0<
0@
0D
0H
0K
0Q
0a
0h
0k
#585000000
1"
1(
b0000000000110000 7
1<
1@
1D
1H
1K
1Q
b0000000000110000 W
b0000000000110000 Y
b0000 ^
1a
b1111 c
b0000 e
1h
b1111 j
1k
#590000000
0"
0(
0<
0@
0D
0H
0K
0Q
0a
0h
0k
#595000000
1"
1(
b0000000000110001 7
1<
1@
1D
1H
1K
1Q
b0000000000110001 W
b0000000000110001 Y
b0001 ^
1a
b0000 c
b0001 e
1h
b0000 j
1k
#600000000
0"
0(
0<
0@
0D
0H
0K
0Q
0a
0h
0k
#605000000
1"
1(
b00000000000000000000000000000100 6
b0000000000110010 7
b00000000000000000000000000000001 :
b00000000000000000000000000000100 ;
1<
1@
1D
b00000000000000000000000000000001 G
1H
1K
1Q
b0000000000110010 W
b0000000000110010 Y
b0010 ^
1a
b00000000000000000000000000000100 b
b0001 c
b0010 e
1h
b00000000000000000000000000000001 i
b0001 j
1k
#610000000
0"
0(
0<
0@
0D
0H
0K
0Q
0a
0h
0k
#615000000
1"
1(
b00000000000000000000000000000100 4
b00000000000000000000000000000101 6
b0000000000110011 7
b00000000000000000000000000000001 9
b00000000000000000000000000000010 :
b00000000000000000000000000000101 ;
1<
b00000000000000000000000000000100 >
1@
1D
b00000000000000000000000000000010 G
1H
b00000000000000000000000000000001 J
1K
b00000000000000000000000000000001 L
b00000000000000000000000000000100 M
1Q
b0000000000110011 W
b0000000000110011 Y
b0011 ^
1a
b00000000000000000000000000000101 b
b0010 c
b0011 e
1h
b00000000000000000000000000000010 i
b0010 j
1k
#620000000
0"
0(
0<
0@
0D
0H
0K
0Q
0a
0h
0k
#625000000
1"
1(
b00000000000000000000000000000101 4
b00000000000000000000000000000110 6
b0000000000110100 7
b00000000000000000000000000000010 9
b00000000000000000000000000000011 :
b00000000000000000000000000000110 ;
1<
b00000000000000000000000000000101 >
1@
1D
b00000000000000000000000000000011 G
1H
b00000000000000000000000000000010 J
1K
b00000000000000000000000000000010 L
b00000000000000000000000000000101 M
1Q
b0000000000110100 W
b0000000000110100 Y
b0100 ^
1a
b00000000000000000000000000000110 b
b0011 c
b0100 e
1h
b00000000000000000000000000000011 i
b0011 j
1k
#630000000
0"
0(
0<
0@
0D
0H
0K
0Q
0a
0h
0k
#635000000
1"
1(
b00000000000000000000000000000110 4
b00000000000000000000000000000000 6
b0000000000110101 7
b00000000000000000000000000000011 9
b00000000000000000000000000000000 :
b00000000000000000000000000000000 ;
1<
b00000000000000000000000000000110 >
1@
1D
b00000000000000000000000000000000 G
1H
b00000000000000000000000000000011 J
1K
b00000000000000000000000000000011 L
b00000000000000000000000000000110 M
1Q
b0000000000110101 W
b0000000000110101 Y
b0101 ^
1a
b00000000000000000000000000000000 b
b0100 c
b0101 e
1h
b00000000000000000000000000000000 i
b0100 j
1k
#640000000
0"
0(
0<
0@
0D
0H
0K
0Q
0a
0h
0k
#645000000
1"
1(
b00000000000000000000000000000000 4
b0000000000110110 7
b00000000000000000000000000000000 9
1<
b00000000000000000000000000000000 >
1@
1D
1H
b00000000000000000000000000000000 J
1K
b00000000000000000000000000000000 L
b00000000000000000000000000000000 M
1Q
b0000000000110110 W
b0000000000110110 Y
b0110 ^
1a
b0101 c
b0110 e
1h
b0101 j
1k
#650000000
0"
0(
0<
0@
0D
0H
0K
0Q
0a
0h
0k
#655000000
1"
1(
b0000000000110111 7
1<
1@
1D
1H
1K
1Q
b0000000000110111 W
b0000000000110111 Y
b0111 ^
1a
b0110 c
b0111 e
1h
b0110 j
1k
#660000000
0"
0(
0<
0@
0D
0H
0K
0Q
0a
0h
0k
