src/lalp/examples/dotprod/t_dotprod.vcd
$date
  Tue Mar 13 16:01:30 2012
$end
$version
  GHDL v0
$end
$timescale
  1 fs
$end
$var reg 1 ! \clear\ $end
$var reg 1 " \clk\ $end
$var reg 1 # \done\ $end
$var reg 1 $ \init\ $end
$var reg 1 % \reset\ $end
$var reg 32 & \sum\[31:0] $end
$scope module uut $end
$var reg 1 ' \clear\ $end
$var reg 1 ( \clk\ $end
$var reg 1 ) \done\ $end
$var reg 1 * \init\ $end
$var reg 1 + \reset\ $end
$var reg 32 , \sum\[31:0] $end
$var reg 16 - s0[15:0] $end
$var reg 1 . s13 $end
$var reg 1 / s11 $end
$var reg 1 0 s14[0:0] $end
$var reg 1 1 s10 $end
$var reg 1 2 s12[0:0] $end
$var reg 32 3 s7[31:0] $end
$var reg 32 4 s9[31:0] $end
$var reg 32 5 s5[31:0] $end
$var reg 16 6 s3[15:0] $end
$var reg 16 7 s1[15:0] $end
$var reg 32 8 s4[31:0] $end
$scope module \c14\ $end
$var reg 1 9 a[0:0] $end
$var reg 1 : clk $end
$var reg 1 ; reset $end
$var reg 1 < a_delayed[0:0] $end
$comment int is not handled $end
$upscope $end
$scope module \c13\ $end
$var reg 1 = a[0:0] $end
$var reg 1 > clk $end
$var reg 1 ? reset $end
$var reg 1 @ a_delayed[0:0] $end
$comment int is not handled $end
$upscope $end
$scope module \x_mult_op_s_y\ $end
$var reg 32 A i0[31:0] $end
$var reg 32 B i1[31:0] $end
$var reg 32 C o0[31:0] $end
$upscope $end
$scope module \y\ $end
$var reg 32 D data_in[31:0] $end
$var reg 11 E address[10:0] $end
$var reg 1 F we $end
$var reg 1 G oe $end
$var reg 1 H clk $end
$var reg 32 I data_out[31:0] $end
$var reg 11 J read_a[10:0] $end
$comment ram is not handled $end
$upscope $end
$scope module \i\ $end
$var reg 16 K input[15:0] $end
$var reg 16 L termination[15:0] $end
$var reg 1 M clk $end
$var reg 1 N clk_en $end
$var reg 1 O reset $end
$var reg 1 P load $end
$var reg 1 Q step $end
$var reg 1 R done $end
$var reg 16 S output[15:0] $end
$var reg 1 T shsteps[0:0] $end
$var reg 16 U value[15:0] $end
$var reg 1 V init $end
$var reg 1 W stepi $end
$var reg 1 X cond $end
$upscope $end
$scope module \acc\ $end
$var reg 1 Y clk $end
$var reg 1 Z reset $end
$var reg 1 [ we $end
$var reg 1 \ sel1[0:0] $end
$var reg 32 ] i0[31:0] $end
$var reg 32 ^ i1[31:0] $end
$var reg 32 _ o0[31:0] $end
$upscope $end
$scope module \x\ $end
$var reg 32 ` data_in[31:0] $end
$var reg 11 a address[10:0] $end
$var reg 1 b we $end
$var reg 1 c oe $end
$var reg 1 d clk $end
$var reg 32 e data_out[31:0] $end
$var reg 11 f read_a[10:0] $end
$comment ram is not handled $end
$upscope $end
$upscope $end
$enddefinitions $end
#0
0!
0"
0#
0$
1%
b00000000000000000000000000000000 &
0'
0(
0)
0*
1+
b00000000000000000000000000000000 ,
b0000000000000000 -
0.
0/
b0 0
01
b0 2
bXXXXXXXXXXXXXXXXXXXXXXXXXXXXXXXX 3
b00000000000000000000000000000000 4
bUUUUUUUUUUUUUUUUUUUUUUUUUUUUUUUU 5
b0000000000000000 6
b0000100000000000 7
bUUUUUUUUUUUUUUUUUUUUUUUUUUUUUUUU 8
b0 9
0:
1;
b0 <
b0 =
0>
1?
b0 @
bUUUUUUUUUUUUUUUUUUUUUUUUUUUUUUUU A
bUUUUUUUUUUUUUUUUUUUUUUUUUUUUUUUU B
bXXXXXXXXXXXXXXXXXXXXXXXXXXXXXXXX C
b00000000000000000000000000000000 D
b00000000000 E
0F
1G
0H
bUUUUUUUUUUUUUUUUUUUUUUUUUUUUUUUU I
bUUUUUUUUUUU J
b0000000000000000 K
b0000100000000000 L
0M
0N
1O
0P
0Q
0R
b0000000000000000 S
b1 T
b0000000000000000 U
1V
0W
1X
0Y
1Z
0[
b1 \
b00000000000000000000000000000000 ]
bXXXXXXXXXXXXXXXXXXXXXXXXXXXXXXXX ^
b00000000000000000000000000000000 _
b00000000000000000000000000000000 `
b00000000000 a
0b
1c
0d
bUUUUUUUUUUUUUUUUUUUUUUUUUUUUUUUU e
bUUUUUUUUUUU f
#5000000
1"
1(
b00000000000000000000000000000100 3
b00000000000000000000000000000100 5
b00000000000000000000000000000001 8
1:
1>
b00000000000000000000000000000001 A
b00000000000000000000000000000100 B
b00000000000000000000000000000100 C
1H
b00000000000000000000000000000100 I
b00000000000 J
1M
1Y
b00000000000000000000000000000100 ^
1d
b00000000000000000000000000000001 e
b00000000000 f
#10000000
0"
0(
0:
0>
0H
0M
0Y
0d
#15000000
1"
1(
1:
1>
1H
1M
1Y
1d
#20000000
0"
0(
0:
0>
0H
0M
0Y
0d
#25000000
1"
1(
1:
1>
1H
1M
1Y
1d
#30000000
0"
0(
0:
0>
0H
0M
0Y
0d
#35000000
1"
1(
1:
1>
1H
1M
1Y
1d
#40000000
0"
0(
0:
0>
0H
0M
0Y
0d
#45000000
1"
1(
1:
1>
1H
1M
1Y
1d
#50000000
0"
0%
0(
0+
0:
0;
0>
0?
0H
0M
0O
0Y
0Z
0d
#55000000
1"
1(
1:
1>
1H
1M
1Y
1d
#60000000
0"
0(
0:
0>
0H
0M
0Y
0d
#65000000
1"
1(
1:
1>
1H
1M
1Y
1d
#70000000
0"
0(
0:
0>
0H
0M
0Y
0d
#75000000
1"
1(
1:
1>
1H
1M
1Y
1d
#80000000
0"
0(
0:
0>
0H
0M
0Y
0d
#85000000
1"
1(
1:
1>
1H
1M
1Y
1d
#90000000
0"
0(
0:
0>
0H
0M
0Y
0d
#95000000
1"
1(
1:
1>
1H
1M
1Y
1d
#100000000
0"
1$
0(
1*
11
0:
0>
0H
0M
1N
0Y
0d
#105000000
1"
1(
1.
b1 9
1:
1>
1H
1M
1Q
0V
1W
1Y
1d
#110000000
0"
0(
0:
0>
0H
0M
0Y
0d
#115000000
1"
1(
b0000000000000001 6
1:
1>
b00000000001 E
1H
1M
b0000000000000001 S
b0000000000000001 U
1Y
b00000000001 a
1d
#120000000
0"
0(
0:
0>
0H
0M
0Y
0d
#125000000
1"
1(
b1 0
b0000000000000010 6
1:
b1 <
1>
b00000000010 E
1H
b00000000001 J
1M
b0000000000000010 S
b0000000000000010 U
1Y
1[
b00000000010 a
1d
b00000000001 f
#130000000
0"
0(
0:
0>
0H
0M
0Y
0d
#135000000
1"
b00000000000000000000000000000100 &
1(
b00000000000000000000000000000100 ,
b00000000000000000000000000001010 3
b00000000000000000000000000000100 4
b00000000000000000000000000000101 5
b0000000000000011 6
b00000000000000000000000000000010 8
1:
1>
b00000000000000000000000000000010 A
b00000000000000000000000000000101 B
b00000000000000000000000000001010 C
b00000000011 E
1H
b00000000000000000000000000000101 I
b00000000010 J
1M
b0000000000000011 S
b0000000000000011 U
1Y
b00000000000000000000000000000100 ]
b00000000000000000000000000001010 ^
b00000000000000000000000000000100 _
b00000000011 a
1d
b00000000000000000000000000000010 e
b00000000010 f
#140000000
0"
0(
0:
0>
0H
0M
0Y
0d
#145000000
1"
b00000000000000000000000000001110 &
1(
b00000000000000000000000000001110 ,
b00000000000000000000000000010010 3
b00000000000000000000000000001110 4
b00000000000000000000000000000110 5
b0000000000000100 6
b00000000000000000000000000000011 8
1:
1>
b00000000000000000000000000000011 A
b00000000000000000000000000000110 B
b00000000000000000000000000010010 C
b00000000100 E
1H
b00000000000000000000000000000110 I
b00000000011 J
1M
b0000000000000100 S
b0000000000000100 U
1Y
b00000000000000000000000000001110 ]
b00000000000000000000000000010010 ^
b00000000000000000000000000001110 _
b00000000100 a
1d
b00000000000000000000000000000011 e
b00000000011 f
#150000000
0"
0(
0:
0>
0H
0M
0Y
0d
#155000000
1"
b00000000000000000000000000100000 &
1(
b00000000000000000000000000100000 ,
b00000000000000000000000000000000 3
b00000000000000000000000000100000 4
b00000000000000000000000000000000 5
b0000000000000101 6
b00000000000000000000000000000000 8
1:
1>
b00000000000000000000000000000000 A
b00000000000000000000000000000000 B
b00000000000000000000000000000000 C
b00000000101 E
1H
b00000000000000000000000000000000 I
b00000000100 J
1M
b0000000000000101 S
b0000000000000101 U
1Y
b00000000000000000000000000100000 ]
b00000000000000000000000000000000 ^
b00000000000000000000000000100000 _
b00000000101 a
1d
b00000000000000000000000000000000 e
b00000000100 f
#157000000
#160000000
0"
0(
0:
0>
0H
0M
0Y
0d
#165000000
1"
1(
b0000000000000110 6
1:
1>
b00000000110 E
1H
b00000000101 J
1M
b0000000000000110 S
b0000000000000110 U
1Y
b00000000110 a
1d
b00000000101 f
#170000000
0"
0(
0:
0>
0H
0M
0Y
0d
#175000000
1"
1(
b0000000000000111 6
1:
1>
b00000000111 E
1H
b00000000110 J
1M
b0000000000000111 S
b0000000000000111 U
1Y
b00000000111 a
1d
b00000000110 f
#180000000
0"
0(
0:
0>
0H
0M
0Y
0d
#185000000
1"
1(
b0000000000001000 6
1:
1>
b00000001000 E
1H
b00000000111 J
1M
b0000000000001000 S
b0000000000001000 U
1Y
b00000001000 a
1d
b00000000111 f
#190000000
0"
0(
0:
0>
0H
0M
0Y
0d
#195000000
1"
1(
b0000000000001001 6
1:
1>
b00000001001 E
1H
b00000001000 J
1M
b0000000000001001 S
b0000000000001001 U
1Y
b00000001001 a
1d
b00000001000 f
#200000000
0"
0(
0:
0>
0H
0M
0Y
0d
#205000000
1"
1(
b0000000000001010 6
1:
1>
b00000001010 E
1H
b00000001001 J
1M
b0000000000001010 S
b0000000000001010 U
1Y
b00000001010 a
1d
b00000001001 f
#210000000
0"
0(
0:
0>
0H
0M
0Y
0d
#215000000
1"
1(
b0000000000001011 6
1:
1>
b00000001011 E
1H
b00000001010 J
1M
b0000000000001011 S
b0000000000001011 U
1Y
b00000001011 a
1d
b00000001010 f
#220000000
0"
0(
0:
0>
0H
0M
0Y
0d
#225000000
1"
1(
b0000000000001100 6
1:
1>
b00000001100 E
1H
b00000001011 J
1M
b0000000000001100 S
b0000000000001100 U
1Y
b00000001100 a
1d
b00000001011 f
#230000000
0"
0(
0:
0>
0H
0M
0Y
0d
#235000000
1"
1(
b0000000000001101 6
1:
1>
b00000001101 E
1H
b00000001100 J
1M
b0000000000001101 S
b0000000000001101 U
1Y
b00000001101 a
1d
b00000001100 f
#240000000
0"
0(
0:
0>
0H
0M
0Y
0d
#245000000
1"
1(
b0000000000001110 6
1:
1>
b00000001110 E
1H
b00000001101 J
1M
b0000000000001110 S
b0000000000001110 U
1Y
b00000001110 a
1d
b00000001101 f
#250000000
0"
0(
0:
0>
0H
0M
0Y
0d
#255000000
1"
1(
b0000000000001111 6
1:
1>
b00000001111 E
1H
b00000001110 J
1M
b0000000000001111 S
b0000000000001111 U
1Y
b00000001111 a
1d
b00000001110 f
#260000000
0"
0(
0:
0>
0H
0M
0Y
0d
#265000000
1"
1(
b0000000000010000 6
1:
1>
b00000010000 E
1H
b00000001111 J
1M
b0000000000010000 S
b0000000000010000 U
1Y
b00000010000 a
1d
b00000001111 f
#270000000
0"
0(
0:
0>
0H
0M
0Y
0d
#275000000
1"
1(
b0000000000010001 6
1:
1>
b00000010001 E
1H
b00000010000 J
1M
b0000000000010001 S
b0000000000010001 U
1Y
b00000010001 a
1d
b00000010000 f
#280000000
0"
0(
0:
0>
0H
0M
0Y
0d
#285000000
1"
1(
b0000000000010010 6
1:
1>
b00000010010 E
1H
b00000010001 J
1M
b0000000000010010 S
b0000000000010010 U
1Y
b00000010010 a
1d
b00000010001 f
#290000000
0"
0(
0:
0>
0H
0M
0Y
0d
#295000000
1"
1(
b0000000000010011 6
1:
1>
b00000010011 E
1H
b00000010010 J
1M
b0000000000010011 S
b0000000000010011 U
1Y
b00000010011 a
1d
b00000010010 f
#300000000
0"
0(
0:
0>
0H
0M
0Y
0d
#305000000
1"
1(
b0000000000010100 6
1:
1>
b00000010100 E
1H
b00000010011 J
1M
b0000000000010100 S
b0000000000010100 U
1Y
b00000010100 a
1d
b00000010011 f
#310000000
0"
0(
0:
0>
0H
0M
0Y
0d
#315000000
1"
1(
b0000000000010101 6
1:
1>
b00000010101 E
1H
b00000010100 J
1M
b0000000000010101 S
b0000000000010101 U
1Y
b00000010101 a
1d
b00000010100 f
#320000000
0"
0(
0:
0>
0H
0M
0Y
0d
#325000000
1"
1(
b0000000000010110 6
1:
1>
b00000010110 E
1H
b00000010101 J
1M
b0000000000010110 S
b0000000000010110 U
1Y
b00000010110 a
1d
b00000010101 f
#330000000
0"
0(
0:
0>
0H
0M
0Y
0d
#335000000
1"
1(
b0000000000010111 6
1:
1>
b00000010111 E
1H
b00000010110 J
1M
b0000000000010111 S
b0000000000010111 U
1Y
b00000010111 a
1d
b00000010110 f
#340000000
0"
0(
0:
0>
0H
0M
0Y
0d
#345000000
1"
1(
b0000000000011000 6
1:
1>
b00000011000 E
1H
b00000010111 J
1M
b0000000000011000 S
b0000000000011000 U
1Y
b00000011000 a
1d
b00000010111 f
#350000000
0"
0(
0:
0>
0H
0M
0Y
0d
#355000000
1"
1(
b0000000000011001 6
1:
1>
b00000011001 E
1H
b00000011000 J
1M
b0000000000011001 S
b0000000000011001 U
1Y
b00000011001 a
1d
b00000011000 f
#360000000
0"
0(
0:
0>
0H
0M
0Y
0d
#365000000
1"
1(
b0000000000011010 6
1:
1>
b00000011010 E
1H
b00000011001 J
1M
b0000000000011010 S
b0000000000011010 U
1Y
b00000011010 a
1d
b00000011001 f
#370000000
0"
0(
0:
0>
0H
0M
0Y
0d
#375000000
1"
1(
b0000000000011011 6
1:
1>
b00000011011 E
1H
b00000011010 J
1M
b0000000000011011 S
b0000000000011011 U
1Y
b00000011011 a
1d
b00000011010 f
#380000000
0"
0(
0:
0>
0H
0M
0Y
0d
#385000000
1"
1(
b0000000000011100 6
1:
1>
b00000011100 E
1H
b00000011011 J
1M
b0000000000011100 S
b0000000000011100 U
1Y
b00000011100 a
1d
b00000011011 f
#390000000
0"
0(
0:
0>
0H
0M
0Y
0d
#395000000
1"
1(
b0000000000011101 6
1:
1>
b00000011101 E
1H
b00000011100 J
1M
b0000000000011101 S
b0000000000011101 U
1Y
b00000011101 a
1d
b00000011100 f
#400000000
0"
0(
0:
0>
0H
0M
0Y
0d
#405000000
1"
1(
b0000000000011110 6
1:
1>
b00000011110 E
1H
b00000011101 J
1M
b0000000000011110 S
b0000000000011110 U
1Y
b00000011110 a
1d
b00000011101 f
#410000000
0"
0(
0:
0>
0H
0M
0Y
0d
#415000000
1"
1(
b0000000000011111 6
1:
1>
b00000011111 E
1H
b00000011110 J
1M
b0000000000011111 S
b0000000000011111 U
1Y
b00000011111 a
1d
b00000011110 f
#420000000
0"
0(
0:
0>
0H
0M
0Y
0d
#425000000
1"
1(
b0000000000100000 6
1:
1>
b00000100000 E
1H
b00000011111 J
1M
b0000000000100000 S
b0000000000100000 U
1Y
b00000100000 a
1d
b00000011111 f
#430000000
0"
0(
0:
0>
0H
0M
0Y
0d
#435000000
1"
1(
b0000000000100001 6
1:
1>
b00000100001 E
1H
b00000100000 J
1M
b0000000000100001 S
b0000000000100001 U
1Y
b00000100001 a
1d
b00000100000 f
#440000000
0"
0(
0:
0>
0H
0M
0Y
0d
#445000000
1"
1(
b0000000000100010 6
1:
1>
b00000100010 E
1H
b00000100001 J
1M
b0000000000100010 S
b0000000000100010 U
1Y
b00000100010 a
1d
b00000100001 f
#450000000
0"
0(
0:
0>
0H
0M
0Y
0d
#455000000
1"
1(
b0000000000100011 6
1:
1>
b00000100011 E
1H
b00000100010 J
1M
b0000000000100011 S
b0000000000100011 U
1Y
b00000100011 a
1d
b00000100010 f
#460000000
0"
0(
0:
0>
0H
0M
0Y
0d
#465000000
1"
1(
b0000000000100100 6
1:
1>
b00000100100 E
1H
b00000100011 J
1M
b0000000000100100 S
b0000000000100100 U
1Y
b00000100100 a
1d
b00000100011 f
#470000000
0"
0(
0:
0>
0H
0M
0Y
0d
#475000000
1"
1(
b0000000000100101 6
1:
1>
b00000100101 E
1H
b00000100100 J
1M
b0000000000100101 S
b0000000000100101 U
1Y
b00000100101 a
1d
b00000100100 f
#480000000
0"
0(
0:
0>
0H
0M
0Y
0d
#485000000
1"
1(
b0000000000100110 6
1:
1>
b00000100110 E
1H
b00000100101 J
1M
b0000000000100110 S
b0000000000100110 U
1Y
b00000100110 a
1d
b00000100101 f
#490000000
0"
0(
0:
0>
0H
0M
0Y
0d
#495000000
1"
1(
b0000000000100111 6
1:
1>
b00000100111 E
1H
b00000100110 J
1M
b0000000000100111 S
b0000000000100111 U
1Y
b00000100111 a
1d
b00000100110 f
#500000000
0"
0(
0:
0>
0H
0M
0Y
0d
#505000000
1"
1(
b0000000000101000 6
1:
1>
b00000101000 E
1H
b00000100111 J
1M
b0000000000101000 S
b0000000000101000 U
1Y
b00000101000 a
1d
b00000100111 f
#510000000
0"
0(
0:
0>
0H
0M
0Y
0d
#515000000
1"
1(
b0000000000101001 6
1:
1>
b00000101001 E
1H
b00000101000 J
1M
b0000000000101001 S
b0000000000101001 U
1Y
b00000101001 a
1d
b00000101000 f
#520000000
0"
0(
0:
0>
0H
0M
0Y
0d
#525000000
1"
1(
b0000000000101010 6
1:
1>
b00000101010 E
1H
b00000101001 J
1M
b0000000000101010 S
b0000000000101010 U
1Y
b00000101010 a
1d
b00000101001 f
#530000000
0"
0(
0:
0>
0H
0M
0Y
0d
#535000000
1"
1(
b0000000000101011 6
1:
1>
b00000101011 E
1H
b00000101010 J
1M
b0000000000101011 S
b0000000000101011 U
1Y
b00000101011 a
1d
b00000101010 f
#540000000
0"
0(
0:
0>
0H
0M
0Y
0d
#545000000
1"
1(
b0000000000101100 6
1:
1>
b00000101100 E
1H
b00000101011 J
1M
b0000000000101100 S
b0000000000101100 U
1Y
b00000101100 a
1d
b00000101011 f
#550000000
0"
0(
0:
0>
0H
0M
0Y
0d
#555000000
1"
1(
b0000000000101101 6
1:
1>
b00000101101 E
1H
b00000101100 J
1M
b0000000000101101 S
b0000000000101101 U
1Y
b00000101101 a
1d
b00000101100 f
#560000000
0"
0(
0:
0>
0H
0M
0Y
0d
#565000000
1"
1(
b0000000000101110 6
1:
1>
b00000101110 E
1H
b00000101101 J
1M
b0000000000101110 S
b0000000000101110 U
1Y
b00000101110 a
1d
b00000101101 f
#570000000
0"
0(
0:
0>
0H
0M
0Y
0d
#575000000
1"
1(
b0000000000101111 6
1:
1>
b00000101111 E
1H
b00000101110 J
1M
b0000000000101111 S
b0000000000101111 U
1Y
b00000101111 a
1d
b00000101110 f
#580000000
0"
0(
0:
0>
0H
0M
0Y
0d
#585000000
1"
1(
b0000000000110000 6
1:
1>
b00000110000 E
1H
b00000101111 J
1M
b0000000000110000 S
b0000000000110000 U
1Y
b00000110000 a
1d
b00000101111 f
#590000000
0"
0(
0:
0>
0H
0M
0Y
0d
#595000000
1"
1(
b0000000000110001 6
1:
1>
b00000110001 E
1H
b00000110000 J
1M
b0000000000110001 S
b0000000000110001 U
1Y
b00000110001 a
1d
b00000110000 f
#600000000
0"
0(
0:
0>
0H
0M
0Y
0d
#605000000
1"
1(
b0000000000110010 6
1:
1>
b00000110010 E
1H
b00000110001 J
1M
b0000000000110010 S
b0000000000110010 U
1Y
b00000110010 a
1d
b00000110001 f
#610000000
0"
0(
0:
0>
0H
0M
0Y
0d
#615000000
1"
1(
b0000000000110011 6
1:
1>
b00000110011 E
1H
b00000110010 J
1M
b0000000000110011 S
b0000000000110011 U
1Y
b00000110011 a
1d
b00000110010 f
#620000000
0"
0(
0:
0>
0H
0M
0Y
0d
#625000000
1"
1(
b0000000000110100 6
1:
1>
b00000110100 E
1H
b00000110011 J
1M
b0000000000110100 S
b0000000000110100 U
1Y
b00000110100 a
1d
b00000110011 f
#630000000
0"
0(
0:
0>
0H
0M
0Y
0d
#635000000
1"
1(
b0000000000110101 6
1:
1>
b00000110101 E
1H
b00000110100 J
1M
b0000000000110101 S
b0000000000110101 U
1Y
b00000110101 a
1d
b00000110100 f
#640000000
0"
0(
0:
0>
0H
0M
0Y
0d
#645000000
1"
1(
b0000000000110110 6
1:
1>
b00000110110 E
1H
b00000110101 J
1M
b0000000000110110 S
b0000000000110110 U
1Y
b00000110110 a
1d
b00000110101 f
#650000000
0"
0(
0:
0>
0H
0M
0Y
0d
#655000000
1"
1(
b0000000000110111 6
1:
1>
b00000110111 E
1H
b00000110110 J
1M
b0000000000110111 S
b0000000000110111 U
1Y
b00000110111 a
1d
b00000110110 f
#660000000
0"
0(
0:
0>
0H
0M
0Y
0d
#665000000
1"
1(
b0000000000111000 6
1:
1>
b00000111000 E
1H
b00000110111 J
1M
b0000000000111000 S
b0000000000111000 U
1Y
b00000111000 a
1d
b00000110111 f
#670000000
0"
0(
0:
0>
0H
0M
0Y
0d
#675000000
1"
1(
b0000000000111001 6
1:
1>
b00000111001 E
1H
b00000111000 J
1M
b0000000000111001 S
b0000000000111001 U
1Y
b00000111001 a
1d
b00000111000 f
#680000000
0"
0(
0:
0>
0H
0M
0Y
0d
#685000000
1"
1(
b0000000000111010 6
1:
1>
b00000111010 E
1H
b00000111001 J
1M
b0000000000111010 S
b0000000000111010 U
1Y
b00000111010 a
1d
b00000111001 f
#690000000
0"
0(
0:
0>
0H
0M
0Y
0d
#695000000
1"
1(
b0000000000111011 6
1:
1>
b00000111011 E
1H
b00000111010 J
1M
b0000000000111011 S
b0000000000111011 U
1Y
b00000111011 a
1d
b00000111010 f
#700000000
0"
0(
0:
0>
0H
0M
0Y
0d
#705000000
1"
1(
b0000000000111100 6
1:
1>
b00000111100 E
1H
b00000111011 J
1M
b0000000000111100 S
b0000000000111100 U
1Y
b00000111100 a
1d
b00000111011 f
#710000000
0"
0(
0:
0>
0H
0M
0Y
0d
#715000000
1"
1(
b0000000000111101 6
1:
1>
b00000111101 E
1H
b00000111100 J
1M
b0000000000111101 S
b0000000000111101 U
1Y
b00000111101 a
1d
b00000111100 f
#720000000
0"
0(
0:
0>
0H
0M
0Y
0d
#725000000
1"
1(
b0000000000111110 6
1:
1>
b00000111110 E
1H
b00000111101 J
1M
b0000000000111110 S
b0000000000111110 U
1Y
b00000111110 a
1d
b00000111101 f
#730000000
0"
0(
0:
0>
0H
0M
0Y
0d
#735000000
1"
1(
b0000000000111111 6
1:
1>
b00000111111 E
1H
b00000111110 J
1M
b0000000000111111 S
b0000000000111111 U
1Y
b00000111111 a
1d
b00000111110 f
#740000000
0"
0(
0:
0>
0H
0M
0Y
0d
#745000000
1"
1(
b0000000001000000 6
1:
1>
b00001000000 E
1H
b00000111111 J
1M
b0000000001000000 S
b0000000001000000 U
1Y
b00001000000 a
1d
b00000111111 f
#750000000
0"
0(
0:
0>
0H
0M
0Y
0d
#755000000
1"
1(
b0000000001000001 6
1:
1>
b00001000001 E
1H
b00001000000 J
1M
b0000000001000001 S
b0000000001000001 U
1Y
b00001000001 a
1d
b00001000000 f
#760000000
0"
0(
0:
0>
0H
0M
0Y
0d
#765000000
1"
1(
b0000000001000010 6
1:
1>
b00001000010 E
1H
b00001000001 J
1M
b0000000001000010 S
b0000000001000010 U
1Y
b00001000010 a
1d
b00001000001 f
#770000000
0"
0(
0:
0>
0H
0M
0Y
0d
#775000000
1"
1(
b0000000001000011 6
1:
1>
b00001000011 E
1H
b00001000010 J
1M
b0000000001000011 S
b0000000001000011 U
1Y
b00001000011 a
1d
b00001000010 f
#780000000
0"
0(
0:
0>
0H
0M
0Y
0d
#785000000
1"
1(
b0000000001000100 6
1:
1>
b00001000100 E
1H
b00001000011 J
1M
b0000000001000100 S
b0000000001000100 U
1Y
b00001000100 a
1d
b00001000011 f
#790000000
0"
0(
0:
0>
0H
0M
0Y
0d
#795000000
1"
1(
b0000000001000101 6
1:
1>
b00001000101 E
1H
b00001000100 J
1M
b0000000001000101 S
b0000000001000101 U
1Y
b00001000101 a
1d
b00001000100 f
#800000000
0"
0(
0:
0>
0H
0M
0Y
0d
#805000000
1"
1(
b0000000001000110 6
1:
1>
b00001000110 E
1H
b00001000101 J
1M
b0000000001000110 S
b0000000001000110 U
1Y
b00001000110 a
1d
b00001000101 f
#810000000
0"
0(
0:
0>
0H
0M
0Y
0d
#815000000
1"
1(
b0000000001000111 6
1:
1>
b00001000111 E
1H
b00001000110 J
1M
b0000000001000111 S
b0000000001000111 U
1Y
b00001000111 a
1d
b00001000110 f
#820000000
0"
0(
0:
0>
0H
0M
0Y
0d
#825000000
1"
1(
b0000000001001000 6
1:
1>
b00001001000 E
1H
b00001000111 J
1M
b0000000001001000 S
b0000000001001000 U
1Y
b00001001000 a
1d
b00001000111 f
#830000000
0"
0(
0:
0>
0H
0M
0Y
0d
#835000000
1"
1(
b0000000001001001 6
1:
1>
b00001001001 E
1H
b00001001000 J
1M
b0000000001001001 S
b0000000001001001 U
1Y
b00001001001 a
1d
b00001001000 f
#840000000
0"
0(
0:
0>
0H
0M
0Y
0d
#845000000
1"
1(
b0000000001001010 6
1:
1>
b00001001010 E
1H
b00001001001 J
1M
b0000000001001010 S
b0000000001001010 U
1Y
b00001001010 a
1d
b00001001001 f
#850000000
0"
0(
0:
0>
0H
0M
0Y
0d
#855000000
1"
1(
b0000000001001011 6
1:
1>
b00001001011 E
1H
b00001001010 J
1M
b0000000001001011 S
b0000000001001011 U
1Y
b00001001011 a
1d
b00001001010 f
#860000000
0"
0(
0:
0>
0H
0M
0Y
0d
#865000000
1"
1(
b0000000001001100 6
1:
1>
b00001001100 E
1H
b00001001011 J
1M
b0000000001001100 S
b0000000001001100 U
1Y
b00001001100 a
1d
b00001001011 f
#870000000
0"
0(
0:
0>
0H
0M
0Y
0d
#875000000
1"
1(
b0000000001001101 6
1:
1>
b00001001101 E
1H
b00001001100 J
1M
b0000000001001101 S
b0000000001001101 U
1Y
b00001001101 a
1d
b00001001100 f
#880000000
0"
0(
0:
0>
0H
0M
0Y
0d
#885000000
1"
1(
b0000000001001110 6
1:
1>
b00001001110 E
1H
b00001001101 J
1M
b0000000001001110 S
b0000000001001110 U
1Y
b00001001110 a
1d
b00001001101 f
#890000000
0"
0(
0:
0>
0H
0M
0Y
0d
#895000000
1"
1(
b0000000001001111 6
1:
1>
b00001001111 E
1H
b00001001110 J
1M
b0000000001001111 S
b0000000001001111 U
1Y
b00001001111 a
1d
b00001001110 f
#900000000
0"
0(
0:
0>
0H
0M
0Y
0d
#905000000
1"
1(
b0000000001010000 6
1:
1>
b00001010000 E
1H
b00001001111 J
1M
b0000000001010000 S
b0000000001010000 U
1Y
b00001010000 a
1d
b00001001111 f
#910000000
0"
0(
0:
0>
0H
0M
0Y
0d
#915000000
1"
1(
b0000000001010001 6
1:
1>
b00001010001 E
1H
b00001010000 J
1M
b0000000001010001 S
b0000000001010001 U
1Y
b00001010001 a
1d
b00001010000 f
#920000000
0"
0(
0:
0>
0H
0M
0Y
0d
#925000000
1"
1(
b0000000001010010 6
1:
1>
b00001010010 E
1H
b00001010001 J
1M
b0000000001010010 S
b0000000001010010 U
1Y
b00001010010 a
1d
b00001010001 f
#930000000
0"
0(
0:
0>
0H
0M
0Y
0d
#935000000
1"
1(
b0000000001010011 6
1:
1>
b00001010011 E
1H
b00001010010 J
1M
b0000000001010011 S
b0000000001010011 U
1Y
b00001010011 a
1d
b00001010010 f
#940000000
0"
0(
0:
0>
0H
0M
0Y
0d
#945000000
1"
1(
b0000000001010100 6
1:
1>
b00001010100 E
1H
b00001010011 J
1M
b0000000001010100 S
b0000000001010100 U
1Y
b00001010100 a
1d
b00001010011 f
#950000000
0"
0(
0:
0>
0H
0M
0Y
0d
#955000000
1"
1(
b0000000001010101 6
1:
1>
b00001010101 E
1H
b00001010100 J
1M
b0000000001010101 S
b0000000001010101 U
1Y
b00001010101 a
1d
b00001010100 f
#960000000
0"
0(
0:
0>
0H
0M
0Y
0d
#965000000
1"
1(
b0000000001010110 6
1:
1>
b00001010110 E
1H
b00001010101 J
1M
b0000000001010110 S
b0000000001010110 U
1Y
b00001010110 a
1d
b00001010101 f
#970000000
0"
0(
0:
0>
0H
0M
0Y
0d
#975000000
1"
1(
b0000000001010111 6
1:
1>
b00001010111 E
1H
b00001010110 J
1M
b0000000001010111 S
b0000000001010111 U
1Y
b00001010111 a
1d
b00001010110 f
#980000000
0"
0(
0:
0>
0H
0M
0Y
0d
#985000000
1"
1(
b0000000001011000 6
1:
1>
b00001011000 E
1H
b00001010111 J
1M
b0000000001011000 S
b0000000001011000 U
1Y
b00001011000 a
1d
b00001010111 f
#990000000
0"
0(
0:
0>
0H
0M
0Y
0d
#995000000
1"
1(
b0000000001011001 6
1:
1>
b00001011001 E
1H
b00001011000 J
1M
b0000000001011001 S
b0000000001011001 U
1Y
b00001011001 a
1d
b00001011000 f
#1000000000
0"
0(
0:
0>
0H
0M
0Y
0d
#1005000000
1"
1(
b0000000001011010 6
1:
1>
b00001011010 E
1H
b00001011001 J
1M
b0000000001011010 S
b0000000001011010 U
1Y
b00001011010 a
1d
b00001011001 f
#1010000000
0"
0(
0:
0>
0H
0M
0Y
0d
#1015000000
1"
1(
b0000000001011011 6
1:
1>
b00001011011 E
1H
b00001011010 J
1M
b0000000001011011 S
b0000000001011011 U
1Y
b00001011011 a
1d
b00001011010 f
#1020000000
0"
0(
0:
0>
0H
0M
0Y
0d
#1025000000
1"
1(
b0000000001011100 6
1:
1>
b00001011100 E
1H
b00001011011 J
1M
b0000000001011100 S
b0000000001011100 U
1Y
b00001011100 a
1d
b00001011011 f
#1030000000
0"
0(
0:
0>
0H
0M
0Y
0d
#1035000000
1"
1(
b0000000001011101 6
1:
1>
b00001011101 E
1H
b00001011100 J
1M
b0000000001011101 S
b0000000001011101 U
1Y
b00001011101 a
1d
b00001011100 f
#1040000000
0"
0(
0:
0>
0H
0M
0Y
0d
