src/lalp/examples/matmult/t_matmult.vcd
$date
  Mon Mar 12 17:34:42 2012
$end
$version
  GHDL v0
$end
$timescale
  1 fs
$end
$var reg 1 ! \clear\ $end
$var reg 1 " \clk\ $end
$var reg 1 # \done\ $end
$var reg 1 $ \init\ $end
$var reg 1 % \reset\ $end
$var reg 16 & \result\[15:0] $end
$scope module uut $end
$var reg 1 ' \clear\ $end
$var reg 1 ( \clk\ $end
$var reg 1 ) \done\ $end
$var reg 1 * \init\ $end
$var reg 1 + \reset\ $end
$var reg 16 , \result\[15:0] $end
$var reg 16 - s0[15:0] $end
$var reg 1 . s52[0:0] $end
$var reg 16 / s15[15:0] $end
$var reg 1 0 s48[0:0] $end
$var reg 16 1 s45[15:0] $end
$var reg 16 2 s30[15:0] $end
$var reg 1 3 s29 $end
$var reg 16 4 s34[15:0] $end
$var reg 16 5 s33[15:0] $end
$var reg 16 6 s27[15:0] $end
$var reg 16 7 s13[15:0] $end
$var reg 16 8 s17[15:0] $end
$var reg 1 9 s50[0:0] $end
$var reg 16 : s28[15:0] $end
$var reg 16 ; s31[15:0] $end
$var reg 16 < s35[15:0] $end
$var reg 16 = s51[15:0] $end
$var reg 1 > s49 $end
$var reg 1 ? s16[0:0] $end
$var reg 16 @ s10[15:0] $end
$var reg 16 A s53[15:0] $end
$var reg 16 B s47[15:0] $end
$var reg 16 C s26[15:0] $end
$var reg 1 D s40[0:0] $end
$var reg 16 E s44[15:0] $end
$var reg 16 F s41[15:0] $end
$var reg 1 G s55[0:0] $end
$var reg 16 H s19[15:0] $end
$var reg 1 I s25 $end
$var reg 16 J s56[15:0] $end
$var reg 16 K s21[15:0] $end
$var reg 16 L s23[15:0] $end
$var reg 16 M s7[15:0] $end
$var reg 16 N s3[15:0] $end
$var reg 16 O s1[15:0] $end
$var reg 16 P s20[15:0] $end
$var reg 16 Q s57[15:0] $end
$var reg 1 R s54 $end
$var reg 1 S s43 $end
$var reg 16 T s42[15:0] $end
$var reg 16 U s39[15:0] $end
$var reg 16 V s36[15:0] $end
$var reg 16 W s18[15:0] $end
$var reg 16 X s4[15:0] $end
$scope module \reg\ $end
$var reg 1 Y clk $end
$var reg 1 Z reset $end
$var reg 1 [ we $end
$var reg 1 \ sel1[0:0] $end
$var reg 16 ] i0[15:0] $end
$var reg 16 ^ i1[15:0] $end
$var reg 16 _ o0[15:0] $end
$upscope $end
$scope module \i_step_delay_op_5\ $end
$var reg 1 ` a[0:0] $end
$var reg 1 a clk $end
$var reg 1 b reset $end
$var reg 1 c a_delayed[0:0] $end
$comment int is not handled $end
$upscope $end
$scope module \k\ $end
$var reg 16 d input[15:0] $end
$var reg 16 e termination[15:0] $end
$var reg 1 f clk $end
$var reg 1 g clk_en $end
$var reg 1 h reset $end
$var reg 1 i load $end
$var reg 1 j step $end
$var reg 1 k done $end
$var reg 16 l output[15:0] $end
$var reg 6 m shsteps[5:0] $end
$var reg 16 n value[15:0] $end
$var reg 1 o init $end
$var reg 1 p stepi $end
$var reg 1 q cond $end
$upscope $end
$scope module \addrs\ $end
$var reg 1 r clk $end
$var reg 1 s reset $end
$var reg 1 t we $end
$var reg 16 u i0[15:0] $end
$var reg 16 v o0[15:0] $end
$upscope $end
$scope module \c44\ $end
$var reg 16 w a[15:0] $end
$var reg 1 x clk $end
$var reg 1 y reset $end
$var reg 16 z a_delayed[15:0] $end
$comment int is not handled $end
$upscope $end
$scope module \i_step_delay_op_4\ $end
$var reg 1 { a[0:0] $end
$var reg 1 | clk $end
$var reg 1 } reset $end
$var reg 1 !" a_delayed[0:0] $end
$comment int is not handled $end
$upscope $end
$scope module \a_mult_op_s_b\ $end
$var reg 16 "" i0[15:0] $end
$var reg 16 #" i1[15:0] $end
$var reg 16 $" o0[15:0] $end
$upscope $end
$scope module \sum1_add_op_s_sum\ $end
$var reg 16 %" i0[15:0] $end
$var reg 16 &" i1[15:0] $end
$var reg 16 '" o0[15:0] $end
$upscope $end
$scope module \s\ $end
$var reg 16 (" data_in[15:0] $end
$var reg 5 )" address[4:0] $end
$var reg 1 *" we $end
$var reg 1 +" oe $end
$var reg 1 ," clk $end
$var reg 16 -" data_out[15:0] $end
$var reg 5 ." read_a[4:0] $end
$comment ram is not handled $end
$upscope $end
$scope module \addrs_delay_op_4\ $end
$var reg 16 /" a[15:0] $end
$var reg 1 0" clk $end
$var reg 1 1" reset $end
$var reg 16 2" a_delayed[15:0] $end
$comment int is not handled $end
$upscope $end
$scope module \l_add_op_s_1\ $end
$var reg 16 3" i0[15:0] $end
$var reg 16 4" i1[15:0] $end
$var reg 16 5" o0[15:0] $end
$upscope $end
$scope module \l_add_op_s_20\ $end
$var reg 16 6" i0[15:0] $end
$var reg 16 7" i1[15:0] $end
$var reg 16 8" o0[15:0] $end
$upscope $end
$scope module \l\ $end
$var reg 1 9" clk $end
$var reg 1 :" reset $end
$var reg 1 ;" we $end
$var reg 16 <" i0[15:0] $end
$var reg 16 =" o0[15:0] $end
$upscope $end
$scope module \m\ $end
$var reg 16 >" input[15:0] $end
$var reg 16 ?" termination[15:0] $end
$var reg 1 @" clk $end
$var reg 1 A" clk_en $end
$var reg 1 B" reset $end
$var reg 1 C" load $end
$var reg 1 D" step $end
$var reg 1 E" done $end
$var reg 16 F" output[15:0] $end
$var reg 30 G" shsteps[29:0] $end
$var reg 16 H" value[15:0] $end
$var reg 1 I" init $end
$var reg 1 J" stepi $end
$var reg 1 K" cond $end
$upscope $end
$scope module \l_plus_20\ $end
$var reg 1 L" clk $end
$var reg 1 M" reset $end
$var reg 1 N" we $end
$var reg 16 O" i0[15:0] $end
$var reg 16 P" o0[15:0] $end
$upscope $end
$scope module \b\ $end
$var reg 16 Q" data_in[15:0] $end
$var reg 5 R" address[4:0] $end
$var reg 1 S" we $end
$var reg 1 T" oe $end
$var reg 1 U" clk $end
$var reg 16 V" data_out[15:0] $end
$var reg 5 W" read_a[4:0] $end
$comment ram is not handled $end
$upscope $end
$scope module \l_if_gt_op_s_3\ $end
$var reg 16 X" i0[15:0] $end
$var reg 16 Y" i1[15:0] $end
$var reg 1 Z" o0[0:0] $end
$upscope $end
$scope module \m_add_op_s_5\ $end
$var reg 16 [" i0[15:0] $end
$var reg 16 \" i1[15:0] $end
$var reg 16 ]" o0[15:0] $end
$upscope $end
$scope module \i_step_not_op\ $end
$var reg 1 ^" i0[0:0] $end
$var reg 1 _" o0[0:0] $end
$upscope $end
$scope module \sum1\ $end
$var reg 1 `" clk $end
$var reg 1 a" reset $end
$var reg 1 b" we $end
$var reg 1 c" sel1[0:0] $end
$var reg 16 d" i0[15:0] $end
$var reg 16 e" i1[15:0] $end
$var reg 16 f" o0[15:0] $end
$upscope $end
$scope module \i_step_not_op_delay_op_5\ $end
$var reg 1 g" a[0:0] $end
$var reg 1 h" clk $end
$var reg 1 i" reset $end
$var reg 1 j" a_delayed[0:0] $end
$comment int is not handled $end
$upscope $end
$scope module \c43\ $end
$var reg 1 k" a[0:0] $end
$var reg 1 l" clk $end
$var reg 1 m" reset $end
$var reg 1 n" a_delayed[0:0] $end
$comment int is not handled $end
$upscope $end
$scope module \i\ $end
$var reg 16 o" input[15:0] $end
$var reg 16 p" termination[15:0] $end
$var reg 1 q" clk $end
$var reg 1 r" clk_en $end
$var reg 1 s" reset $end
$var reg 1 t" load $end
$var reg 1 u" step $end
$var reg 1 v" done $end
$var reg 16 w" output[15:0] $end
$var reg 1 x" shsteps[0:0] $end
$var reg 16 y" value[15:0] $end
$var reg 1 z" init $end
$var reg 1 {" stepi $end
$var reg 1 |" cond $end
$upscope $end
$scope module \addra\ $end
$var reg 1 }" clk $end
$var reg 1 !# reset $end
$var reg 1 "# we $end
$var reg 16 ## i0[15:0] $end
$var reg 16 $# o0[15:0] $end
$upscope $end
$scope module \sum\ $end
$var reg 1 %# clk $end
$var reg 1 &# reset $end
$var reg 1 '# we $end
$var reg 16 (# i0[15:0] $end
$var reg 16 )# o0[15:0] $end
$upscope $end
$scope module \j\ $end
$var reg 16 *# input[15:0] $end
$var reg 16 +# termination[15:0] $end
$var reg 1 ,# clk $end
$var reg 1 -# clk_en $end
$var reg 1 .# reset $end
$var reg 1 /# load $end
$var reg 1 0# step $end
$var reg 1 1# done $end
$var reg 16 2# output[15:0] $end
$var reg 1 3# shsteps[0:0] $end
$var reg 16 4# value[15:0] $end
$var reg 1 5# init $end
$var reg 1 6# stepi $end
$var reg 1 7# cond $end
$upscope $end
$scope module \a\ $end
$var reg 16 8# data_in[15:0] $end
$var reg 5 9# address[4:0] $end
$var reg 1 :# we $end
$var reg 1 ;# oe $end
$var reg 1 <# clk $end
$var reg 16 =# data_out[15:0] $end
$var reg 5 ># read_a[4:0] $end
$comment ram is not handled $end
$upscope $end
$scope module \addrb\ $end
$var reg 1 ?# clk $end
$var reg 1 @# reset $end
$var reg 1 A# we $end
$var reg 16 B# i0[15:0] $end
$var reg 16 C# o0[15:0] $end
$upscope $end
$scope module \m_plus_5\ $end
$var reg 1 D# clk $end
$var reg 1 E# reset $end
$var reg 1 F# we $end
$var reg 16 G# i0[15:0] $end
$var reg 16 H# o0[15:0] $end
$upscope $end
$upscope $end
$enddefinitions $end
#0
0!
0"
0#
0$
1%
bUUUUUUUUUUUUUUUU &
0'
0(
0)
0*
1+
bUUUUUUUUUUUUUUUU ,
b0000000000000000 -
b0 .
b0000000000000001 /
b0 0
bUUUUUUUUUUUUUUUU 1
b0000000000000000 2
03
b0000000000000000 4
b0000000000000000 5
b0000000000000101 6
b0000000000000011 7
b0000000000000000 8
b1 9
b0000000000000101 :
b0000000000000000 ;
b0000000000000000 <
b0000000000000000 =
0>
b0 ?
b0000000000000000 @
bUUUUUUUUUUUUUUUU A
bXXXXXXXXXXXXXXXX B
b0000000000000000 C
b0 D
bUUUUUUUUUUUUUUUU E
b0000000000000000 F
b0 G
b0000000000000000 H
0I
b0000000000000000 J
b0000000000010100 K
b0000000000000000 L
b0000000000000000 M
b0000000000000000 N
b0000000000011001 O
b0000000000010100 P
b0000000000000000 Q
1R
0S
b0000000000000000 T
b0000000000000000 U
b0000000000000000 V
b0000000000000001 W
b0000000000011001 X
0Y
1Z
1[
b0 \
b0000000000000001 ]
b0000000000000000 ^
b0000000000000000 _
b0 `
0a
1b
b0 c
b0000000000000000 d
b0000000000011001 e
0f
0g
1h
0i
0j
0k
b0000000000000000 l
b000001 m
b0000000000000000 n
1o
0p
1q
0r
1s
1t
b0000000000000000 u
b0000000000000000 v
b0000000000000000 w
0x
1y
b0000000000000000 z
b0 {
0|
1}
b0 !"
bUUUUUUUUUUUUUUUU ""
bUUUUUUUUUUUUUUUU #"
bXXXXXXXXXXXXXXXX $"
b0000000000000000 %"
b0000000000000000 &"
b0000000000000000 '"
b0000000000000000 ("
b00000 )"
0*"
1+"
0,"
bUUUUUUUUUUUUUUUU -"
bUUUUU ."
b0000000000000000 /"
00"
11"
b0000000000000000 2"
b0000000000000000 3"
b0000000000000001 4"
b0000000000000001 5"
b0000000000000000 6"
b0000000000010100 7"
b0000000000010100 8"
09"
1:"
0;"
b0000000000000000 <"
b0000000000000000 ="
b0000000000000000 >"
b0000000000011001 ?"
0@"
0A"
1B"
0C"
0D"
0E"
b0000000000000000 F"
b000000000000000000000000000001 G"
b0000000000000000 H"
1I"
0J"
1K"
0L"
1M"
1N"
b0000000000010100 O"
b0000000000000000 P"
b0000000000000000 Q"
b00000 R"
0S"
1T"
0U"
bUUUUUUUUUUUUUUUU V"
bUUUUU W"
b0000000000000000 X"
b0000000000000011 Y"
b0 Z"
b0000000000000000 ["
b0000000000000101 \"
b0000000000000101 ]"
b0 ^"
b1 _"
0`"
1a"
0b"
b0 c"
b0000000000000000 d"
b0000000000000000 e"
b0000000000000000 f"
b1 g"
0h"
1i"
b0 j"
b1 k"
0l"
1m"
b0 n"
b0000000000000000 o"
b0000000000000000 p"
0q"
0r"
1s"
0t"
0u"
1v"
b0000000000000000 w"
b1 x"
b0000000000000000 y"
1z"
0{"
0|"
0}"
1!#
1"#
b0000000000000000 ##
b0000000000000000 $#
0%#
1&#
0'#
bXXXXXXXXXXXXXXXX (#
b0000000000000000 )#
b0000000000000000 *#
b0000000000000000 +#
0,#
0-#
1.#
0/#
00#
11#
b0000000000000000 2#
b1 3#
b0000000000000000 4#
15#
06#
07#
b0000000000000000 8#
b00000 9#
0:#
1;#
0<#
bUUUUUUUUUUUUUUUU =#
bUUUUU >#
0?#
1@#
1A#
b0000000000000000 B#
b0000000000000000 C#
0D#
1E#
0F#
b0000000000000101 G#
b0000000000000000 H#
#5000000
1"
1(
b0000000000000011 1
b0000000000000011 B
b0000000000000001 E
1Y
1a
1f
1r
1x
1|
b0000000000000001 ""
b0000000000000011 #"
b0000000000000011 $"
1,"
b00000 ."
10"
19"
1@"
1L"
1U"
b0000000000000011 V"
b00000 W"
1`"
1h"
1l"
1q"
1}"
1%#
b0000000000000011 (#
1,#
1<#
b0000000000000001 =#
b00000 >#
1?#
1D#
#10000000
0"
0(
0Y
0a
0f
0r
0x
0|
0,"
00"
09"
0@"
0L"
0U"
0`"
0h"
0l"
0q"
0}"
0%#
0,#
0<#
0?#
0D#
#15000000
1"
1(
1Y
1a
1f
1r
1x
1|
1,"
10"
19"
1@"
1L"
1U"
1`"
1h"
1l"
1q"
1}"
1%#
1,#
1<#
1?#
1D#
#20000000
0"
0(
0Y
0a
0f
0r
0x
0|
0,"
00"
09"
0@"
0L"
0U"
0`"
0h"
0l"
0q"
0}"
0%#
0,#
0<#
0?#
0D#
#25000000
1"
1(
1Y
1a
1f
1r
1x
1|
1,"
10"
19"
1@"
1L"
1U"
1`"
1h"
1l"
1q"
1}"
1%#
1,#
1<#
1?#
1D#
#30000000
0"
0(
0Y
0a
0f
0r
0x
0|
0,"
00"
09"
0@"
0L"
0U"
0`"
0h"
0l"
0q"
0}"
0%#
0,#
0<#
0?#
0D#
#35000000
1"
1(
1Y
1a
1f
1r
1x
1|
1,"
10"
19"
1@"
1L"
1U"
1`"
1h"
1l"
1q"
1}"
1%#
1,#
1<#
1?#
1D#
#40000000
0"
0(
0Y
0a
0f
0r
0x
0|
0,"
00"
09"
0@"
0L"
0U"
0`"
0h"
0l"
0q"
0}"
0%#
0,#
0<#
0?#
0D#
#45000000
1"
1(
1Y
1a
1f
1r
1x
1|
1,"
10"
19"
1@"
1L"
1U"
1`"
1h"
1l"
1q"
1}"
1%#
1,#
1<#
1?#
1D#
#50000000
0"
0%
0(
0+
0Y
0Z
0a
0b
0f
0h
0r
0s
0x
0y
0|
0}
0,"
00"
01"
09"
0:"
0@"
0B"
0L"
0M"
0U"
0`"
0a"
0h"
0i"
0l"
0m"
0q"
0s"
0}"
0!#
0%#
0&#
0,#
0.#
0<#
0?#
0@#
0D#
0E#
#55000000
1"
1(
b0000000000000001 @
b0000000000010100 M
1Y
b0000000000000001 _
1a
1f
1r
1x
1|
1,"
10"
19"
b0000000000000001 <"
1@"
1L"
b0000000000010100 P"
1U"
1`"
1h"
1l"
1q"
1}"
1%#
b0000000000010100 +#
1,#
01#
17#
1<#
1?#
1D#
#60000000
0"
0(
0Y
0a
0f
0r
0x
0|
0,"
00"
09"
0@"
0L"
0U"
0`"
0h"
0l"
0q"
0}"
0%#
0,#
0<#
0?#
0D#
#65000000
1"
1(
1Y
1a
1f
1r
1x
1|
1,"
10"
19"
1@"
1L"
1U"
1`"
1h"
1l"
1q"
1}"
1%#
1,#
1<#
1?#
1D#
#70000000
0"
0(
0Y
0a
0f
0r
0x
0|
0,"
00"
09"
0@"
0L"
0U"
0`"
0h"
0l"
0q"
0}"
0%#
0,#
0<#
0?#
0D#
#75000000
1"
1(
1Y
1a
1f
1r
1x
1|
1,"
10"
19"
1@"
1L"
1U"
1`"
1h"
1l"
1q"
1}"
1%#
1,#
1<#
1?#
1D#
#80000000
0"
0(
0Y
0a
0f
0r
0x
0|
0,"
00"
09"
0@"
0L"
0U"
0`"
0h"
0l"
0q"
0}"
0%#
0,#
0<#
0?#
0D#
#85000000
1"
1(
1Y
1a
1f
1r
1x
1|
1,"
10"
19"
1@"
1L"
1U"
1`"
1h"
1l"
1q"
1}"
1%#
1,#
1<#
1?#
1D#
#90000000
0"
0(
0Y
0a
0f
0r
0x
0|
0,"
00"
09"
0@"
0L"
0U"
0`"
0h"
0l"
0q"
0}"
0%#
0,#
0<#
0?#
0D#
#95000000
1"
1(
b1 .
1Y
1a
1f
1r
1x
1|
1*"
1,"
10"
19"
1@"
1L"
1U"
1`"
1h"
b1 j"
1l"
1q"
1}"
1%#
1,#
1<#
1?#
1D#
#100000000
0"
1$
0(
1*
1S
0Y
0a
0f
1g
0r
0x
0|
0,"
00"
09"
0@"
1A"
0L"
0U"
0`"
1b"
0h"
0l"
0q"
1r"
0}"
0%#
0,#
1-#
0<#
0?#
0D#
#105000000
1"
1(
13
1I
1Y
1a
1f
1j
b100000 m
0o
1p
1r
1x
1|
1,"
10"
19"
1;"
1@"
1D"
b100000000000000000000000000000 G"
0I"
1J"
1L"
1U"
1`"
1h"
1l"
1q"
1t"
0z"
1{"
1}"
1%#
1,#
1/#
00#
05#
16#
1<#
1?#
1D#
1F#
#110000000
0"
0(
0Y
0a
0f
0r
0x
0|
0,"
00"
09"
0@"
0L"
0U"
0`"
0h"
0l"
0q"
0}"
0%#
0,#
0<#
0?#
0D#
#115000000
1"
b0000000000000000 &
1(
b0000000000000000 ,
03
b0 9
1>
b0000000000000000 A
b0000000000000001 H
0I
b0000000000010101 K
b0000000000000101 L
0R
b0000000000000010 W
1Y
b0000000000000010 ]
b1 `
1a
1f
0j
b010000 m
0p
1r
1x
b1 {
1|
1,"
b0000000000000000 -"
10"
b0000000000000001 3"
b0000000000000010 5"
b0000000000000001 6"
b0000000000010101 8"
19"
0;"
b0000000000000001 ="
1@"
0D"
b010000000000000000000000000000 G"
0J"
1L"
b0000000000010101 O"
1U"
b0000000000000001 X"
b1 ^"
b0 _"
1`"
b0 g"
1h"
b0 k"
1l"
b0000000000000101 p"
1q"
0t"
1u"
0v"
1z"
1|"
1}"
1%#
b0000000000000001 *#
1,#
0/#
10#
15#
1<#
1?#
1D#
0F#
b0000000000000101 H#
#120000000
0"
0(
0Y
0a
0f
0r
0x
0|
0,"
00"
09"
0@"
0L"
0U"
0`"
0h"
0l"
0q"
0}"
0%#
0,#
0<#
0?#
0D#
#125000000
1"
1#
1(
1)
b0000000000000010 @
b1 G
b0000000000010101 M
1Y
b0000000000000010 _
1a
1f
b001000 m
1r
1x
1|
1,"
10"
19"
b0000000000000010 <"
1@"
b001000000000000000000000000000 G"
1L"
b0000000000010101 P"
1U"
1`"
1h"
1l"
b1 n"
1q"
0z"
1}"
1%#
b0000000000010101 +#
1,#
05#
1<#
1?#
1D#
#130000000
0"
0(
0Y
0a
0f
0r
0x
0|
0,"
00"
09"
0@"
0L"
0U"
0`"
0h"
0l"
0q"
0}"
0%#
0,#
0<#
0?#
0D#
#135000000
1"
1(
b0000000000000001 2
b0000000000000101 ;
1Y
1a
1f
b000100 m
1r
1x
1|
1,"
10"
19"
1@"
b000100000000000000000000000000 G"
1L"
1U"
1`"
1h"
1l"
1q"
b0000000000000001 w"
b0000000000000001 y"
1}"
b0000000000000001 ##
1%#
1,#
b0000000000000101 2#
b0000000000000101 4#
1<#
1?#
b0000000000000101 B#
1D#
#140000000
0"
0(
0Y
0a
0f
0r
0x
0|
0,"
00"
09"
0@"
0L"
0U"
0`"
0h"
0l"
0q"
0}"
0%#
0,#
0<#
0?#
0D#
#145000000
1"
1(
b0000000000000010 2
b0000000000000101 4
b0000000000000001 5
b0000000000001010 ;
1Y
1a
1f
b000010 m
1r
1x
1|
1,"
10"
19"
1@"
b000010000000000000000000000000 G"
1L"
b00101 R"
1U"
1`"
1h"
1l"
1q"
b0000000000000010 w"
b0000000000000010 y"
1}"
b0000000000000010 ##
b0000000000000001 $#
1%#
1,#
b0000000000001010 2#
b0000000000001010 4#
b00001 9#
1<#
1?#
b0000000000001010 B#
b0000000000000101 C#
1D#
#150000000
0"
0(
0Y
0a
0f
0r
0x
0|
0,"
00"
09"
0@"
0L"
0U"
0`"
0h"
0l"
0q"
0}"
0%#
0,#
0<#
0?#
0D#
#155000000
1"
1(
b1 0
b0000000000000011 2
b0000000000001010 4
b0000000000000010 5
b0000000000001111 ;
1Y
1a
1f
b000001 m
1r
1x
1|
b1 !"
1,"
10"
19"
1@"
b000001000000000000000000000000 G"
1L"
b01010 R"
1U"
b00101 W"
1`"
1h"
1l"
1q"
b0000000000000011 w"
b0000000000000011 y"
1}"
b0000000000000011 ##
b0000000000000010 $#
1%#
1'#
1,#
b0000000000001111 2#
b0000000000001111 4#
b00010 9#
1<#
b00001 >#
1?#
b0000000000001111 B#
b0000000000001010 C#
1D#
#160000000
0"
0(
0Y
0a
0f
0r
0x
0|
0,"
00"
09"
0@"
0L"
0U"
0`"
0h"
0l"
0q"
0}"
0%#
0,#
0<#
0?#
0D#
#165000000
1"
1(
b0 .
b0000000000000010 1
b0000000000000100 2
b0000000000001111 4
b0000000000000011 5
b1 9
b0000000000010100 ;
0>
b0000000000000100 B
b1 D
b0000000000000010 E
b0000000000000011 F
1I
b0000000000000001 J
b0000000000000011 U
1Y
b0 `
1a
b1 c
1f
1j
b0000000000000001 l
b100000 m
b0000000000000001 n
1p
1r
b0000000000000001 w
1x
b0 {
1|
b0000000000000010 ""
b0000000000000010 #"
b0000000000000100 $"
b0000000000000011 &"
b0000000000000011 '"
0*"
1,"
10"
19"
1;"
1@"
b000000100000000000000000000000 G"
1L"
b01111 R"
1U"
b0000000000000010 V"
b01010 W"
b0 ^"
b1 _"
1`"
b1 c"
b0000000000000011 e"
b1 g"
1h"
b0 j"
1l"
1q"
1t"
0u"
b0000000000000100 w"
b0000000000000100 y"
1}"
b0000000000000100 ##
b0000000000000011 $#
1%#
b0000000000000100 (#
b0000000000000011 )#
1,#
1/#
00#
b0000000000010100 2#
b0000000000010100 4#
b00011 9#
1<#
b0000000000000010 =#
b00010 >#
1?#
b0000000000010100 B#
b0000000000001111 C#
1D#
#170000000
0"
0(
0Y
0a
0f
0r
0x
0|
0,"
00"
09"
0@"
0L"
0U"
0`"
0h"
0l"
0q"
0}"
0%#
0,#
0<#
0?#
0D#
#175000000
1"
1(
b0000000000000000 1
b0000000000000000 2
b0000000000010100 4
b0000000000000100 5
b0 9
b0000000000000001 ;
b0000000000000011 =
1>
b0000000000000000 B
b0000000000000011 E
b0000000000000111 F
b0000000000000010 H
0I
b0000000000010110 K
b0000000000000100 U
b0000000000000011 W
1Y
b0000000000000011 ]
b1 `
1a
1f
0j
b010000 m
0p
1r
1x
b1 {
1|
b0000000000000011 ""
b0000000000000000 #"
b0000000000000000 $"
b0000000000000011 %"
b0000000000000100 &"
b0000000000000111 '"
b0000000000000011 ("
1,"
10"
b0000000000000010 3"
b0000000000000011 5"
b0000000000000010 6"
b0000000000010110 8"
19"
0;"
b0000000000000010 ="
1@"
b000000010000000000000000000000 G"
1L"
b0000000000010110 O"
b10100 R"
1U"
b0000000000000000 V"
b01111 W"
b0000000000000010 X"
b1 ^"
b0 _"
1`"
b0000000000000111 e"
b0000000000000011 f"
b0 g"
1h"
1l"
1q"
0t"
1u"
b0000000000000000 w"
b0000000000000000 y"
1z"
1}"
b0000000000000000 ##
b0000000000000100 $#
1%#
b0000000000000000 (#
b0000000000000100 )#
b0000000000000010 *#
1,#
0/#
10#
b0000000000000001 2#
b0000000000000001 4#
15#
b00100 9#
1<#
b0000000000000011 =#
b00011 >#
1?#
b0000000000000001 B#
b0000000000010100 C#
1D#
#180000000
0"
0(
0Y
0a
0f
0r
0x
0|
0,"
00"
09"
0@"
0L"
0U"
0`"
0h"
0l"
0q"
0}"
0%#
0,#
0<#
0?#
0D#
#185000000
1"
1(
b0000000000000001 1
b0000000000000001 4
b0000000000000000 5
b0000000000000111 =
b0000000000000011 @
b0000000000000100 B
b0000000000000100 E
b0000000000010110 M
b0000000000000001 Q
b0000000000000000 U
1Y
b0000000000000011 _
1a
1f
b001000 m
1r
b0000000000000001 u
1x
b0000000000000001 z
1|
b0000000000000100 ""
b0000000000000001 #"
b0000000000000100 $"
b0000000000000111 %"
b0000000000000000 &"
b0000000000000111 ("
1,"
10"
19"
b0000000000000011 <"
1@"
b000000001000000000000000000000 G"
1L"
b0000000000010110 P"
b00001 R"
1U"
b0000000000000001 V"
b10100 W"
1`"
b0000000000000111 f"
1h"
1l"
1q"
0z"
1}"
b0000000000000000 $#
1%#
b0000000000000100 (#
b0000000000000000 )#
b0000000000010110 +#
1,#
05#
b00000 9#
1<#
b0000000000000100 =#
b00100 >#
1?#
b0000000000000001 C#
1D#
#190000000
0"
0(
0Y
0a
0f
0r
0x
0|
0,"
00"
09"
0@"
0L"
0U"
0`"
0h"
0l"
0q"
0}"
0%#
0,#
0<#
0?#
0D#
#195000000
1"
0#
1(
0)
b0000000000000011 1
b0000000000000001 2
b0000000000000110 ;
b0000000000000001 <
b0000000000010010 B
b0000000000000110 E
b0000000000001011 F
b0 G
b0000000000000100 U
1Y
1a
1f
b000100 m
1r
b0000000000000001 v
1x
1|
b0000000000000110 ""
b0000000000000011 #"
b0000000000010010 $"
b0000000000000100 &"
b0000000000001011 '"
1,"
b0000000000000001 /"
10"
19"
1@"
b000000000100000000000000000000 G"
1L"
1U"
b0000000000000011 V"
b00001 W"
1`"
b0000000000001011 e"
1h"
1l"
b0 n"
1q"
b0000000000000001 w"
b0000000000000001 y"
1}"
b0000000000000001 ##
1%#
b0000000000010010 (#
b0000000000000100 )#
1,#
b0000000000000110 2#
b0000000000000110 4#
1<#
b0000000000000110 =#
b00000 >#
1?#
b0000000000000110 B#
1D#
#200000000
0"
0(
0Y
0a
0f
0r
0x
0|
0,"
00"
09"
0@"
0L"
0U"
0`"
0h"
0l"
0q"
0}"
0%#
0,#
0<#
0?#
0D#
#205000000
1"
1(
b0 0
b0000000000000101 1
b0000000000000010 2
b0000000000000110 4
b0000000000000001 5
b0000000000001011 ;
b0000000000001011 =
b0000000000000101 B
b0000000000000001 E
b0000000000011101 F
b0000000000010010 U
1Y
1a
1f
b000010 m
1r
1x
1|
b0 !"
b0000000000000001 ""
b0000000000000101 #"
b0000000000000101 $"
b0000000000001011 %"
b0000000000010010 &"
b0000000000011101 '"
b0000000000001011 ("
1,"
10"
19"
1@"
b000000000010000000000000000000 G"
1L"
b00110 R"
1U"
b0000000000000101 V"
1`"
b0000000000011101 e"
b0000000000001011 f"
1h"
1l"
1q"
b0000000000000010 w"
b0000000000000010 y"
1}"
b0000000000000010 ##
b0000000000000001 $#
1%#
0'#
b0000000000000101 (#
b0000000000010010 )#
1,#
b0000000000001011 2#
b0000000000001011 4#
b00001 9#
1<#
b0000000000000001 =#
1?#
b0000000000001011 B#
b0000000000000110 C#
1D#
#210000000
0"
0(
0Y
0a
0f
0r
0x
0|
0,"
00"
09"
0@"
0L"
0U"
0`"
0h"
0l"
0q"
0}"
0%#
0,#
0<#
0?#
0D#
#215000000
1"
1(
b1 .
b1 0
b0000000000000011 2
b0000000000001011 4
b0000000000000010 5
b0000000000010000 ;
b0000000000011101 =
b0 D
b0000000000101111 F
1Y
1a
b0 c
1f
b000001 m
1r
1x
1|
b1 !"
b0000000000011101 %"
b0000000000101111 '"
b0000000000011101 ("
1*"
1,"
10"
19"
1@"
b000000000001000000000000000000 G"
1L"
b01011 R"
1U"
b00110 W"
1`"
b0 c"
b0000000000101111 e"
b0000000000011101 f"
1h"
b1 j"
1l"
1q"
b0000000000000011 w"
b0000000000000011 y"
1}"
b0000000000000011 ##
b0000000000000010 $#
1%#
1'#
1,#
b0000000000010000 2#
b0000000000010000 4#
b00010 9#
1<#
b00001 >#
1?#
b0000000000010000 B#
b0000000000001011 C#
1D#
#220000000
0"
0(
0Y
0a
0f
0r
0x
0|
0,"
00"
09"
0@"
0L"
0U"
0`"
0h"
0l"
0q"
0}"
0%#
0,#
0<#
0?#
0D#
#225000000
1"
1(
b0 .
b0000000000000010 1
b0000000000000100 2
b0000000000010000 4
b0000000000000011 5
b1 9
b0000000000010101 ;
b0000000000000000 =
0>
b0000000000000100 B
b1 D
b0000000000000010 E
b0000000000000101 F
1I
b0000000000000010 J
b0000000000000101 U
1Y
b0 `
1a
b1 c
1f
1j
b0000000000000010 l
b100000 m
b0000000000000010 n
1p
1r
b0000000000000010 w
1x
b0 {
1|
b0000000000000010 ""
b0000000000000010 #"
b0000000000000100 $"
b0000000000000000 %"
b0000000000000101 &"
b0000000000000101 '"
b0000000000000000 ("
0*"
1,"
10"
19"
1;"
1@"
b000000000000100000000000000000 G"
1L"
b10000 R"
1U"
b0000000000000010 V"
b01011 W"
b0 ^"
b1 _"
1`"
b1 c"
b0000000000000101 e"
b0000000000000000 f"
b1 g"
1h"
b0 j"
1l"
1q"
1t"
0u"
b0000000000000100 w"
b0000000000000100 y"
1}"
b0000000000000100 ##
b0000000000000011 $#
1%#
b0000000000000100 (#
b0000000000000101 )#
1,#
1/#
00#
b0000000000010101 2#
b0000000000010101 4#
b00011 9#
1<#
b0000000000000010 =#
b00010 >#
1?#
b0000000000010101 B#
b0000000000010000 C#
1D#
#230000000
0"
0(
0Y
0a
0f
0r
0x
0|
0,"
00"
09"
0@"
0L"
0U"
0`"
0h"
0l"
0q"
0}"
0%#
0,#
0<#
0?#
0D#
