src/br/ufscar/dc/lalp/examples/teste_lalp/gnu/t_dotprod.vcd
$date
  Wed Apr 17 14:56:18 2013
$end
$version
  GHDL v0
$end
$timescale
  1 fs
$end
$var reg 1 ! \clear\ $end
$var reg 1 " \clk\ $end
$var reg 1 # \done\ $end
$var reg 1 $ \init\ $end
$var reg 1 % \reset\ $end
$var reg 32 & \sum\[31:0] $end
$scope module uut $end
$var reg 1 ' \clear\ $end
$var reg 1 ( \clk\ $end
$var reg 1 ) \done\ $end
$var reg 1 * \init\ $end
$var reg 1 + \reset\ $end
$var reg 32 , \sum\[31:0] $end
$var reg 16 - s0[15:0] $end
$var reg 1 . s10 $end
$var reg 1 / s11[0:0] $end
$var reg 1 0 s9 $end
$var reg 1 1 s7 $end
$var reg 32 2 s5[31:0] $end
$var reg 16 3 s3[15:0] $end
$var reg 16 4 s1[15:0] $end
$var reg 32 5 s8[31:0] $end
$var reg 32 6 s6[31:0] $end
$var reg 32 7 s4[31:0] $end
$scope module \c13\ $end
$var reg 1 8 a[0:0] $end
$var reg 1 9 clk $end
$var reg 1 : reset $end
$var reg 1 ; a_delayed[0:0] $end
$comment int is not handled $end
$upscope $end
$scope module \x_div_op_fl_y\ $end
$var reg 32 < i0[31:0] $end
$var reg 32 = i1[31:0] $end
$var reg 32 > o0[31:0] $end
$var reg 32 ? a[8:-23] $end
$var reg 32 @ b[8:-23] $end
$var reg 32 A s[8:-23] $end
$upscope $end
$scope module \acc\ $end
$var reg 1 B clk $end
$var reg 1 C reset $end
$var reg 1 D we $end
$var reg 32 E i0[31:0] $end
$var reg 32 F o0[31:0] $end
$upscope $end
$scope module \x\ $end
$var reg 32 G data_in[31:0] $end
$var reg 3 H address[2:0] $end
$var reg 1 I we $end
$var reg 1 J oe $end
$var reg 1 K clk $end
$var reg 32 L data_out[31:0] $end
$var reg 3 M read_a[2:0] $end
$comment ram is not handled $end
$upscope $end
$scope module \y\ $end
$var reg 32 N data_in[31:0] $end
$var reg 3 O address[2:0] $end
$var reg 1 P we $end
$var reg 1 Q oe $end
$var reg 1 R clk $end
$var reg 32 S data_out[31:0] $end
$var reg 3 T read_a[2:0] $end
$comment ram is not handled $end
$upscope $end
$scope module \i\ $end
$var reg 16 U input[15:0] $end
$var reg 16 V termination[15:0] $end
$var reg 1 W clk $end
$var reg 1 X clk_en $end
$var reg 1 Y reset $end
$var reg 1 Z load $end
$var reg 1 [ step $end
$var reg 1 \ done $end
$var reg 16 ] output[15:0] $end
$var reg 1 ^ shsteps[0:0] $end
$var reg 16 _ value[15:0] $end
$var reg 1 ` init $end
$var reg 1 a stepi $end
$var reg 1 b cond $end
$upscope $end
$upscope $end
$enddefinitions $end
#0
0!
0"
0#
0$
1%
b00000000000000000000000000000000 &
0'
0(
0)
0*
1+
b00000000000000000000000000000000 ,
b0000000000000000 -
0.
b0 /
00
01
bUUUUUUUUUUUUUUUUUUUUUUUUUUUUUUUU 2
b0000000000000000 3
b0000000000000101 4
b00000000000000000000000000000000 5
bXXXXXXXXXXXXXXXXXXXXXXXXXXXXXXXX 6
bUUUUUUUUUUUUUUUUUUUUUUUUUUUUUUUU 7
b0 8
09
1:
b0 ;
bUUUUUUUUUUUUUUUUUUUUUUUUUUUUUUUU <
bUUUUUUUUUUUUUUUUUUUUUUUUUUUUUUUU =
bXXXXXXXXXXXXXXXXXXXXXXXXXXXXXXXX >
bUUUUUUUUUUUUUUUUUUUUUUUUUUUUUUUU ?
bUUUUUUUUUUUUUUUUUUUUUUUUUUUUUUUU @
bXXXXXXXXXXXXXXXXXXXXXXXXXXXXXXXX A
0B
1C
0D
bXXXXXXXXXXXXXXXXXXXXXXXXXXXXXXXX E
b00000000000000000000000000000000 F
b00000000000000000000000000000000 G
b000 H
0I
1J
0K
bUUUUUUUUUUUUUUUUUUUUUUUUUUUUUUUU L
bUUU M
b00000000000000000000000000000000 N
b000 O
0P
1Q
0R
bUUUUUUUUUUUUUUUUUUUUUUUUUUUUUUUU S
bUUU T
b0000000000000000 U
b0000000000000101 V
0W
0X
1Y
0Z
0[
0\
b0000000000000000 ]
b1 ^
b0000000000000000 _
1`
0a
1b
#5000000
1"
1(
b01000000000000000000000000000000 2
b01000000110100000000000000000000 6
b01000001010100000000000000000000 7
19
b01000001010100000000000000000000 <
b01000000000000000000000000000000 =
b01000000110100000000000000000000 >
b01000001010100000000000000000000 ?
b01000000000000000000000000000000 @
b01000000110100000000000000000000 A
1B
b01000000110100000000000000000000 E
1K
b01000001010100000000000000000000 L
b000 M
1R
b01000000000000000000000000000000 S
b000 T
1W
#10000000
0"
0(
09
0B
0K
0R
0W
#15000000
1"
1(
19
1B
1K
1R
1W
#20000000
0"
0(
09
0B
0K
0R
0W
#25000000
1"
1(
19
1B
1K
1R
1W
#30000000
0"
0(
09
0B
0K
0R
0W
#35000000
1"
1(
19
1B
1K
1R
1W
#40000000
0"
0(
09
0B
0K
0R
0W
#45000000
1"
1(
19
1B
1K
1R
1W
#50000000
0"
0%
0(
0+
09
0:
0B
0C
0K
0R
0W
0Y
#55000000
1"
1(
19
1B
1K
1R
1W
#60000000
0"
0(
09
0B
0K
0R
0W
#65000000
1"
1(
19
1B
1K
1R
1W
#70000000
0"
0(
09
0B
0K
0R
0W
#75000000
1"
1(
19
1B
1K
1R
1W
#80000000
0"
0(
09
0B
0K
0R
0W
#85000000
1"
1(
19
1B
1K
1R
1W
#90000000
0"
0(
09
0B
0K
0R
0W
#95000000
1"
1(
19
1B
1K
1R
1W
#100000000
0"
1$
0(
1*
10
09
0B
0K
0R
0W
1X
#105000000
1"
1(
11
19
1B
1D
1K
1R
1W
1[
0`
1a
#110000000
0"
0(
09
0B
0K
0R
0W
#115000000
1"
b01000000110100000000000000000000 &
1(
b01000000110100000000000000000000 ,
b0000000000000001 3
b01000000110100000000000000000000 5
19
1B
b01000000110100000000000000000000 F
b001 H
1K
b001 O
1R
1W
b0000000000000001 ]
b0000000000000001 _
#120000000
0"
0(
09
0B
0K
0R
0W
#125000000
1"
1(
b0000000000000010 3
19
1B
b010 H
1K
b001 M
b010 O
1R
b001 T
1W
b0000000000000010 ]
b0000000000000010 _
#130000000
0"
0(
09
0B
0K
0R
0W
#135000000
1"
1(
b00000000000000000000000000000101 2
b0000000000000011 3
b00111110110011001100110011001101 6
b00000000000000000000000000000010 7
19
b00000000000000000000000000000010 <
b00000000000000000000000000000101 =
b00111110110011001100110011001101 >
b00000000000000000000000000000010 ?
b00000000000000000000000000000101 @
b00111110110011001100110011001101 A
1B
b00111110110011001100110011001101 E
b011 H
1K
b00000000000000000000000000000010 L
b010 M
b011 O
1R
b00000000000000000000000000000101 S
b010 T
1W
b0000000000000011 ]
b0000000000000011 _
#140000000
0"
0(
09
0B
0K
0R
0W
#145000000
1"
b00111110110011001100110011001101 &
1(
b00111110110011001100110011001101 ,
b00000000000000000000000000000110 2
b0000000000000100 3
b00111110110011001100110011001101 5
b00111111000000000000000000000000 6
b00000000000000000000000000000011 7
19
b00000000000000000000000000000011 <
b00000000000000000000000000000110 =
b00111111000000000000000000000000 >
b00000000000000000000000000000011 ?
b00000000000000000000000000000110 @
b00111111000000000000000000000000 A
1B
b00111111000000000000000000000000 E
b00111110110011001100110011001101 F
b100 H
1K
b00000000000000000000000000000011 L
b011 M
b100 O
1R
b00000000000000000000000000000110 S
b011 T
1W
b0000000000000100 ]
b0000000000000100 _
#150000000
0"
0(
09
0B
0K
0R
0W
#155000000
1"
b00111111000000000000000000000000 &
1(
b00111111000000000000000000000000 ,
1.
01
b00000000000000000000000000000000 2
b0000000000000101 3
b00111111000000000000000000000000 5
b01111111100000000000000000000001 6
b00000000000000000000000000000000 7
b1 8
19
b00000000000000000000000000000000 <
b00000000000000000000000000000000 =
b01111111100000000000000000000001 >
b00000000000000000000000000000000 ?
b00000000000000000000000000000000 @
b01111111100000000000000000000001 A
1B
0D
b01111111100000000000000000000001 E
b00111111000000000000000000000000 F
b101 H
1K
b00000000000000000000000000000000 L
b100 M
b101 O
1R
b00000000000000000000000000000000 S
b100 T
1W
0[
1\
b0000000000000101 ]
b0000000000000101 _
0b
#160000000
0"
0(
09
0B
0K
0R
0W
#165000000
1"
1(
19
1B
1K
b101 M
1R
b101 T
1W
#170000000
0"
0(
09
0B
0K
0R
0W
#175000000
1"
1(
19
1B
1K
1R
1W
#180000000
0"
0(
09
0B
0K
0R
0W
#185000000
1"
1#
1(
1)
b1 /
19
b1 ;
1B
1K
1R
1W
#190000000
0"
0(
09
0B
0K
0R
0W
#195000000
1"
1(
19
1B
1K
1R
1W
#200000000
0"
0(
09
0B
0K
0R
0W
#205000000
1"
1(
19
1B
1K
1R
1W
#210000000
0"
0(
09
0B
0K
0R
0W
#215000000
1"
1(
19
1B
1K
1R
1W
#220000000
0"
0(
09
0B
0K
0R
0W
#225000000
1"
1(
19
1B
1K
1R
1W
#230000000
0"
0(
09
0B
0K
0R
0W
#235000000
1"
1(
19
1B
1K
1R
1W
#240000000
0"
0(
09
0B
0K
0R
0W
#245000000
1"
1(
19
1B
1K
1R
1W
#250000000
0"
0(
09
0B
0K
0R
0W
#255000000
1"
1(
19
1B
1K
1R
1W
#260000000
0"
0(
09
0B
0K
0R
0W
#265000000
1"
1(
19
1B
1K
1R
1W
#270000000
0"
0(
09
0B
0K
0R
0W
#275000000
1"
1(
19
1B
1K
1R
1W
#280000000
0"
0(
09
0B
0K
0R
0W
#285000000
1"
1(
19
1B
1K
1R
1W
#290000000
0"
0(
09
0B
0K
0R
0W
#295000000
1"
1(
19
1B
1K
1R
1W
#300000000
0"
0(
09
0B
0K
0R
0W
#305000000
1"
1(
19
1B
1K
1R
1W
#310000000
0"
0(
09
0B
0K
0R
0W
#315000000
1"
1(
19
1B
1K
1R
1W
#320000000
0"
0(
09
0B
0K
0R
0W
#325000000
1"
1(
19
1B
1K
1R
1W
#330000000
0"
0(
09
0B
0K
0R
0W
#335000000
1"
1(
19
1B
1K
1R
1W
#340000000
0"
0(
09
0B
0K
0R
0W
#345000000
1"
1(
19
1B
1K
1R
1W
#350000000
0"
0(
09
0B
0K
0R
0W
#355000000
1"
1(
19
1B
1K
1R
1W
#360000000
0"
0(
09
0B
0K
0R
0W
#365000000
1"
1(
19
1B
1K
1R
1W
#370000000
0"
0(
09
0B
0K
0R
0W
#375000000
1"
1(
19
1B
1K
1R
1W
#380000000
0"
0(
09
0B
0K
0R
0W
#385000000
1"
1(
19
1B
1K
1R
1W
#390000000
0"
0(
09
0B
0K
0R
0W
#395000000
1"
1(
19
1B
1K
1R
1W
#400000000
0"
0(
09
0B
0K
0R
0W
#405000000
1"
1(
19
1B
1K
1R
1W
#410000000
0"
0(
09
0B
0K
0R
0W
#415000000
1"
1(
19
1B
1K
1R
1W
#420000000
0"
0(
09
0B
0K
0R
0W
#425000000
1"
1(
19
1B
1K
1R
1W
#430000000
0"
0(
09
0B
0K
0R
0W
#435000000
1"
1(
19
1B
1K
1R
1W
#440000000
0"
0(
09
0B
0K
0R
0W
#445000000
1"
1(
19
1B
1K
1R
1W
#450000000
0"
0(
09
0B
0K
0R
0W
#455000000
1"
1(
19
1B
1K
1R
1W
#460000000
0"
0(
09
0B
0K
0R
0W
#465000000
1"
1(
19
1B
1K
1R
1W
#470000000
0"
0(
09
0B
0K
0R
0W
#475000000
1"
1(
19
1B
1K
1R
1W
#480000000
0"
0(
09
0B
0K
0R
0W
#485000000
1"
1(
19
1B
1K
1R
1W
#490000000
0"
0(
09
0B
0K
0R
0W
#495000000
1"
1(
19
1B
1K
1R
1W
#500000000
0"
0(
09
0B
0K
0R
0W
#505000000
1"
1(
19
1B
1K
1R
1W
#510000000
0"
0(
09
0B
0K
0R
0W
#515000000
1"
1(
19
1B
1K
1R
1W
#520000000
0"
0(
09
0B
0K
0R
0W
#525000000
1"
1(
19
1B
1K
1R
1W
#530000000
0"
0(
09
0B
0K
0R
0W
#535000000
1"
1(
19
1B
1K
1R
1W
#540000000
0"
0(
09
0B
0K
0R
0W
#545000000
1"
1(
19
1B
1K
1R
1W
#550000000
0"
0(
09
0B
0K
0R
0W
#555000000
1"
1(
19
1B
1K
1R
1W
#560000000
0"
0(
09
0B
0K
0R
0W
#565000000
1"
1(
19
1B
1K
1R
1W
#570000000
0"
0(
09
0B
0K
0R
0W
#575000000
1"
1(
19
1B
1K
1R
1W
#580000000
0"
0(
09
0B
0K
0R
0W
#585000000
1"
1(
19
1B
1K
1R
1W
#590000000
0"
0(
09
0B
0K
0R
0W
#595000000
1"
1(
19
1B
1K
1R
1W
#600000000
0"
0(
09
0B
0K
0R
0W
#605000000
1"
1(
19
1B
1K
1R
1W
#610000000
0"
0(
09
0B
0K
0R
0W
#615000000
1"
1(
19
1B
1K
1R
1W
#620000000
0"
0(
09
0B
0K
0R
0W
#625000000
1"
1(
19
1B
1K
1R
1W
#630000000
0"
0(
09
0B
0K
0R
0W
#635000000
1"
1(
19
1B
1K
1R
1W
#640000000
0"
0(
09
0B
0K
0R
0W
#645000000
1"
1(
19
1B
1K
1R
1W
#650000000
0"
0(
09
0B
0K
0R
0W
#655000000
1"
1(
19
1B
1K
1R
1W
#660000000
0"
0(
09
0B
0K
0R
0W
#665000000
1"
1(
19
1B
1K
1R
1W
#670000000
0"
0(
09
0B
0K
0R
0W
#675000000
1"
1(
19
1B
1K
1R
1W
#680000000
0"
0(
09
0B
0K
0R
0W
#685000000
1"
1(
19
1B
1K
1R
1W
#690000000
0"
0(
09
0B
0K
0R
0W
#695000000
1"
1(
19
1B
1K
1R
1W
#700000000
0"
0(
09
0B
0K
0R
0W
#705000000
1"
1(
19
1B
1K
1R
1W
#710000000
0"
0(
09
0B
0K
0R
0W
#715000000
1"
1(
19
1B
1K
1R
1W
#720000000
0"
0(
09
0B
0K
0R
0W
#725000000
1"
1(
19
1B
1K
1R
1W
#730000000
0"
0(
09
0B
0K
0R
0W
#735000000
1"
1(
19
1B
1K
1R
1W
#740000000
0"
0(
09
0B
0K
0R
0W
#745000000
1"
1(
19
1B
1K
1R
1W
#750000000
0"
0(
09
0B
0K
0R
0W
#755000000
1"
1(
19
1B
1K
1R
1W
#760000000
0"
0(
09
0B
0K
0R
0W
#765000000
1"
1(
19
1B
1K
1R
1W
#770000000
0"
0(
09
0B
0K
0R
0W
#775000000
1"
1(
19
1B
1K
1R
1W
#780000000
0"
0(
09
0B
0K
0R
0W
#785000000
1"
1(
19
1B
1K
1R
1W
#790000000
0"
0(
09
0B
0K
0R
0W
#795000000
1"
1(
19
1B
1K
1R
1W
#800000000
0"
0(
09
0B
0K
0R
0W
#805000000
1"
1(
19
1B
1K
1R
1W
#810000000
0"
0(
09
0B
0K
0R
0W
#815000000
1"
1(
19
1B
1K
1R
1W
#820000000
0"
0(
09
0B
0K
0R
0W
#825000000
1"
1(
19
1B
1K
1R
1W
#830000000
0"
0(
09
0B
0K
0R
0W
#835000000
1"
1(
19
1B
1K
1R
1W
#840000000
0"
0(
09
0B
0K
0R
0W
#845000000
1"
1(
19
1B
1K
1R
1W
#850000000
0"
0(
09
0B
0K
0R
0W
#855000000
1"
1(
19
1B
1K
1R
1W
#860000000
0"
0(
09
0B
0K
0R
0W
#865000000
1"
1(
19
1B
1K
1R
1W
#870000000
0"
0(
09
0B
0K
0R
0W
#875000000
1"
1(
19
1B
1K
1R
1W
#880000000
0"
0(
09
0B
0K
0R
0W
#885000000
1"
1(
19
1B
1K
1R
1W
#890000000
0"
0(
09
0B
0K
0R
0W
#895000000
1"
1(
19
1B
1K
1R
1W
#900000000
0"
0(
09
0B
0K
0R
0W
#905000000
1"
1(
19
1B
1K
1R
1W
#910000000
0"
0(
09
0B
0K
0R
0W
#915000000
1"
1(
19
1B
1K
1R
1W
#920000000
0"
0(
09
0B
0K
0R
0W
#925000000
1"
1(
19
1B
1K
1R
1W
#930000000
0"
0(
09
0B
0K
0R
0W
#935000000
1"
1(
19
1B
1K
1R
1W
#940000000
0"
0(
09
0B
0K
0R
0W
#945000000
1"
1(
19
1B
1K
1R
1W
#950000000
0"
0(
09
0B
0K
0R
0W
#955000000
1"
1(
19
1B
1K
1R
1W
#960000000
0"
0(
09
0B
0K
0R
0W
#965000000
1"
1(
19
1B
1K
1R
1W
#970000000
0"
0(
09
0B
0K
0R
0W
#975000000
1"
1(
19
1B
1K
1R
1W
#980000000
0"
0(
09
0B
0K
0R
0W
#985000000
1"
1(
19
1B
1K
1R
1W
#990000000
0"
0(
09
0B
0K
0R
0W
#995000000
1"
1(
19
1B
1K
1R
1W
#1000000000
0"
0(
09
0B
0K
0R
0W
#1005000000
1"
1(
19
1B
1K
1R
1W
#1010000000
0"
0(
09
0B
0K
0R
0W
#1015000000
1"
1(
19
1B
1K
1R
1W
#1020000000
0"
0(
09
0B
0K
0R
0W
#1025000000
1"
1(
19
1B
1K
1R
1W
#1030000000
0"
0(
09
0B
0K
0R
0W
#1035000000
1"
1(
19
1B
1K
1R
1W
#1040000000
0"
0(
09
0B
0K
0R
0W
#1045000000
1"
1(
19
1B
1K
1R
1W
#1050000000
0"
0(
09
0B
0K
0R
0W
#1055000000
1"
1(
19
1B
1K
1R
1W
#1060000000
0"
0(
09
0B
0K
0R
0W
#1065000000
1"
1(
19
1B
1K
1R
1W
#1070000000
0"
0(
09
0B
0K
0R
0W
#1075000000
1"
1(
19
1B
1K
1R
1W
#1080000000
0"
0(
09
0B
0K
0R
0W
#1085000000
1"
1(
19
1B
1K
1R
1W
#1090000000
0"
0(
09
0B
0K
0R
0W
#1095000000
1"
1(
19
1B
1K
1R
1W
#1100000000
0"
0(
09
0B
0K
0R
0W
#1105000000
1"
1(
19
1B
1K
1R
1W
#1110000000
0"
0(
09
0B
0K
0R
0W
#1115000000
1"
1(
19
1B
1K
1R
1W
#1120000000
0"
0(
09
0B
0K
0R
0W
#1125000000
1"
1(
19
1B
1K
1R
1W
#1130000000
0"
0(
09
0B
0K
0R
0W
#1135000000
1"
1(
19
1B
1K
1R
1W
#1140000000
0"
0(
09
0B
0K
0R
0W
#1145000000
1"
1(
19
1B
1K
1R
1W
#1150000000
0"
0(
09
0B
0K
0R
0W
#1155000000
1"
1(
19
1B
1K
1R
1W
#1160000000
0"
0(
09
0B
0K
0R
0W
#1165000000
1"
1(
19
1B
1K
1R
1W
#1170000000
0"
0(
09
0B
0K
0R
0W
#1175000000
1"
1(
19
1B
1K
1R
1W
#1180000000
0"
0(
09
0B
0K
0R
0W
#1185000000
1"
1(
19
1B
1K
1R
1W
#1190000000
0"
0(
09
0B
0K
0R
0W
#1195000000
1"
1(
19
1B
1K
1R
1W
#1200000000
0"
0(
09
0B
0K
0R
0W
#1205000000
1"
1(
19
1B
1K
1R
1W
#1210000000
0"
0(
09
0B
0K
0R
0W
#1215000000
1"
1(
19
1B
1K
1R
1W
#1220000000
0"
0(
09
0B
0K
0R
0W
#1225000000
1"
1(
19
1B
1K
1R
1W
#1230000000
0"
0(
09
0B
0K
0R
0W
#1235000000
1"
1(
19
1B
1K
1R
1W
#1240000000
0"
0(
09
0B
0K
0R
0W
#1245000000
1"
1(
19
1B
1K
1R
1W
#1250000000
0"
0(
09
0B
0K
0R
0W
#1255000000
1"
1(
19
1B
1K
1R
1W
#1260000000
0"
0(
09
0B
0K
0R
0W
#1265000000
1"
1(
19
1B
1K
1R
1W
#1270000000
0"
0(
09
0B
0K
0R
0W
#1275000000
1"
1(
19
1B
1K
1R
1W
#1280000000
0"
0(
09
0B
0K
0R
0W
#1285000000
1"
1(
19
1B
1K
1R
1W
#1290000000
0"
0(
09
0B
0K
0R
0W
#1295000000
1"
1(
19
1B
1K
1R
1W
#1300000000
0"
0(
09
0B
0K
0R
0W
#1305000000
1"
1(
19
1B
1K
1R
1W
#1310000000
0"
0(
09
0B
0K
0R
0W
#1315000000
1"
1(
19
1B
1K
1R
1W
#1320000000
0"
0(
09
0B
0K
0R
0W
#1325000000
1"
1(
19
1B
1K
1R
1W
#1330000000
0"
0(
09
0B
0K
0R
0W
#1335000000
1"
1(
19
1B
1K
1R
1W
#1340000000
0"
0(
09
0B
0K
0R
0W
#1345000000
1"
1(
19
1B
1K
1R
1W
#1350000000
0"
0(
09
0B
0K
0R
0W
#1355000000
1"
1(
19
1B
1K
1R
1W
#1360000000
0"
0(
09
0B
0K
0R
0W
#1365000000
1"
1(
19
1B
1K
1R
1W
#1370000000
0"
0(
09
0B
0K
0R
0W
#1375000000
1"
1(
19
1B
1K
1R
1W
#1380000000
0"
0(
09
0B
0K
0R
0W
#1385000000
1"
1(
19
1B
1K
1R
1W
#1390000000
0"
0(
09
0B
0K
0R
0W
#1395000000
1"
1(
19
1B
1K
1R
1W
#1400000000
0"
0(
09
0B
0K
0R
0W
#1405000000
1"
1(
19
1B
1K
1R
1W
#1410000000
0"
0(
09
0B
0K
0R
0W
#1415000000
1"
1(
19
1B
1K
1R
1W
#1420000000
0"
0(
09
0B
0K
0R
0W
#1425000000
1"
1(
19
1B
1K
1R
1W
#1430000000
0"
0(
09
0B
0K
0R
0W
#1435000000
1"
1(
19
1B
1K
1R
1W
#1440000000
0"
0(
09
0B
0K
0R
0W
#1445000000
1"
1(
19
1B
1K
1R
1W
#1450000000
0"
0(
09
0B
0K
0R
0W
#1455000000
1"
1(
19
1B
1K
1R
1W
#1460000000
0"
0(
09
0B
0K
0R
0W
#1465000000
1"
1(
19
1B
1K
1R
1W
#1470000000
0"
0(
09
0B
0K
0R
0W
#1475000000
1"
1(
19
1B
1K
1R
1W
#1480000000
0"
0(
09
0B
0K
0R
0W
#1485000000
1"
1(
19
1B
1K
1R
1W
#1490000000
0"
0(
09
0B
0K
0R
0W
#1495000000
1"
1(
19
1B
1K
1R
1W
#1500000000
0"
0(
09
0B
0K
0R
0W
#1505000000
1"
1(
19
1B
1K
1R
1W
#1510000000
0"
0(
09
0B
0K
0R
0W
#1515000000
1"
1(
19
1B
1K
1R
1W
#1520000000
0"
0(
09
0B
0K
0R
0W
#1525000000
1"
1(
19
1B
1K
1R
1W
#1530000000
0"
0(
09
0B
0K
0R
0W
#1535000000
1"
1(
19
1B
1K
1R
1W
#1540000000
0"
0(
09
0B
0K
0R
0W
#1545000000
1"
1(
19
1B
1K
1R
1W
#1550000000
0"
0(
09
0B
0K
0R
0W
#1555000000
1"
1(
19
1B
1K
1R
1W
#1560000000
0"
0(
09
0B
0K
0R
0W
#1565000000
1"
1(
19
1B
1K
1R
1W
#1570000000
0"
0(
09
0B
0K
0R
0W
#1575000000
1"
1(
19
1B
1K
1R
1W
#1580000000
0"
0(
09
0B
0K
0R
0W
#1585000000
1"
1(
19
1B
1K
1R
1W
#1590000000
0"
0(
09
0B
0K
0R
0W
#1595000000
1"
1(
19
1B
1K
1R
1W
#1600000000
0"
0(
09
0B
0K
0R
0W
#1605000000
1"
1(
19
1B
1K
1R
1W
#1610000000
0"
0(
09
0B
0K
0R
0W
#1615000000
1"
1(
19
1B
1K
1R
1W
#1620000000
0"
0(
09
0B
0K
0R
0W
#1625000000
1"
1(
19
1B
1K
1R
1W
#1630000000
0"
0(
09
0B
0K
0R
0W
#1635000000
1"
1(
19
1B
1K
1R
1W
#1640000000
0"
0(
09
0B
0K
0R
0W
#1645000000
1"
1(
19
1B
1K
1R
1W
#1650000000
0"
0(
09
0B
0K
0R
0W
#1655000000
1"
1(
19
1B
1K
1R
1W
#1660000000
0"
0(
09
0B
0K
0R
0W
#1665000000
1"
1(
19
1B
1K
1R
1W
#1670000000
0"
0(
09
0B
0K
0R
0W
#1675000000
1"
1(
19
1B
1K
1R
1W
#1680000000
0"
0(
09
0B
0K
0R
0W
#1685000000
1"
1(
19
1B
1K
1R
1W
#1690000000
0"
0(
09
0B
0K
0R
0W
#1695000000
1"
1(
19
1B
1K
1R
1W
#1700000000
0"
0(
09
0B
0K
0R
0W
#1705000000
1"
1(
19
1B
1K
1R
1W
#1710000000
0"
0(
09
0B
0K
0R
0W
#1715000000
1"
1(
19
1B
1K
1R
1W
#1720000000
0"
0(
09
0B
0K
0R
0W
#1725000000
1"
1(
19
1B
1K
1R
1W
#1730000000
0"
0(
09
0B
0K
0R
0W
#1735000000
1"
1(
19
1B
1K
1R
1W
#1740000000
0"
0(
09
0B
0K
0R
0W
#1745000000
1"
1(
19
1B
1K
1R
1W
#1750000000
0"
0(
09
0B
0K
0R
0W
#1755000000
1"
1(
19
1B
1K
1R
1W
#1760000000
0"
0(
09
0B
0K
0R
0W
#1765000000
1"
1(
19
1B
1K
1R
1W
#1770000000
0"
0(
09
0B
0K
0R
0W
#1775000000
1"
1(
19
1B
1K
1R
1W
#1780000000
0"
0(
09
0B
0K
0R
0W
#1785000000
1"
1(
19
1B
1K
1R
1W
#1790000000
0"
0(
09
0B
0K
0R
0W
#1795000000
1"
1(
19
1B
1K
1R
1W
#1800000000
0"
0(
09
0B
0K
0R
0W
#1805000000
1"
1(
19
1B
1K
1R
1W
#1810000000
0"
0(
09
0B
0K
0R
0W
#1815000000
1"
1(
19
1B
1K
1R
1W
#1820000000
0"
0(
09
0B
0K
0R
0W
#1825000000
1"
1(
19
1B
1K
1R
1W
#1830000000
0"
0(
09
0B
0K
0R
0W
#1835000000
1"
1(
19
1B
1K
1R
1W
#1840000000
0"
0(
09
0B
0K
0R
0W
#1845000000
1"
1(
19
1B
1K
1R
1W
#1850000000
0"
0(
09
0B
0K
0R
0W
#1855000000
1"
1(
19
1B
1K
1R
1W
#1860000000
0"
0(
09
0B
0K
0R
0W
#1865000000
1"
1(
19
1B
1K
1R
1W
#1870000000
0"
0(
09
0B
0K
0R
0W
#1875000000
1"
1(
19
1B
1K
1R
1W
#1880000000
0"
0(
09
0B
0K
0R
0W
#1885000000
1"
1(
19
1B
1K
1R
1W
#1890000000
0"
0(
09
0B
0K
0R
0W
#1895000000
1"
1(
19
1B
1K
1R
1W
#1900000000
0"
0(
09
0B
0K
0R
0W
#1905000000
1"
1(
19
1B
1K
1R
1W
#1910000000
0"
0(
09
0B
0K
0R
0W
#1915000000
1"
1(
19
1B
1K
1R
1W
#1920000000
0"
0(
09
0B
0K
0R
0W
#1925000000
1"
1(
19
1B
1K
1R
1W
#1930000000
0"
0(
09
0B
0K
0R
0W
#1935000000
1"
1(
19
1B
1K
1R
1W
#1940000000
0"
0(
09
0B
0K
0R
0W
#1945000000
1"
1(
19
1B
1K
1R
1W
#1950000000
0"
0(
09
0B
0K
0R
0W
#1955000000
1"
1(
19
1B
1K
1R
1W
#1960000000
0"
0(
09
0B
0K
0R
0W
#1965000000
1"
1(
19
1B
1K
1R
1W
#1970000000
0"
0(
09
0B
0K
0R
0W
#1975000000
1"
1(
19
1B
1K
1R
1W
#1980000000
0"
0(
09
0B
0K
0R
0W
#1985000000
1"
1(
19
1B
1K
1R
1W
#1990000000
0"
0(
09
0B
0K
0R
0W
#1995000000
1"
1(
19
1B
1K
1R
1W
#2000000000
0"
0(
09
0B
0K
0R
0W
#2005000000
1"
1(
19
1B
1K
1R
1W
#2010000000
0"
0(
09
0B
0K
0R
0W
#2015000000
1"
1(
19
1B
1K
1R
1W
#2020000000
0"
0(
09
0B
0K
0R
0W
#2025000000
1"
1(
19
1B
1K
1R
1W
#2030000000
0"
0(
09
0B
0K
0R
0W
#2035000000
1"
1(
19
1B
1K
1R
1W
#2040000000
0"
0(
09
0B
0K
0R
0W
#2045000000
1"
1(
19
1B
1K
1R
1W
#2050000000
0"
0(
09
0B
0K
0R
0W
#2055000000
1"
1(
19
1B
1K
1R
1W
#2060000000
0"
0(
09
0B
0K
0R
0W
#2065000000
1"
1(
19
1B
1K
1R
1W
#2070000000
0"
0(
09
0B
0K
0R
0W
#2075000000
1"
1(
19
1B
1K
1R
1W
#2080000000
0"
0(
09
0B
0K
0R
0W
#2085000000
1"
1(
19
1B
1K
1R
1W
#2090000000
0"
0(
09
0B
0K
0R
0W
#2095000000
1"
1(
19
1B
1K
1R
1W
#2100000000
0"
0(
09
0B
0K
0R
0W
#2105000000
1"
1(
19
1B
1K
1R
1W
#2110000000
0"
0(
09
0B
0K
0R
0W
#2115000000
1"
1(
19
1B
1K
1R
1W
#2120000000
0"
0(
09
0B
0K
0R
0W
#2125000000
1"
1(
19
1B
1K
1R
1W
#2130000000
0"
0(
09
0B
0K
0R
0W
#2135000000
1"
1(
19
1B
1K
1R
1W
#2140000000
0"
0(
09
0B
0K
0R
0W
#2145000000
1"
1(
19
1B
1K
1R
1W
#2150000000
0"
0(
09
0B
0K
0R
0W
#2155000000
1"
1(
19
1B
1K
1R
1W
#2160000000
0"
0(
09
0B
0K
0R
0W
#2165000000
1"
1(
19
1B
1K
1R
1W
#2170000000
0"
0(
09
0B
0K
0R
0W
#2175000000
1"
1(
19
1B
1K
1R
1W
#2180000000
0"
0(
09
0B
0K
0R
0W
#2185000000
1"
1(
19
1B
1K
1R
1W
#2190000000
0"
0(
09
0B
0K
0R
0W
#2195000000
1"
1(
19
1B
1K
1R
1W
#2200000000
0"
0(
09
0B
0K
0R
0W
#2205000000
1"
1(
19
1B
1K
1R
1W
#2210000000
0"
0(
09
0B
0K
0R
0W
#2215000000
1"
1(
19
1B
1K
1R
1W
#2220000000
0"
0(
09
0B
0K
0R
0W
#2225000000
1"
1(
19
1B
1K
1R
1W
#2230000000
0"
0(
09
0B
0K
0R
0W
#2235000000
1"
1(
19
1B
1K
1R
1W
#2240000000
0"
0(
09
0B
0K
0R
0W
#2245000000
1"
1(
19
1B
1K
1R
1W
#2250000000
0"
0(
09
0B
0K
0R
0W
#2255000000
1"
1(
19
1B
1K
1R
1W
#2260000000
0"
0(
09
0B
0K
0R
0W
#2265000000
1"
1(
19
1B
1K
1R
1W
#2270000000
0"
0(
09
0B
0K
0R
0W
#2275000000
1"
1(
19
1B
1K
1R
1W
#2280000000
0"
0(
09
0B
0K
0R
0W
