src/br/ufscar/dc/lalp/examples/fibonacci_data_reuse/t_fibonacci.vcd
$date
  Mon Apr 23 17:10:42 2012
$end
$version
  GHDL v0
$end
$timescale
  1 fs
$end
$var reg 1 ! \clear\ $end
$var reg 1 " \clk\ $end
$var reg 1 # \done\ $end
$var reg 1 $ \init\ $end
$var reg 32 % \output\[31:0] $end
$var reg 1 & \reset\ $end
$scope module uut $end
$var reg 1 ' \clear\ $end
$var reg 1 ( \clk\ $end
$var reg 1 ) \done\ $end
$var reg 1 * \init\ $end
$var reg 32 + \output\[31:0] $end
$var reg 1 , \reset\ $end
$var reg 6 - s0[5:0] $end
$var reg 1 . s10 $end
$var reg 1 / s11[0:0] $end
$var reg 32 0 s9[31:0] $end
$var reg 32 1 s7[31:0] $end
$var reg 32 2 s3[31:0] $end
$var reg 6 3 s1[5:0] $end
$var reg 32 4 s8[31:0] $end
$var reg 6 5 s4[5:0] $end
$var reg 1 6 s2 $end
$scope module \c13\ $end
$var reg 1 7 a[0:0] $end
$var reg 1 8 clk $end
$var reg 1 9 reset $end
$var reg 1 : a_delayed[0:0] $end
$comment int is not handled $end
$upscope $end
$scope module \v\ $end
$var reg 32 ; data_in[31:0] $end
$var reg 3 < address[2:0] $end
$var reg 1 = we $end
$var reg 1 > oe $end
$var reg 1 ? clk $end
$var reg 32 @ data_out[31:0] $end
$var reg 3 A read_a[2:0] $end
$comment ram is not handled $end
$upscope $end
$scope module \b\ $end
$var reg 1 B clk $end
$var reg 1 C reset $end
$var reg 1 D we $end
$var reg 1 E sel1[0:0] $end
$var reg 32 F i0[31:0] $end
$var reg 32 G i1[31:0] $end
$var reg 32 H o0[31:0] $end
$upscope $end
$scope module \i\ $end
$var reg 6 I input[5:0] $end
$var reg 6 J termination[5:0] $end
$var reg 1 K clk $end
$var reg 1 L clk_en $end
$var reg 1 M reset $end
$var reg 1 N load $end
$var reg 1 O step $end
$var reg 1 P done $end
$var reg 6 Q output[5:0] $end
$var reg 1 R shsteps[0:0] $end
$var reg 6 S value[5:0] $end
$var reg 1 T init $end
$var reg 1 U stepi $end
$var reg 1 V cond $end
$upscope $end
$scope module \a\ $end
$var reg 1 W clk $end
$var reg 1 X reset $end
$var reg 1 Y we $end
$var reg 32 Z i0[31:0] $end
$var reg 32 [ o0[31:0] $end
$upscope $end
$upscope $end
$enddefinitions $end
#0
0!
0"
0#
0$
bUUUUUUUUUUUUUUUUUUUUUUUUUUUUUUUU %
1&
0'
0(
0)
0*
bUUUUUUUUUUUUUUUUUUUUUUUUUUUUUUUU +
1,
b000000 -
0.
b0 /
bUUUUUUUUUUUUUUUUUUUUUUUUUUUUUUUU 0
b00000000000000000000000000000000 1
b00000000000000000000000000000001 2
b100000 3
b00000000000000000000000000000001 4
b000000 5
06
b0 7
08
19
b0 :
b00000000000000000000000000000000 ;
b000 <
1=
1>
0?
bUUUUUUUUUUUUUUUUUUUUUUUUUUUUUUUU @
bUUU A
0B
1C
1D
b1 E
b00000000000000000000000000000001 F
b00000000000000000000000000000000 G
b00000000000000000000000000000001 H
b000000 I
b100000 J
0K
0L
1M
0N
0O
0P
b000000 Q
b1 R
b000000 S
1T
0U
1V
0W
1X
1Y
b00000000000000000000000000000001 Z
b00000000000000000000000000000000 [
#5000000
1"
1(
18
1?
b000 A
1B
1K
1W
#10000000
0"
0(
08
0?
0B
0K
0W
#15000000
1"
b00000000000000000000000000000000 %
1(
b00000000000000000000000000000000 +
b00000000000000000000000000000000 0
18
1?
b00000000000000000000000000000000 @
1B
1K
1W
#20000000
0"
0(
08
0?
0B
0K
0W
#25000000
1"
1(
18
1?
1B
1K
1W
#30000000
0"
0(
08
0?
0B
0K
0W
#35000000
1"
1(
18
1?
1B
1K
1W
#40000000
0"
0(
08
0?
0B
0K
0W
#45000000
1"
1(
18
1?
1B
1K
1W
#50000000
0"
0&
0(
0,
08
09
0?
0B
0C
0K
0M
0W
0X
#55000000
1"
1(
b00000000000000000000000000000001 1
18
b00000000000000000000000000000001 ;
1?
1B
b00000000000000000000000000000001 G
1K
1W
b00000000000000000000000000000001 [
#60000000
0"
0(
08
0?
0B
0K
0W
#65000000
1"
1(
b00000000000000000000000000000010 4
18
1?
1B
b00000000000000000000000000000010 F
b00000000000000000000000000000010 H
1K
1W
b00000000000000000000000000000010 Z
#70000000
0"
0(
08
0?
0B
0K
0W
#75000000
1"
b00000000000000000000000000000001 %
1(
b00000000000000000000000000000001 +
b00000000000000000000000000000001 0
b00000000000000000000000000000010 1
b00000000000000000000000000000011 4
18
b00000000000000000000000000000010 ;
1?
b00000000000000000000000000000001 @
1B
b00000000000000000000000000000011 F
b00000000000000000000000000000010 G
b00000000000000000000000000000011 H
1K
1W
b00000000000000000000000000000011 Z
b00000000000000000000000000000010 [
#80000000
0"
0(
08
0?
0B
0K
0W
#85000000
1"
1(
b00000000000000000000000000000011 1
b00000000000000000000000000000101 4
18
b00000000000000000000000000000011 ;
1?
1B
b00000000000000000000000000000101 F
b00000000000000000000000000000011 G
b00000000000000000000000000000101 H
1K
1W
b00000000000000000000000000000101 Z
b00000000000000000000000000000011 [
#90000000
0"
0(
08
0?
0B
0K
0W
#95000000
1"
b00000000000000000000000000000010 %
1(
b00000000000000000000000000000010 +
b00000000000000000000000000000010 0
b00000000000000000000000000000101 1
b00000000000000000000000000001000 4
18
b00000000000000000000000000000101 ;
1?
b00000000000000000000000000000010 @
1B
b00000000000000000000000000001000 F
b00000000000000000000000000000101 G
b00000000000000000000000000001000 H
1K
1W
b00000000000000000000000000001000 Z
b00000000000000000000000000000101 [
#100000000
0"
1$
0(
1*
16
08
0?
0B
0K
1L
0W
#105000000
1"
b00000000000000000000000000000011 %
1(
b00000000000000000000000000000011 +
b00000000000000000000000000000011 0
b00000000000000000000000000001000 1
b00000000000000000000000000001101 4
18
b00000000000000000000000000001000 ;
1?
b00000000000000000000000000000011 @
1B
b00000000000000000000000000001101 F
b00000000000000000000000000001000 G
b00000000000000000000000000001101 H
1K
1O
0T
1U
1W
b00000000000000000000000000001101 Z
b00000000000000000000000000001000 [
#110000000
0"
0(
08
0?
0B
0K
0W
#115000000
1"
b00000000000000000000000000000101 %
1(
b00000000000000000000000000000101 +
b00000000000000000000000000000101 0
b00000000000000000000000000001101 1
b00000000000000000000000000010101 4
b000001 5
18
b00000000000000000000000000001101 ;
b001 <
1?
b00000000000000000000000000000101 @
1B
b00000000000000000000000000010101 F
b00000000000000000000000000001101 G
b00000000000000000000000000010101 H
1K
b000001 Q
b000001 S
1W
b00000000000000000000000000010101 Z
b00000000000000000000000000001101 [
#120000000
0"
0(
08
0?
0B
0K
0W
#125000000
1"
b00000000000000000000000000001000 %
1(
b00000000000000000000000000001000 +
b00000000000000000000000000001000 0
b00000000000000000000000000010101 1
b00000000000000000000000000100010 4
b000010 5
18
b00000000000000000000000000010101 ;
b010 <
1?
b00000000000000000000000000001000 @
b001 A
1B
b00000000000000000000000000100010 F
b00000000000000000000000000010101 G
b00000000000000000000000000100010 H
1K
b000010 Q
b000010 S
1W
b00000000000000000000000000100010 Z
b00000000000000000000000000010101 [
#130000000
0"
0(
08
0?
0B
0K
0W
#135000000
1"
b00000000000000000000000000001101 %
1(
b00000000000000000000000000001101 +
b00000000000000000000000000001101 0
b00000000000000000000000000100010 1
b00000000000000000000000000110111 4
b000011 5
18
b00000000000000000000000000100010 ;
b011 <
1?
b00000000000000000000000000001101 @
b010 A
1B
b00000000000000000000000000110111 F
b00000000000000000000000000100010 G
b00000000000000000000000000110111 H
1K
b000011 Q
b000011 S
1W
b00000000000000000000000000110111 Z
b00000000000000000000000000100010 [
#140000000
0"
0(
08
0?
0B
0K
0W
#145000000
1"
b00000000000000000000000000010101 %
1(
b00000000000000000000000000010101 +
b00000000000000000000000000010101 0
b00000000000000000000000000110111 1
b00000000000000000000000001011001 4
b000100 5
18
b00000000000000000000000000110111 ;
b100 <
1?
b00000000000000000000000000010101 @
b011 A
1B
b00000000000000000000000001011001 F
b00000000000000000000000000110111 G
b00000000000000000000000001011001 H
1K
b000100 Q
b000100 S
1W
b00000000000000000000000001011001 Z
b00000000000000000000000000110111 [
#150000000
0"
0(
08
0?
0B
0K
0W
#155000000
1"
b00000000000000000000000000100010 %
1(
b00000000000000000000000000100010 +
b00000000000000000000000000100010 0
b00000000000000000000000001011001 1
b00000000000000000000000010010000 4
b000101 5
18
b00000000000000000000000001011001 ;
b101 <
1?
b00000000000000000000000000100010 @
b100 A
1B
b00000000000000000000000010010000 F
b00000000000000000000000001011001 G
b00000000000000000000000010010000 H
1K
b000101 Q
b000101 S
1W
b00000000000000000000000010010000 Z
b00000000000000000000000001011001 [
#160000000
0"
0(
08
0?
0B
0K
0W
#165000000
1"
b00000000000000000000000000110111 %
1(
b00000000000000000000000000110111 +
b00000000000000000000000000110111 0
b00000000000000000000000010010000 1
b00000000000000000000000011101001 4
b000110 5
18
b00000000000000000000000010010000 ;
b110 <
1?
b00000000000000000000000000110111 @
b101 A
1B
b00000000000000000000000011101001 F
b00000000000000000000000010010000 G
b00000000000000000000000011101001 H
1K
b000110 Q
b000110 S
1W
b00000000000000000000000011101001 Z
b00000000000000000000000010010000 [
#170000000
0"
0(
08
0?
0B
0K
0W
#175000000
1"
b00000000000000000000000001011001 %
1(
b00000000000000000000000001011001 +
b00000000000000000000000001011001 0
b00000000000000000000000011101001 1
b00000000000000000000000101111001 4
b000111 5
18
b00000000000000000000000011101001 ;
b111 <
1?
b00000000000000000000000001011001 @
b110 A
1B
b00000000000000000000000101111001 F
b00000000000000000000000011101001 G
b00000000000000000000000101111001 H
1K
b000111 Q
b000111 S
1W
b00000000000000000000000101111001 Z
b00000000000000000000000011101001 [
#180000000
0"
0(
08
0?
0B
0K
0W
#185000000
1"
b00000000000000000000000010010000 %
1(
b00000000000000000000000010010000 +
b00000000000000000000000010010000 0
b00000000000000000000000101111001 1
b00000000000000000000001001100010 4
b001000 5
18
b00000000000000000000000101111001 ;
b000 <
1?
b00000000000000000000000010010000 @
b111 A
1B
b00000000000000000000001001100010 F
b00000000000000000000000101111001 G
b00000000000000000000001001100010 H
1K
b001000 Q
b001000 S
1W
b00000000000000000000001001100010 Z
b00000000000000000000000101111001 [
#190000000
0"
0(
08
0?
0B
0K
0W
#195000000
1"
b00000000000000000000000011101001 %
1(
b00000000000000000000000011101001 +
b00000000000000000000000011101001 0
b00000000000000000000001001100010 1
b00000000000000000000001111011011 4
b001001 5
18
b00000000000000000000001001100010 ;
b001 <
1?
b00000000000000000000000011101001 @
b000 A
1B
b00000000000000000000001111011011 F
b00000000000000000000001001100010 G
b00000000000000000000001111011011 H
1K
b001001 Q
b001001 S
1W
b00000000000000000000001111011011 Z
b00000000000000000000001001100010 [
#200000000
0"
0(
08
0?
0B
0K
0W
#205000000
1"
b00000000000000000000000101111001 %
1(
b00000000000000000000000101111001 +
b00000000000000000000000101111001 0
b00000000000000000000001111011011 1
b00000000000000000000011000111101 4
b001010 5
18
b00000000000000000000001111011011 ;
b010 <
1?
b00000000000000000000000101111001 @
b001 A
1B
b00000000000000000000011000111101 F
b00000000000000000000001111011011 G
b00000000000000000000011000111101 H
1K
b001010 Q
b001010 S
1W
b00000000000000000000011000111101 Z
b00000000000000000000001111011011 [
#210000000
0"
0(
08
0?
0B
0K
0W
#215000000
1"
b00000000000000000000001001100010 %
1(
b00000000000000000000001001100010 +
b00000000000000000000001001100010 0
b00000000000000000000011000111101 1
b00000000000000000000101000011000 4
b001011 5
18
b00000000000000000000011000111101 ;
b011 <
1?
b00000000000000000000001001100010 @
b010 A
1B
b00000000000000000000101000011000 F
b00000000000000000000011000111101 G
b00000000000000000000101000011000 H
1K
b001011 Q
b001011 S
1W
b00000000000000000000101000011000 Z
b00000000000000000000011000111101 [
#220000000
0"
0(
08
0?
0B
0K
0W
#225000000
1"
b00000000000000000000001111011011 %
1(
b00000000000000000000001111011011 +
b00000000000000000000001111011011 0
b00000000000000000000101000011000 1
b00000000000000000001000001010101 4
b001100 5
18
b00000000000000000000101000011000 ;
b100 <
1?
b00000000000000000000001111011011 @
b011 A
1B
b00000000000000000001000001010101 F
b00000000000000000000101000011000 G
b00000000000000000001000001010101 H
1K
b001100 Q
b001100 S
1W
b00000000000000000001000001010101 Z
b00000000000000000000101000011000 [
#230000000
0"
0(
08
0?
0B
0K
0W
#235000000
1"
b00000000000000000000011000111101 %
1(
b00000000000000000000011000111101 +
b00000000000000000000011000111101 0
b00000000000000000001000001010101 1
b00000000000000000001101001101101 4
b001101 5
18
b00000000000000000001000001010101 ;
b101 <
1?
b00000000000000000000011000111101 @
b100 A
1B
b00000000000000000001101001101101 F
b00000000000000000001000001010101 G
b00000000000000000001101001101101 H
1K
b001101 Q
b001101 S
1W
b00000000000000000001101001101101 Z
b00000000000000000001000001010101 [
#240000000
0"
0(
08
0?
0B
0K
0W
#245000000
1"
b00000000000000000000101000011000 %
1(
b00000000000000000000101000011000 +
b00000000000000000000101000011000 0
b00000000000000000001101001101101 1
b00000000000000000010101011000010 4
b001110 5
18
b00000000000000000001101001101101 ;
b110 <
1?
b00000000000000000000101000011000 @
b101 A
1B
b00000000000000000010101011000010 F
b00000000000000000001101001101101 G
b00000000000000000010101011000010 H
1K
b001110 Q
b001110 S
1W
b00000000000000000010101011000010 Z
b00000000000000000001101001101101 [
#250000000
0"
0(
08
0?
0B
0K
0W
#255000000
1"
b00000000000000000001000001010101 %
1(
b00000000000000000001000001010101 +
b00000000000000000001000001010101 0
b00000000000000000010101011000010 1
b00000000000000000100010100101111 4
b001111 5
18
b00000000000000000010101011000010 ;
b111 <
1?
b00000000000000000001000001010101 @
b110 A
1B
b00000000000000000100010100101111 F
b00000000000000000010101011000010 G
b00000000000000000100010100101111 H
1K
b001111 Q
b001111 S
1W
b00000000000000000100010100101111 Z
b00000000000000000010101011000010 [
#260000000
0"
0(
08
0?
0B
0K
0W
#265000000
1"
b00000000000000000001101001101101 %
1(
b00000000000000000001101001101101 +
b00000000000000000001101001101101 0
b00000000000000000100010100101111 1
b00000000000000000110111111110001 4
b010000 5
18
b00000000000000000100010100101111 ;
b000 <
1?
b00000000000000000001101001101101 @
b111 A
1B
b00000000000000000110111111110001 F
b00000000000000000100010100101111 G
b00000000000000000110111111110001 H
1K
b010000 Q
b010000 S
1W
b00000000000000000110111111110001 Z
b00000000000000000100010100101111 [
#270000000
0"
0(
08
0?
0B
0K
0W
#275000000
1"
b00000000000000000010101011000010 %
1(
b00000000000000000010101011000010 +
b00000000000000000010101011000010 0
b00000000000000000110111111110001 1
b00000000000000001011010100100000 4
b010001 5
18
b00000000000000000110111111110001 ;
b001 <
1?
b00000000000000000010101011000010 @
b000 A
1B
b00000000000000001011010100100000 F
b00000000000000000110111111110001 G
b00000000000000001011010100100000 H
1K
b010001 Q
b010001 S
1W
b00000000000000001011010100100000 Z
b00000000000000000110111111110001 [
#280000000
0"
0(
08
0?
0B
0K
0W
#285000000
1"
b00000000000000000100010100101111 %
1(
b00000000000000000100010100101111 +
b00000000000000000100010100101111 0
b00000000000000001011010100100000 1
b00000000000000010010010100010001 4
b010010 5
18
b00000000000000001011010100100000 ;
b010 <
1?
b00000000000000000100010100101111 @
b001 A
1B
b00000000000000010010010100010001 F
b00000000000000001011010100100000 G
b00000000000000010010010100010001 H
1K
b010010 Q
b010010 S
1W
b00000000000000010010010100010001 Z
b00000000000000001011010100100000 [
#290000000
0"
0(
08
0?
0B
0K
0W
#295000000
1"
b00000000000000000110111111110001 %
1(
b00000000000000000110111111110001 +
b00000000000000000110111111110001 0
b00000000000000010010010100010001 1
b00000000000000011101101000110001 4
b010011 5
18
b00000000000000010010010100010001 ;
b011 <
1?
b00000000000000000110111111110001 @
b010 A
1B
b00000000000000011101101000110001 F
b00000000000000010010010100010001 G
b00000000000000011101101000110001 H
1K
b010011 Q
b010011 S
1W
b00000000000000011101101000110001 Z
b00000000000000010010010100010001 [
#300000000
0"
0(
08
0?
0B
0K
0W
#305000000
1"
b00000000000000001011010100100000 %
1(
b00000000000000001011010100100000 +
b00000000000000001011010100100000 0
b00000000000000011101101000110001 1
b00000000000000101111111101000010 4
b010100 5
18
b00000000000000011101101000110001 ;
b100 <
1?
b00000000000000001011010100100000 @
b011 A
1B
b00000000000000101111111101000010 F
b00000000000000011101101000110001 G
b00000000000000101111111101000010 H
1K
b010100 Q
b010100 S
1W
b00000000000000101111111101000010 Z
b00000000000000011101101000110001 [
#310000000
0"
0(
08
0?
0B
0K
0W
#315000000
1"
b00000000000000010010010100010001 %
1(
b00000000000000010010010100010001 +
b00000000000000010010010100010001 0
b00000000000000101111111101000010 1
b00000000000001001101100101110011 4
b010101 5
18
b00000000000000101111111101000010 ;
b101 <
1?
b00000000000000010010010100010001 @
b100 A
1B
b00000000000001001101100101110011 F
b00000000000000101111111101000010 G
b00000000000001001101100101110011 H
1K
b010101 Q
b010101 S
1W
b00000000000001001101100101110011 Z
b00000000000000101111111101000010 [
#320000000
0"
0(
08
0?
0B
0K
0W
#325000000
1"
b00000000000000011101101000110001 %
1(
b00000000000000011101101000110001 +
b00000000000000011101101000110001 0
b00000000000001001101100101110011 1
b00000000000001111101100010110101 4
b010110 5
18
b00000000000001001101100101110011 ;
b110 <
1?
b00000000000000011101101000110001 @
b101 A
1B
b00000000000001111101100010110101 F
b00000000000001001101100101110011 G
b00000000000001111101100010110101 H
1K
b010110 Q
b010110 S
1W
b00000000000001111101100010110101 Z
b00000000000001001101100101110011 [
#330000000
0"
0(
08
0?
0B
0K
0W
#335000000
1"
b00000000000000101111111101000010 %
1(
b00000000000000101111111101000010 +
b00000000000000101111111101000010 0
b00000000000001111101100010110101 1
b00000000000011001011001000101000 4
b010111 5
18
b00000000000001111101100010110101 ;
b111 <
1?
b00000000000000101111111101000010 @
b110 A
1B
b00000000000011001011001000101000 F
b00000000000001111101100010110101 G
b00000000000011001011001000101000 H
1K
b010111 Q
b010111 S
1W
b00000000000011001011001000101000 Z
b00000000000001111101100010110101 [
#340000000
0"
0(
08
0?
0B
0K
0W
#345000000
1"
b00000000000001001101100101110011 %
1(
b00000000000001001101100101110011 +
b00000000000001001101100101110011 0
b00000000000011001011001000101000 1
b00000000000101001000101011011101 4
b011000 5
18
b00000000000011001011001000101000 ;
b000 <
1?
b00000000000001001101100101110011 @
b111 A
1B
b00000000000101001000101011011101 F
b00000000000011001011001000101000 G
b00000000000101001000101011011101 H
1K
b011000 Q
b011000 S
1W
b00000000000101001000101011011101 Z
b00000000000011001011001000101000 [
#350000000
0"
0(
08
0?
0B
0K
0W
#355000000
1"
b00000000000001111101100010110101 %
1(
b00000000000001111101100010110101 +
b00000000000001111101100010110101 0
b00000000000101001000101011011101 1
b00000000001000010011110100000101 4
b011001 5
18
b00000000000101001000101011011101 ;
b001 <
1?
b00000000000001111101100010110101 @
b000 A
1B
b00000000001000010011110100000101 F
b00000000000101001000101011011101 G
b00000000001000010011110100000101 H
1K
b011001 Q
b011001 S
1W
b00000000001000010011110100000101 Z
b00000000000101001000101011011101 [
#360000000
0"
0(
08
0?
0B
0K
0W
#365000000
1"
b00000000000011001011001000101000 %
1(
b00000000000011001011001000101000 +
b00000000000011001011001000101000 0
b00000000001000010011110100000101 1
b00000000001101011100011111100010 4
b011010 5
18
b00000000001000010011110100000101 ;
b010 <
1?
b00000000000011001011001000101000 @
b001 A
1B
b00000000001101011100011111100010 F
b00000000001000010011110100000101 G
b00000000001101011100011111100010 H
1K
b011010 Q
b011010 S
1W
b00000000001101011100011111100010 Z
b00000000001000010011110100000101 [
#370000000
0"
0(
08
0?
0B
0K
0W
#375000000
1"
b00000000000101001000101011011101 %
1(
b00000000000101001000101011011101 +
b00000000000101001000101011011101 0
b00000000001101011100011111100010 1
b00000000010101110000010011100111 4
b011011 5
18
b00000000001101011100011111100010 ;
b011 <
1?
b00000000000101001000101011011101 @
b010 A
1B
b00000000010101110000010011100111 F
b00000000001101011100011111100010 G
b00000000010101110000010011100111 H
1K
b011011 Q
b011011 S
1W
b00000000010101110000010011100111 Z
b00000000001101011100011111100010 [
#380000000
0"
0(
08
0?
0B
0K
0W
#385000000
1"
b00000000001000010011110100000101 %
1(
b00000000001000010011110100000101 +
b00000000001000010011110100000101 0
b00000000010101110000010011100111 1
b00000000100011001100110011001001 4
b011100 5
18
b00000000010101110000010011100111 ;
b100 <
1?
b00000000001000010011110100000101 @
b011 A
1B
b00000000100011001100110011001001 F
b00000000010101110000010011100111 G
b00000000100011001100110011001001 H
1K
b011100 Q
b011100 S
1W
b00000000100011001100110011001001 Z
b00000000010101110000010011100111 [
#390000000
0"
0(
08
0?
0B
0K
0W
#395000000
1"
b00000000001101011100011111100010 %
1(
b00000000001101011100011111100010 +
b00000000001101011100011111100010 0
b00000000100011001100110011001001 1
b00000000111000111101000110110000 4
b011101 5
18
b00000000100011001100110011001001 ;
b101 <
1?
b00000000001101011100011111100010 @
b100 A
1B
b00000000111000111101000110110000 F
b00000000100011001100110011001001 G
b00000000111000111101000110110000 H
1K
b011101 Q
b011101 S
1W
b00000000111000111101000110110000 Z
b00000000100011001100110011001001 [
#400000000
0"
0(
08
0?
0B
0K
0W
#405000000
1"
b00000000010101110000010011100111 %
1(
b00000000010101110000010011100111 +
b00000000010101110000010011100111 0
b00000000111000111101000110110000 1
b00000001011100001001111001111001 4
b011110 5
18
b00000000111000111101000110110000 ;
b110 <
1?
b00000000010101110000010011100111 @
b101 A
1B
b00000001011100001001111001111001 F
b00000000111000111101000110110000 G
b00000001011100001001111001111001 H
1K
b011110 Q
b011110 S
1W
b00000001011100001001111001111001 Z
b00000000111000111101000110110000 [
#410000000
0"
0(
08
0?
0B
0K
0W
#415000000
1"
b00000000100011001100110011001001 %
1(
b00000000100011001100110011001001 +
b00000000100011001100110011001001 0
b00000001011100001001111001111001 1
b00000010010101000111000000101001 4
b011111 5
18
b00000001011100001001111001111001 ;
b111 <
1?
b00000000100011001100110011001001 @
b110 A
1B
b00000010010101000111000000101001 F
b00000001011100001001111001111001 G
b00000010010101000111000000101001 H
1K
b011111 Q
b011111 S
1W
b00000010010101000111000000101001 Z
b00000001011100001001111001111001 [
#420000000
0"
0(
08
0?
0B
0K
0W
#425000000
1"
b00000000111000111101000110110000 %
1(
b00000000111000111101000110110000 +
1.
b00000000111000111101000110110000 0
b00000010010101000111000000101001 1
b00000011110001010000111010100010 4
b100000 5
b1 7
18
b00000010010101000111000000101001 ;
b000 <
1?
b00000000111000111101000110110000 @
b111 A
1B
b00000011110001010000111010100010 F
b00000010010101000111000000101001 G
b00000011110001010000111010100010 H
1K
0O
1P
b100000 Q
b100000 S
0V
1W
b00000011110001010000111010100010 Z
b00000010010101000111000000101001 [
#430000000
0"
0(
08
0?
0B
0K
0W
#435000000
1"
b00000001011100001001111001111001 %
1(
b00000001011100001001111001111001 +
b00000001011100001001111001111001 0
b00000011110001010000111010100010 1
b00000110000110010111111011001011 4
18
b00000011110001010000111010100010 ;
1?
b00000001011100001001111001111001 @
b000 A
1B
b00000110000110010111111011001011 F
b00000011110001010000111010100010 G
b00000110000110010111111011001011 H
1K
1W
b00000110000110010111111011001011 Z
b00000011110001010000111010100010 [
#440000000
0"
0(
08
0?
0B
0K
0W
#445000000
1"
1#
b00000010010101000111000000101001 %
1(
1)
b00000010010101000111000000101001 +
b1 /
b00000010010101000111000000101001 0
b00000110000110010111111011001011 1
b00001001110111101000110101101101 4
18
b1 :
b00000110000110010111111011001011 ;
1?
b00000010010101000111000000101001 @
1B
b00001001110111101000110101101101 F
b00000110000110010111111011001011 G
b00001001110111101000110101101101 H
1K
1W
b00001001110111101000110101101101 Z
b00000110000110010111111011001011 [
#450000000
0"
0(
08
0?
0B
0K
0W
#455000000
1"
b00000011110001010000111010100010 %
1(
b00000011110001010000111010100010 +
b00000011110001010000111010100010 0
b00001001110111101000110101101101 1
b00001111111110000000110000111000 4
18
b00001001110111101000110101101101 ;
1?
b00000011110001010000111010100010 @
1B
b00001111111110000000110000111000 F
b00001001110111101000110101101101 G
b00001111111110000000110000111000 H
1K
1W
b00001111111110000000110000111000 Z
b00001001110111101000110101101101 [
#460000000
0"
0(
08
0?
0B
0K
0W
#465000000
1"
b00000110000110010111111011001011 %
1(
b00000110000110010111111011001011 +
b00000110000110010111111011001011 0
b00001111111110000000110000111000 1
b00011001110101101001100110100101 4
18
b00001111111110000000110000111000 ;
1?
b00000110000110010111111011001011 @
1B
b00011001110101101001100110100101 F
b00001111111110000000110000111000 G
b00011001110101101001100110100101 H
1K
1W
b00011001110101101001100110100101 Z
b00001111111110000000110000111000 [
#470000000
0"
0(
08
0?
0B
0K
0W
#475000000
1"
b00001001110111101000110101101101 %
1(
b00001001110111101000110101101101 +
b00001001110111101000110101101101 0
b00011001110101101001100110100101 1
b00101001110011101010010111011101 4
18
b00011001110101101001100110100101 ;
1?
b00001001110111101000110101101101 @
1B
b00101001110011101010010111011101 F
b00011001110101101001100110100101 G
b00101001110011101010010111011101 H
1K
1W
b00101001110011101010010111011101 Z
b00011001110101101001100110100101 [
#480000000
0"
0(
08
0?
0B
0K
0W
#485000000
1"
b00001111111110000000110000111000 %
1(
b00001111111110000000110000111000 +
b00001111111110000000110000111000 0
b00101001110011101010010111011101 1
b01000011101001010011111110000010 4
18
b00101001110011101010010111011101 ;
1?
b00001111111110000000110000111000 @
1B
b01000011101001010011111110000010 F
b00101001110011101010010111011101 G
b01000011101001010011111110000010 H
1K
1W
b01000011101001010011111110000010 Z
b00101001110011101010010111011101 [
#490000000
0"
0(
08
0?
0B
0K
0W
#495000000
1"
b00011001110101101001100110100101 %
1(
b00011001110101101001100110100101 +
b00011001110101101001100110100101 0
b01000011101001010011111110000010 1
b01101101011100111110010101011111 4
18
b01000011101001010011111110000010 ;
1?
b00011001110101101001100110100101 @
1B
b01101101011100111110010101011111 F
b01000011101001010011111110000010 G
b01101101011100111110010101011111 H
1K
1W
b01101101011100111110010101011111 Z
b01000011101001010011111110000010 [
#500000000
0"
0(
08
0?
0B
0K
0W
#505000000
1"
b00101001110011101010010111011101 %
1(
b00101001110011101010010111011101 +
b00101001110011101010010111011101 0
b01101101011100111110010101011111 1
b10110001000110010010010011100001 4
18
b01101101011100111110010101011111 ;
1?
b00101001110011101010010111011101 @
1B
b10110001000110010010010011100001 F
b01101101011100111110010101011111 G
b10110001000110010010010011100001 H
1K
1W
b10110001000110010010010011100001 Z
b01101101011100111110010101011111 [
#510000000
0"
0(
08
0?
0B
0K
0W
#515000000
1"
b01000011101001010011111110000010 %
1(
b01000011101001010011111110000010 +
b01000011101001010011111110000010 0
b10110001000110010010010011100001 1
b00011110100011010000101001000000 4
18
b10110001000110010010010011100001 ;
1?
b01000011101001010011111110000010 @
1B
b00011110100011010000101001000000 F
b10110001000110010010010011100001 G
b00011110100011010000101001000000 H
1K
1W
b00011110100011010000101001000000 Z
b10110001000110010010010011100001 [
#520000000
0"
0(
08
0?
0B
0K
0W
#525000000
1"
b01101101011100111110010101011111 %
1(
b01101101011100111110010101011111 +
b01101101011100111110010101011111 0
b00011110100011010000101001000000 1
b11001111101001100010111100100001 4
18
b00011110100011010000101001000000 ;
1?
b01101101011100111110010101011111 @
1B
b11001111101001100010111100100001 F
b00011110100011010000101001000000 G
b11001111101001100010111100100001 H
1K
1W
b11001111101001100010111100100001 Z
b00011110100011010000101001000000 [
#530000000
0"
0(
08
0?
0B
0K
0W
#535000000
1"
b10110001000110010010010011100001 %
1(
b10110001000110010010010011100001 +
b10110001000110010010010011100001 0
b11001111101001100010111100100001 1
b11101110001100110011100101100001 4
18
b11001111101001100010111100100001 ;
1?
b10110001000110010010010011100001 @
1B
b11101110001100110011100101100001 F
b11001111101001100010111100100001 G
b11101110001100110011100101100001 H
1K
1W
b11101110001100110011100101100001 Z
b11001111101001100010111100100001 [
#540000000
0"
0(
08
0?
0B
0K
0W
#545000000
1"
b00011110100011010000101001000000 %
1(
b00011110100011010000101001000000 +
b00011110100011010000101001000000 0
b11101110001100110011100101100001 1
b10111101110110010110100010000010 4
18
b11101110001100110011100101100001 ;
1?
b00011110100011010000101001000000 @
1B
b10111101110110010110100010000010 F
b11101110001100110011100101100001 G
b10111101110110010110100010000010 H
1K
1W
b10111101110110010110100010000010 Z
b11101110001100110011100101100001 [
#550000000
0"
0(
08
0?
0B
0K
0W
#555000000
1"
b11001111101001100010111100100001 %
1(
b11001111101001100010111100100001 +
b11001111101001100010111100100001 0
b10111101110110010110100010000010 1
b10101100000011001010000111100011 4
18
b10111101110110010110100010000010 ;
1?
b11001111101001100010111100100001 @
1B
b10101100000011001010000111100011 F
b10111101110110010110100010000010 G
b10101100000011001010000111100011 H
1K
1W
b10101100000011001010000111100011 Z
b10111101110110010110100010000010 [
#560000000
0"
0(
08
0?
0B
0K
0W
#565000000
1"
b11101110001100110011100101100001 %
1(
b11101110001100110011100101100001 +
b11101110001100110011100101100001 0
b10101100000011001010000111100011 1
b01101001111001100000101001100101 4
18
b10101100000011001010000111100011 ;
1?
b11101110001100110011100101100001 @
1B
b01101001111001100000101001100101 F
b10101100000011001010000111100011 G
b01101001111001100000101001100101 H
1K
1W
b01101001111001100000101001100101 Z
b10101100000011001010000111100011 [
#570000000
0"
0(
08
0?
0B
0K
0W
#575000000
1"
b10111101110110010110100010000010 %
1(
b10111101110110010110100010000010 +
b10111101110110010110100010000010 0
b01101001111001100000101001100101 1
b00010101111100101010110001001000 4
18
b01101001111001100000101001100101 ;
1?
b10111101110110010110100010000010 @
1B
b00010101111100101010110001001000 F
b01101001111001100000101001100101 G
b00010101111100101010110001001000 H
1K
1W
b00010101111100101010110001001000 Z
b01101001111001100000101001100101 [
#580000000
0"
0(
08
0?
0B
0K
0W
