trunk/src/br/ufscar/dc/lalp/examples/fir/gnu/t_fir.vcd
$date
  Mon May 13 15:26:44 2013
$end
$version
  GHDL v0
$end
$timescale
  1 fs
$end
$var reg 32 ! \a\[31:0] $end
$var reg 32 " \b\[31:0] $end
$var reg 32 # \c\[31:0] $end
$var reg 1 $ \clear\ $end
$var reg 1 % \clk\ $end
$var reg 32 & \d\[31:0] $end
$var reg 32 ' \e\[31:0] $end
$var reg 1 ( \init\ $end
$var reg 1 ) \reset\ $end
$var reg 32 * \result\[31:0] $end
$scope module uut $end
$var reg 32 + \a\[31:0] $end
$var reg 32 , \b\[31:0] $end
$var reg 32 - \c\[31:0] $end
$var reg 1 . \clear\ $end
$var reg 1 / \clk\ $end
$var reg 32 0 \d\[31:0] $end
$var reg 32 1 \e\[31:0] $end
$var reg 1 2 \init\ $end
$var reg 1 3 \reset\ $end
$var reg 32 4 \result\[31:0] $end
$var reg 32 5 s0[31:0] $end
$var reg 32 6 s22[31:0] $end
$var reg 32 7 s26[31:0] $end
$var reg 32 8 s11[31:0] $end
$var reg 32 9 s15[31:0] $end
$var reg 1 : s25[0:0] $end
$var reg 32 ; s19[31:0] $end
$var reg 32 < s21[31:0] $end
$var reg 1 = s23 $end
$var reg 32 > s9[31:0] $end
$var reg 32 ? s7[31:0] $end
$var reg 32 @ s5[31:0] $end
$var reg 32 A s3[31:0] $end
$var reg 32 B s1[31:0] $end
$var reg 32 C s13[31:0] $end
$var reg 32 D s17[31:0] $end
$var reg 32 E s20[31:0] $end
$var reg 32 F s24[31:0] $end
$var reg 32 G s14[31:0] $end
$var reg 32 H s10[31:0] $end
$var reg 32 I s16[31:0] $end
$var reg 32 J s12[31:0] $end
$var reg 32 K s18[31:0] $end
$var reg 32 L s8[31:0] $end
$var reg 32 M s6[31:0] $end
$var reg 32 N s4[31:0] $end
$var reg 32 O s2[31:0] $end
$scope module \init_delay_op_1\ $end
$var reg 1 P a[0:0] $end
$var reg 1 Q clk $end
$var reg 1 R reset $end
$var reg 1 S a_delayed[0:0] $end
$comment int is not handled $end
$upscope $end
$scope module \a_mult_op_s_3\ $end
$var reg 32 T i0[31:0] $end
$var reg 32 U i1[31:0] $end
$var reg 32 V o0[31:0] $end
$upscope $end
$scope module \e_mult_op_s_11\ $end
$var reg 32 W i0[31:0] $end
$var reg 32 X i1[31:0] $end
$var reg 32 Y o0[31:0] $end
$upscope $end
$scope module \d1_add_op_s_e1\ $end
$var reg 32 Z i0[31:0] $end
$var reg 32 [ i1[31:0] $end
$var reg 32 \ o0[31:0] $end
$upscope $end
$scope module \d1\ $end
$var reg 1 ] clk $end
$var reg 1 ^ reset $end
$var reg 1 _ we $end
$var reg 32 ` i0[31:0] $end
$var reg 32 a o0[31:0] $end
$upscope $end
$scope module \c_mult_op_s_7\ $end
$var reg 32 b i0[31:0] $end
$var reg 32 c i1[31:0] $end
$var reg 32 d o0[31:0] $end
$upscope $end
$scope module \b_mult_op_s_5\ $end
$var reg 32 e i0[31:0] $end
$var reg 32 f i1[31:0] $end
$var reg 32 g o0[31:0] $end
$upscope $end
$scope module \a1_add_op_s_b1_add_op_s_c1\ $end
$var reg 32 h i0[31:0] $end
$var reg 32 i i1[31:0] $end
$var reg 32 j o0[31:0] $end
$upscope $end
$scope module \d_mult_op_s_9\ $end
$var reg 32 k i0[31:0] $end
$var reg 32 l i1[31:0] $end
$var reg 32 m o0[31:0] $end
$upscope $end
$scope module \c1\ $end
$var reg 1 n clk $end
$var reg 1 o reset $end
$var reg 1 p we $end
$var reg 32 q i0[31:0] $end
$var reg 32 r o0[31:0] $end
$upscope $end
$scope module \a1_add_op_s_b1_add_op_s_c1_add_op_s_d1_add_op_s_e1\ $end
$var reg 32 s i0[31:0] $end
$var reg 32 t i1[31:0] $end
$var reg 32 u o0[31:0] $end
$upscope $end
$scope module \e1\ $end
$var reg 1 v clk $end
$var reg 1 w reset $end
$var reg 1 x we $end
$var reg 32 y i0[31:0] $end
$var reg 32 z o0[31:0] $end
$upscope $end
$scope module \a1_add_op_s_b1\ $end
$var reg 32 { i0[31:0] $end
$var reg 32 | i1[31:0] $end
$var reg 32 } o0[31:0] $end
$upscope $end
$scope module \a1\ $end
$var reg 1 !" clk $end
$var reg 1 "" reset $end
$var reg 1 #" we $end
$var reg 32 $" i0[31:0] $end
$var reg 32 %" o0[31:0] $end
$upscope $end
$scope module \sum\ $end
$var reg 1 &" clk $end
$var reg 1 '" reset $end
$var reg 1 (" we $end
$var reg 32 )" i0[31:0] $end
$var reg 32 *" o0[31:0] $end
$upscope $end
$scope module \b1\ $end
$var reg 1 +" clk $end
$var reg 1 ," reset $end
$var reg 1 -" we $end
$var reg 32 ." i0[31:0] $end
$var reg 32 /" o0[31:0] $end
$upscope $end
$upscope $end
$enddefinitions $end
#0
b00000000000000000000000000000000 !
b00000000000000000000000000000000 "
b00000000000000000000000000000000 #
0$
0%
b00000000000000000000000000000000 &
b00000000000000000000000000000000 '
0(
1)
b00000000000000000000000000000000 *
b00000000000000000000000000000000 +
b00000000000000000000000000000000 ,
b00000000000000000000000000000000 -
0.
0/
b00000000000000000000000000000000 0
b00000000000000000000000000000000 1
02
13
b00000000000000000000000000000000 4
b00000000000000000000000000000000 5
b00000000000000000000000000000000 6
b00000000000000000000000000000000 7
b00000000000000000000000000000000 8
b00000000000000000000000000000000 9
b0 :
b00000000000000000000000000000000 ;
b00000000000000000000000000000000 <
0=
b00000000000000000000000000000000 >
b00000000000000000000000000000111 ?
b00000000000000000000000000000000 @
b00000000000000000000000000000000 A
b00000000000000000000000000000011 B
b00000000000000000000000000001011 C
b00000000000000000000000000000000 D
b00000000000000000000000000000000 E
b00000000000000000000000000000000 F
b00000000000000000000000000000000 G
b00000000000000000000000000001001 H
b00000000000000000000000000000000 I
b00000000000000000000000000000000 J
b00000000000000000000000000000000 K
b00000000000000000000000000000000 L
b00000000000000000000000000000000 M
b00000000000000000000000000000101 N
b00000000000000000000000000000000 O
b0 P
0Q
1R
b0 S
b00000000000000000000000000000000 T
b00000000000000000000000000000011 U
b00000000000000000000000000000000 V
b00000000000000000000000000000000 W
b00000000000000000000000000001011 X
b00000000000000000000000000000000 Y
b00000000000000000000000000000000 Z
b00000000000000000000000000000000 [
b00000000000000000000000000000000 \
0]
1^
1_
b00000000000000000000000000000000 `
b00000000000000000000000000000000 a
b00000000000000000000000000000000 b
b00000000000000000000000000000111 c
b00000000000000000000000000000000 d
b00000000000000000000000000000000 e
b00000000000000000000000000000101 f
b00000000000000000000000000000000 g
b00000000000000000000000000000000 h
b00000000000000000000000000000000 i
b00000000000000000000000000000000 j
b00000000000000000000000000000000 k
b00000000000000000000000000001001 l
b00000000000000000000000000000000 m
0n
1o
1p
b00000000000000000000000000000000 q
b00000000000000000000000000000000 r
b00000000000000000000000000000000 s
b00000000000000000000000000000000 t
b00000000000000000000000000000000 u
0v
1w
1x
b00000000000000000000000000000000 y
b00000000000000000000000000000000 z
b00000000000000000000000000000000 {
b00000000000000000000000000000000 |
b00000000000000000000000000000000 }
0!"
1""
1#"
b00000000000000000000000000000000 $"
b00000000000000000000000000000000 %"
0&"
1'"
0("
b00000000000000000000000000000000 )"
b00000000000000000000000000000000 *"
0+"
1,"
1-"
b00000000000000000000000000000000 ."
b00000000000000000000000000000000 /"
#5000000
1%
1/
1Q
1]
1n
1v
1!"
1&"
1+"
#10000000
0%
0/
0Q
0]
0n
0v
0!"
0&"
0+"
#15000000
1%
1/
1Q
1]
1n
1v
1!"
1&"
1+"
#20000000
0%
0/
0Q
0]
0n
0v
0!"
0&"
0+"
#25000000
1%
1/
1Q
1]
1n
1v
1!"
1&"
1+"
#30000000
0%
0/
0Q
0]
0n
0v
0!"
0&"
0+"
#35000000
1%
1/
1Q
1]
1n
1v
1!"
1&"
1+"
#40000000
0%
0/
0Q
0]
0n
0v
0!"
0&"
0+"
#45000000
1%
1/
1Q
1]
1n
1v
1!"
1&"
1+"
#50000000
0%
0)
0/
03
0Q
0R
0]
0^
0n
0o
0v
0w
0!"
0""
0&"
0'"
0+"
0,"
#55000000
1%
1/
1Q
1]
1n
1v
1!"
1&"
1+"
#60000000
0%
0/
0Q
0]
0n
0v
0!"
0&"
0+"
#65000000
1%
1/
1Q
1]
1n
1v
1!"
1&"
1+"
#70000000
0%
0/
0Q
0]
0n
0v
0!"
0&"
0+"
#75000000
1%
1/
1Q
1]
1n
1v
1!"
1&"
1+"
#80000000
0%
0/
0Q
0]
0n
0v
0!"
0&"
0+"
#85000000
1%
1/
1Q
1]
1n
1v
1!"
1&"
1+"
#90000000
0%
0/
0Q
0]
0n
0v
0!"
0&"
0+"
#95000000
1%
1/
1Q
1]
1n
1v
1!"
1&"
1+"
#100000000
0%
1(
0/
12
1=
b1 P
0Q
0]
0n
0v
0!"
0&"
0+"
#105000000
1%
1/
b1 :
1Q
b1 S
1]
1n
1v
1!"
1&"
1("
1+"
#110000000
b00000000000000000000000000000001 !
b00000000000000000000000000000001 "
b00000000000000000000000000000001 #
0%
b00000000000000000000000000000001 &
b00000000000000000000000000000001 '
b00000000000000000000000000000001 +
b00000000000000000000000000000001 ,
b00000000000000000000000000000001 -
0/
b00000000000000000000000000000001 0
b00000000000000000000000000000001 1
b00000000000000000000000000000001 5
b00000000000000000000000000001001 8
b00000000000000000000000000000001 >
b00000000000000000000000000000101 @
b00000000000000000000000000000001 A
b00000000000000000000000000001011 G
b00000000000000000000000000000001 J
b00000000000000000000000000000111 L
b00000000000000000000000000000001 M
b00000000000000000000000000000011 O
0Q
b00000000000000000000000000000001 T
b00000000000000000000000000000011 V
b00000000000000000000000000000001 W
b00000000000000000000000000001011 Y
0]
b00000000000000000000000000001001 `
b00000000000000000000000000000001 b
b00000000000000000000000000000111 d
b00000000000000000000000000000001 e
b00000000000000000000000000000101 g
b00000000000000000000000000000001 k
b00000000000000000000000000001001 m
0n
b00000000000000000000000000000111 q
0v
b00000000000000000000000000001011 y
0!"
b00000000000000000000000000000011 $"
0&"
0+"
b00000000000000000000000000000101 ."
#115000000
1%
1/
b00000000000000000000000000010100 6
b00000000000000000000000000000011 9
b00000000000000000000000000001001 ;
b00000000000000000000000000001111 <
b00000000000000000000000000001000 D
b00000000000000000000000000001011 E
b00000000000000000000000000100011 F
b00000000000000000000000000000101 I
b00000000000000000000000000000111 K
1Q
b00000000000000000000000000001001 Z
b00000000000000000000000000001011 [
b00000000000000000000000000010100 \
1]
b00000000000000000000000000001001 a
b00000000000000000000000000001000 h
b00000000000000000000000000000111 i
b00000000000000000000000000001111 j
1n
b00000000000000000000000000000111 r
b00000000000000000000000000001111 s
b00000000000000000000000000010100 t
b00000000000000000000000000100011 u
1v
b00000000000000000000000000001011 z
b00000000000000000000000000000011 {
b00000000000000000000000000000101 |
b00000000000000000000000000001000 }
1!"
b00000000000000000000000000000011 %"
1&"
b00000000000000000000000000100011 )"
1+"
b00000000000000000000000000000101 /"
#120000000
b00000000000000000000000000000010 !
b00000000000000000000000000000010 "
b00000000000000000000000000000010 #
0%
b00000000000000000000000000000010 &
b00000000000000000000000000000010 '
b00000000000000000000000000000010 +
b00000000000000000000000000000010 ,
b00000000000000000000000000000010 -
0/
b00000000000000000000000000000010 0
b00000000000000000000000000000010 1
b00000000000000000000000000000010 5
b00000000000000000000000000010010 8
b00000000000000000000000000000010 >
b00000000000000000000000000001010 @
b00000000000000000000000000000010 A
b00000000000000000000000000010110 G
b00000000000000000000000000000010 J
b00000000000000000000000000001110 L
b00000000000000000000000000000010 M
b00000000000000000000000000000110 O
0Q
b00000000000000000000000000000010 T
b00000000000000000000000000000110 V
b00000000000000000000000000000010 W
b00000000000000000000000000010110 Y
0]
b00000000000000000000000000010010 `
b00000000000000000000000000000010 b
b00000000000000000000000000001110 d
b00000000000000000000000000000010 e
b00000000000000000000000000001010 g
b00000000000000000000000000000010 k
b00000000000000000000000000010010 m
0n
b00000000000000000000000000001110 q
0v
b00000000000000000000000000010110 y
0!"
b00000000000000000000000000000110 $"
0&"
0+"
b00000000000000000000000000001010 ."
#125000000
1%
b00000000000000000000000000100011 *
1/
b00000000000000000000000000100011 4
b00000000000000000000000000101000 6
b00000000000000000000000000100011 7
b00000000000000000000000000000110 9
b00000000000000000000000000010010 ;
b00000000000000000000000000011110 <
b00000000000000000000000000010000 D
b00000000000000000000000000010110 E
b00000000000000000000000001000110 F
b00000000000000000000000000001010 I
b00000000000000000000000000001110 K
1Q
b00000000000000000000000000010010 Z
b00000000000000000000000000010110 [
b00000000000000000000000000101000 \
1]
b00000000000000000000000000010010 a
b00000000000000000000000000010000 h
b00000000000000000000000000001110 i
b00000000000000000000000000011110 j
1n
b00000000000000000000000000001110 r
b00000000000000000000000000011110 s
b00000000000000000000000000101000 t
b00000000000000000000000001000110 u
1v
b00000000000000000000000000010110 z
b00000000000000000000000000000110 {
b00000000000000000000000000001010 |
b00000000000000000000000000010000 }
1!"
b00000000000000000000000000000110 %"
1&"
b00000000000000000000000001000110 )"
b00000000000000000000000000100011 *"
1+"
b00000000000000000000000000001010 /"
#130000000
b00000000000000000000000000000011 !
b00000000000000000000000000000011 "
b00000000000000000000000000000011 #
0%
b00000000000000000000000000000011 &
b00000000000000000000000000000011 '
b00000000000000000000000000000011 +
b00000000000000000000000000000011 ,
b00000000000000000000000000000011 -
0/
b00000000000000000000000000000011 0
b00000000000000000000000000000011 1
b00000000000000000000000000000011 5
b00000000000000000000000000011011 8
b00000000000000000000000000000011 >
b00000000000000000000000000001111 @
b00000000000000000000000000000011 A
b00000000000000000000000000100001 G
b00000000000000000000000000000011 J
b00000000000000000000000000010101 L
b00000000000000000000000000000011 M
b00000000000000000000000000001001 O
0Q
b00000000000000000000000000000011 T
b00000000000000000000000000001001 V
b00000000000000000000000000000011 W
b00000000000000000000000000100001 Y
0]
b00000000000000000000000000011011 `
b00000000000000000000000000000011 b
b00000000000000000000000000010101 d
b00000000000000000000000000000011 e
b00000000000000000000000000001111 g
b00000000000000000000000000000011 k
b00000000000000000000000000011011 m
0n
b00000000000000000000000000010101 q
0v
b00000000000000000000000000100001 y
0!"
b00000000000000000000000000001001 $"
0&"
0+"
b00000000000000000000000000001111 ."
#135000000
1%
b00000000000000000000000001000110 *
1/
b00000000000000000000000001000110 4
b00000000000000000000000000111100 6
b00000000000000000000000001000110 7
b00000000000000000000000000001001 9
b00000000000000000000000000011011 ;
b00000000000000000000000000101101 <
b00000000000000000000000000011000 D
b00000000000000000000000000100001 E
b00000000000000000000000001101001 F
b00000000000000000000000000001111 I
b00000000000000000000000000010101 K
1Q
b00000000000000000000000000011011 Z
b00000000000000000000000000100001 [
b00000000000000000000000000111100 \
1]
b00000000000000000000000000011011 a
b00000000000000000000000000011000 h
b00000000000000000000000000010101 i
b00000000000000000000000000101101 j
1n
b00000000000000000000000000010101 r
b00000000000000000000000000101101 s
b00000000000000000000000000111100 t
b00000000000000000000000001101001 u
1v
b00000000000000000000000000100001 z
b00000000000000000000000000001001 {
b00000000000000000000000000001111 |
b00000000000000000000000000011000 }
1!"
b00000000000000000000000000001001 %"
1&"
b00000000000000000000000001101001 )"
b00000000000000000000000001000110 *"
1+"
b00000000000000000000000000001111 /"
#140000000
b00000000000000000000000000000100 !
b00000000000000000000000000000100 "
b00000000000000000000000000000100 #
0%
b00000000000000000000000000000100 &
b00000000000000000000000000000100 '
b00000000000000000000000000000100 +
b00000000000000000000000000000100 ,
b00000000000000000000000000000100 -
0/
b00000000000000000000000000000100 0
b00000000000000000000000000000100 1
b00000000000000000000000000000100 5
b00000000000000000000000000100100 8
b00000000000000000000000000000100 >
b00000000000000000000000000010100 @
b00000000000000000000000000000100 A
b00000000000000000000000000101100 G
b00000000000000000000000000000100 J
b00000000000000000000000000011100 L
b00000000000000000000000000000100 M
b00000000000000000000000000001100 O
0Q
b00000000000000000000000000000100 T
b00000000000000000000000000001100 V
b00000000000000000000000000000100 W
b00000000000000000000000000101100 Y
0]
b00000000000000000000000000100100 `
b00000000000000000000000000000100 b
b00000000000000000000000000011100 d
b00000000000000000000000000000100 e
b00000000000000000000000000010100 g
b00000000000000000000000000000100 k
b00000000000000000000000000100100 m
0n
b00000000000000000000000000011100 q
0v
b00000000000000000000000000101100 y
0!"
b00000000000000000000000000001100 $"
0&"
0+"
b00000000000000000000000000010100 ."
#145000000
1%
b00000000000000000000000001101001 *
1/
b00000000000000000000000001101001 4
b00000000000000000000000001010000 6
b00000000000000000000000001101001 7
b00000000000000000000000000001100 9
b00000000000000000000000000100100 ;
b00000000000000000000000000111100 <
b00000000000000000000000000100000 D
b00000000000000000000000000101100 E
b00000000000000000000000010001100 F
b00000000000000000000000000010100 I
b00000000000000000000000000011100 K
1Q
b00000000000000000000000000100100 Z
b00000000000000000000000000101100 [
b00000000000000000000000001010000 \
1]
b00000000000000000000000000100100 a
b00000000000000000000000000100000 h
b00000000000000000000000000011100 i
b00000000000000000000000000111100 j
1n
b00000000000000000000000000011100 r
b00000000000000000000000000111100 s
b00000000000000000000000001010000 t
b00000000000000000000000010001100 u
1v
b00000000000000000000000000101100 z
b00000000000000000000000000001100 {
b00000000000000000000000000010100 |
b00000000000000000000000000100000 }
1!"
b00000000000000000000000000001100 %"
1&"
b00000000000000000000000010001100 )"
b00000000000000000000000001101001 *"
1+"
b00000000000000000000000000010100 /"
#150000000
bXXXXXXXXXXXXXXXXXXXXXXXXXXXXXXXX !
bXXXXXXXXXXXXXXXXXXXXXXXXXXXXXXXX "
bXXXXXXXXXXXXXXXXXXXXXXXXXXXXXXXX #
0%
bXXXXXXXXXXXXXXXXXXXXXXXXXXXXXXXX &
bXXXXXXXXXXXXXXXXXXXXXXXXXXXXXXXX '
bXXXXXXXXXXXXXXXXXXXXXXXXXXXXXXXX +
bXXXXXXXXXXXXXXXXXXXXXXXXXXXXXXXX ,
bXXXXXXXXXXXXXXXXXXXXXXXXXXXXXXXX -
0/
bXXXXXXXXXXXXXXXXXXXXXXXXXXXXXXXX 0
bXXXXXXXXXXXXXXXXXXXXXXXXXXXXXXXX 1
bXXXXXXXXXXXXXXXXXXXXXXXXXXXXXXXX 5
bXXXXXXXXXXXXXXXXXXXXXXXXXXXXXXXX 8
bXXXXXXXXXXXXXXXXXXXXXXXXXXXXXXXX >
bXXXXXXXXXXXXXXXXXXXXXXXXXXXXXXXX @
bXXXXXXXXXXXXXXXXXXXXXXXXXXXXXXXX A
bXXXXXXXXXXXXXXXXXXXXXXXXXXXXXXXX G
bXXXXXXXXXXXXXXXXXXXXXXXXXXXXXXXX J
bXXXXXXXXXXXXXXXXXXXXXXXXXXXXXXXX L
bXXXXXXXXXXXXXXXXXXXXXXXXXXXXXXXX M
bXXXXXXXXXXXXXXXXXXXXXXXXXXXXXXXX O
0Q
bXXXXXXXXXXXXXXXXXXXXXXXXXXXXXXXX T
bXXXXXXXXXXXXXXXXXXXXXXXXXXXXXXXX V
bXXXXXXXXXXXXXXXXXXXXXXXXXXXXXXXX W
bXXXXXXXXXXXXXXXXXXXXXXXXXXXXXXXX Y
0]
bXXXXXXXXXXXXXXXXXXXXXXXXXXXXXXXX `
bXXXXXXXXXXXXXXXXXXXXXXXXXXXXXXXX b
bXXXXXXXXXXXXXXXXXXXXXXXXXXXXXXXX d
bXXXXXXXXXXXXXXXXXXXXXXXXXXXXXXXX e
bXXXXXXXXXXXXXXXXXXXXXXXXXXXXXXXX g
bXXXXXXXXXXXXXXXXXXXXXXXXXXXXXXXX k
bXXXXXXXXXXXXXXXXXXXXXXXXXXXXXXXX m
0n
bXXXXXXXXXXXXXXXXXXXXXXXXXXXXXXXX q
0v
bXXXXXXXXXXXXXXXXXXXXXXXXXXXXXXXX y
0!"
bXXXXXXXXXXXXXXXXXXXXXXXXXXXXXXXX $"
0&"
0+"
bXXXXXXXXXXXXXXXXXXXXXXXXXXXXXXXX ."
#155000000
1%
b00000000000000000000000010001100 *
1/
b00000000000000000000000010001100 4
bXXXXXXXXXXXXXXXXXXXXXXXXXXXXXXXX 6
b00000000000000000000000010001100 7
bXXXXXXXXXXXXXXXXXXXXXXXXXXXXXXXX 9
bXXXXXXXXXXXXXXXXXXXXXXXXXXXXXXXX ;
bXXXXXXXXXXXXXXXXXXXXXXXXXXXXXXXX <
bXXXXXXXXXXXXXXXXXXXXXXXXXXXXXXXX D
bXXXXXXXXXXXXXXXXXXXXXXXXXXXXXXXX E
bXXXXXXXXXXXXXXXXXXXXXXXXXXXXXXXX F
bXXXXXXXXXXXXXXXXXXXXXXXXXXXXXXXX I
bXXXXXXXXXXXXXXXXXXXXXXXXXXXXXXXX K
1Q
bXXXXXXXXXXXXXXXXXXXXXXXXXXXXXXXX Z
bXXXXXXXXXXXXXXXXXXXXXXXXXXXXXXXX [
bXXXXXXXXXXXXXXXXXXXXXXXXXXXXXXXX \
1]
bXXXXXXXXXXXXXXXXXXXXXXXXXXXXXXXX a
bXXXXXXXXXXXXXXXXXXXXXXXXXXXXXXXX h
bXXXXXXXXXXXXXXXXXXXXXXXXXXXXXXXX i
bXXXXXXXXXXXXXXXXXXXXXXXXXXXXXXXX j
1n
bXXXXXXXXXXXXXXXXXXXXXXXXXXXXXXXX r
bXXXXXXXXXXXXXXXXXXXXXXXXXXXXXXXX s
bXXXXXXXXXXXXXXXXXXXXXXXXXXXXXXXX t
bXXXXXXXXXXXXXXXXXXXXXXXXXXXXXXXX u
1v
bXXXXXXXXXXXXXXXXXXXXXXXXXXXXXXXX z
bXXXXXXXXXXXXXXXXXXXXXXXXXXXXXXXX {
bXXXXXXXXXXXXXXXXXXXXXXXXXXXXXXXX |
bXXXXXXXXXXXXXXXXXXXXXXXXXXXXXXXX }
1!"
bXXXXXXXXXXXXXXXXXXXXXXXXXXXXXXXX %"
1&"
bXXXXXXXXXXXXXXXXXXXXXXXXXXXXXXXX )"
b00000000000000000000000010001100 *"
1+"
bXXXXXXXXXXXXXXXXXXXXXXXXXXXXXXXX /"
#160000000
0%
0/
0Q
0]
0n
0v
0!"
0&"
0+"
#165000000
1%
bXXXXXXXXXXXXXXXXXXXXXXXXXXXXXXXX *
1/
bXXXXXXXXXXXXXXXXXXXXXXXXXXXXXXXX 4
bXXXXXXXXXXXXXXXXXXXXXXXXXXXXXXXX 7
1Q
1]
1n
1v
1!"
1&"
bXXXXXXXXXXXXXXXXXXXXXXXXXXXXXXXX *"
1+"
#170000000
0%
0/
0Q
0]
0n
0v
0!"
0&"
0+"
#175000000
1%
1/
1Q
1]
1n
1v
1!"
1&"
1+"
#180000000
0%
0/
0Q
0]
0n
0v
0!"
0&"
0+"
#185000000
1%
1/
1Q
1]
1n
1v
1!"
1&"
1+"
#190000000
0%
0/
0Q
0]
0n
0v
0!"
0&"
0+"
#195000000
1%
1/
1Q
1]
1n
1v
1!"
1&"
1+"
#200000000
0%
0/
0Q
0]
0n
0v
0!"
0&"
0+"
#205000000
1%
1/
1Q
1]
1n
1v
1!"
1&"
1+"
#210000000
0%
0/
0Q
0]
0n
0v
0!"
0&"
0+"
#215000000
1%
1/
1Q
1]
1n
1v
1!"
1&"
1+"
#220000000
0%
0/
0Q
0]
0n
0v
0!"
0&"
0+"
#225000000
1%
1/
1Q
1]
1n
1v
1!"
1&"
1+"
#230000000
0%
0/
0Q
0]
0n
0v
0!"
0&"
0+"
#235000000
1%
1/
1Q
1]
1n
1v
1!"
1&"
1+"
#240000000
0%
0/
0Q
0]
0n
0v
0!"
0&"
0+"
#245000000
1%
1/
1Q
1]
1n
1v
1!"
1&"
1+"
#250000000
0%
0/
0Q
0]
0n
0v
0!"
0&"
0+"
#255000000
1%
1/
1Q
1]
1n
1v
1!"
1&"
1+"
#260000000
0%
0/
0Q
0]
0n
0v
0!"
0&"
0+"
#265000000
1%
1/
1Q
1]
1n
1v
1!"
1&"
1+"
#270000000
0%
0/
0Q
0]
0n
0v
0!"
0&"
0+"
#275000000
1%
1/
1Q
1]
1n
1v
1!"
1&"
1+"
#280000000
0%
0/
0Q
0]
0n
0v
0!"
0&"
0+"
#285000000
1%
1/
1Q
1]
1n
1v
1!"
1&"
1+"
#290000000
0%
0/
0Q
0]
0n
0v
0!"
0&"
0+"
#295000000
1%
1/
1Q
1]
1n
1v
1!"
1&"
1+"
#300000000
0%
0/
0Q
0]
0n
0v
0!"
0&"
0+"
#305000000
1%
1/
1Q
1]
1n
1v
1!"
1&"
1+"
#310000000
0%
0/
0Q
0]
0n
0v
0!"
0&"
0+"
#315000000
1%
1/
1Q
1]
1n
1v
1!"
1&"
1+"
#320000000
0%
0/
0Q
0]
0n
0v
0!"
0&"
0+"
#325000000
1%
1/
1Q
1]
1n
1v
1!"
1&"
1+"
#330000000
0%
0/
0Q
0]
0n
0v
0!"
0&"
0+"
#335000000
1%
1/
1Q
1]
1n
1v
1!"
1&"
1+"
#340000000
0%
0/
0Q
0]
0n
0v
0!"
0&"
0+"
#345000000
1%
1/
1Q
1]
1n
1v
1!"
1&"
1+"
#350000000
0%
0/
0Q
0]
0n
0v
0!"
0&"
0+"
#355000000
1%
1/
1Q
1]
1n
1v
1!"
1&"
1+"
#360000000
0%
0/
0Q
0]
0n
0v
0!"
0&"
0+"
#365000000
1%
1/
1Q
1]
1n
1v
1!"
1&"
1+"
#370000000
0%
0/
0Q
0]
0n
0v
0!"
0&"
0+"
#375000000
1%
1/
1Q
1]
1n
1v
1!"
1&"
1+"
#380000000
0%
0/
0Q
0]
0n
0v
0!"
0&"
0+"
#385000000
1%
1/
1Q
1]
1n
1v
1!"
1&"
1+"
#390000000
0%
0/
0Q
0]
0n
0v
0!"
0&"
0+"
#395000000
1%
1/
1Q
1]
1n
1v
1!"
1&"
1+"
#400000000
0%
0/
0Q
0]
0n
0v
0!"
0&"
0+"
#405000000
1%
1/
1Q
1]
1n
1v
1!"
1&"
1+"
#410000000
0%
0/
0Q
0]
0n
0v
0!"
0&"
0+"
#415000000
1%
1/
1Q
1]
1n
1v
1!"
1&"
1+"
#420000000
0%
0/
0Q
0]
0n
0v
0!"
0&"
0+"
#425000000
1%
1/
1Q
1]
1n
1v
1!"
1&"
1+"
#430000000
0%
0/
0Q
0]
0n
0v
0!"
0&"
0+"
#435000000
1%
1/
1Q
1]
1n
1v
1!"
1&"
1+"
#440000000
0%
0/
0Q
0]
0n
0v
0!"
0&"
0+"
#445000000
1%
1/
1Q
1]
1n
1v
1!"
1&"
1+"
#450000000
0%
0/
0Q
0]
0n
0v
0!"
0&"
0+"
#455000000
1%
1/
1Q
1]
1n
1v
1!"
1&"
1+"
#460000000
0%
0/
0Q
0]
0n
0v
0!"
0&"
0+"
#465000000
1%
1/
1Q
1]
1n
1v
1!"
1&"
1+"
#470000000
0%
0/
0Q
0]
0n
0v
0!"
0&"
0+"
#475000000
1%
1/
1Q
1]
1n
1v
1!"
1&"
1+"
#480000000
0%
0/
0Q
0]
0n
0v
0!"
0&"
0+"
#485000000
1%
1/
1Q
1]
1n
1v
1!"
1&"
1+"
#490000000
0%
0/
0Q
0]
0n
0v
0!"
0&"
0+"
#495000000
1%
1/
1Q
1]
1n
1v
1!"
1&"
1+"
#500000000
0%
0/
0Q
0]
0n
0v
0!"
0&"
0+"
#505000000
1%
1/
1Q
1]
1n
1v
1!"
1&"
1+"
#510000000
0%
0/
0Q
0]
0n
0v
0!"
0&"
0+"
#515000000
1%
1/
1Q
1]
1n
1v
1!"
1&"
1+"
#520000000
0%
0/
0Q
0]
0n
0v
0!"
0&"
0+"
#525000000
1%
1/
1Q
1]
1n
1v
1!"
1&"
1+"
#530000000
0%
0/
0Q
0]
0n
0v
0!"
0&"
0+"
#535000000
1%
1/
1Q
1]
1n
1v
1!"
1&"
1+"
#540000000
0%
0/
0Q
0]
0n
0v
0!"
0&"
0+"
#545000000
1%
1/
1Q
1]
1n
1v
1!"
1&"
1+"
#550000000
0%
0/
0Q
0]
0n
0v
0!"
0&"
0+"
#555000000
1%
1/
1Q
1]
1n
1v
1!"
1&"
1+"
#560000000
0%
0/
0Q
0]
0n
0v
0!"
0&"
0+"
#565000000
1%
1/
1Q
1]
1n
1v
1!"
1&"
1+"
#570000000
0%
0/
0Q
0]
0n
0v
0!"
0&"
0+"
#575000000
1%
1/
1Q
1]
1n
1v
1!"
1&"
1+"
#580000000
0%
0/
0Q
0]
0n
0v
0!"
0&"
0+"
#585000000
1%
1/
1Q
1]
1n
1v
1!"
1&"
1+"
#590000000
0%
0/
0Q
0]
0n
0v
0!"
0&"
0+"
#595000000
1%
1/
1Q
1]
1n
1v
1!"
1&"
1+"
#600000000
0%
0/
0Q
0]
0n
0v
0!"
0&"
0+"
#605000000
1%
1/
1Q
1]
1n
1v
1!"
1&"
1+"
#610000000
0%
0/
0Q
0]
0n
0v
0!"
0&"
0+"
#615000000
1%
1/
1Q
1]
1n
1v
1!"
1&"
1+"
#620000000
0%
0/
0Q
0]
0n
0v
0!"
0&"
0+"
#625000000
1%
1/
1Q
1]
1n
1v
1!"
1&"
1+"
#630000000
0%
0/
0Q
0]
0n
0v
0!"
0&"
0+"
#635000000
1%
1/
1Q
1]
1n
1v
1!"
1&"
1+"
#640000000
0%
0/
0Q
0]
0n
0v
0!"
0&"
0+"
#645000000
1%
1/
1Q
1]
1n
1v
1!"
1&"
1+"
#650000000
0%
0/
0Q
0]
0n
0v
0!"
0&"
0+"
#655000000
1%
1/
1Q
1]
1n
1v
1!"
1&"
1+"
#660000000
0%
0/
0Q
0]
0n
0v
0!"
0&"
0+"
#665000000
1%
1/
1Q
1]
1n
1v
1!"
1&"
1+"
#670000000
0%
0/
0Q
0]
0n
0v
0!"
0&"
0+"
#675000000
1%
1/
1Q
1]
1n
1v
1!"
1&"
1+"
#680000000
0%
0/
0Q
0]
0n
0v
0!"
0&"
0+"
#685000000
1%
1/
1Q
1]
1n
1v
1!"
1&"
1+"
