branches/Float/trunk/src/br/ufscar/dc/lalp/examples/max/gnu/t_max.vcd
$date
  Tue Dec  4 13:42:03 2012
$end
$version
  GHDL v0
$end
$timescale
  1 fs
$end
$var reg 1 ! \clear\ $end
$var reg 1 " \clk\ $end
$var reg 1 # \done\ $end
$var reg 1 $ \init\ $end
$var reg 32 % \maxval\[31:0] $end
$var reg 1 & \reset\ $end
$scope module uut $end
$var reg 1 ' \clear\ $end
$var reg 1 ( \clk\ $end
$var reg 1 ) \done\ $end
$var reg 1 * \init\ $end
$var reg 32 + \maxval\[31:0] $end
$var reg 1 , \reset\ $end
$var reg 12 - s0[11:0] $end
$var reg 1 . s13[0:0] $end
$var reg 1 / s11 $end
$var reg 1 0 s10[0:0] $end
$var reg 1 1 s12 $end
$var reg 1 2 s7[0:0] $end
$var reg 1 3 s9 $end
$var reg 32 4 s3[31:0] $end
$var reg 12 5 s1[11:0] $end
$var reg 32 6 s6[31:0] $end
$var reg 32 7 s8[31:0] $end
$var reg 12 8 s2[11:0] $end
$scope module \c14\ $end
$var reg 1 9 a[0:0] $end
$var reg 1 : clk $end
$var reg 1 ; reset $end
$var reg 1 < a_delayed[0:0] $end
$comment int is not handled $end
$upscope $end
$scope module \c13\ $end
$var reg 1 = a[0:0] $end
$var reg 1 > clk $end
$var reg 1 ? reset $end
$var reg 1 @ a_delayed[0:0] $end
$comment int is not handled $end
$upscope $end
$scope module \a_if_gt_op_s_b\ $end
$var reg 32 A i0[31:0] $end
$var reg 32 B i1[31:0] $end
$var reg 1 C o0[0:0] $end
$upscope $end
$scope module \v\ $end
$var reg 32 D data_in[31:0] $end
$var reg 11 E address[10:0] $end
$var reg 1 F we $end
$var reg 1 G oe $end
$var reg 1 H clk $end
$var reg 32 I data_out[31:0] $end
$var reg 11 J read_a[10:0] $end
$comment ram is not handled $end
$upscope $end
$scope module \b\ $end
$var reg 1 K clk $end
$var reg 1 L reset $end
$var reg 1 M we $end
$var reg 32 N i0[31:0] $end
$var reg 32 O o0[31:0] $end
$upscope $end
$scope module \i\ $end
$var reg 12 P input[11:0] $end
$var reg 12 Q termination[11:0] $end
$var reg 1 R clk $end
$var reg 1 S clk_en $end
$var reg 1 T reset $end
$var reg 1 U load $end
$var reg 1 V step $end
$var reg 1 W done $end
$var reg 12 X output[11:0] $end
$var reg 1 Y shsteps[0:0] $end
$var reg 12 Z value[11:0] $end
$var reg 1 [ init $end
$var reg 1 \ stepi $end
$var reg 1 ] cond $end
$upscope $end
$scope module \a\ $end
$var reg 1 ^ clk $end
$var reg 1 _ reset $end
$var reg 1 ` we $end
$var reg 32 a i0[31:0] $end
$var reg 32 b o0[31:0] $end
$upscope $end
$upscope $end
$enddefinitions $end
#0
0!
0"
0#
0$
b00000000000000000000000000000000 %
1&
0'
0(
0)
0*
b00000000000000000000000000000000 +
1,
b000000000000 -
b0 .
0/
b0 0
01
b0 2
03
bUUUUUUUUUUUUUUUUUUUUUUUUUUUUUUUU 4
b100000000000 5
b00000000000000000000000000000000 6
b00000000000000000000000000000000 7
b000000000000 8
b0 9
0:
1;
b0 <
b0 =
0>
1?
b0 @
b00000000000000000000000000000000 A
b00000000000000000000000000000000 B
b0 C
b00000000000000000000000000000000 D
b00000000000 E
0F
1G
0H
bUUUUUUUUUUUUUUUUUUUUUUUUUUUUUUUU I
bUUUUUUUUUUU J
0K
1L
0M
b00000000000000000000000000000000 N
b00000000000000000000000000000000 O
b000000000000 P
b100000000000 Q
0R
0S
1T
0U
0V
0W
b000000000000 X
b1 Y
b000000000000 Z
1[
0\
1]
0^
1_
0`
bUUUUUUUUUUUUUUUUUUUUUUUUUUUUUUUU a
b00000000000000000000000000000000 b
#5000000
1"
1(
b00000000000000000000000000000001 4
1:
1>
1H
b00000000000000000000000000000001 I
b00000000000 J
1K
1R
1^
b00000000000000000000000000000001 a
#10000000
0"
0(
0:
0>
0H
0K
0R
0^
#15000000
1"
1(
1:
1>
1H
1K
1R
1^
#20000000
0"
0(
0:
0>
0H
0K
0R
0^
#25000000
1"
1(
1:
1>
1H
1K
1R
1^
#30000000
0"
0(
0:
0>
0H
0K
0R
0^
#35000000
1"
1(
1:
1>
1H
1K
1R
1^
#40000000
0"
0(
0:
0>
0H
0K
0R
0^
#45000000
1"
1(
1:
1>
1H
1K
1R
1^
#50000000
0"
0&
0(
0,
0:
0;
0>
0?
0H
0K
0L
0R
0T
0^
0_
#55000000
1"
1(
1:
1>
1H
1K
1R
1^
#60000000
0"
0(
0:
0>
0H
0K
0R
0^
#65000000
1"
1(
1:
1>
1H
1K
1R
1^
#70000000
0"
0(
0:
0>
0H
0K
0R
0^
#75000000
1"
1(
1:
1>
1H
1K
1R
1^
#80000000
0"
0(
0:
0>
0H
0K
0R
0^
#85000000
1"
1(
1:
1>
1H
1K
1R
1^
#90000000
0"
0(
0:
0>
0H
0K
0R
0^
#95000000
1"
1(
1:
1>
1H
1K
1R
1^
#100000000
0"
1$
0(
1*
1/
0:
0>
0H
0K
0R
1S
0^
#105000000
1"
1(
13
1:
b1 =
1>
1H
1K
1R
1V
0[
1\
1^
#110000000
0"
0(
0:
0>
0H
0K
0R
0^
#115000000
1"
1(
b000000000001 8
1:
1>
b00000000001 E
1H
1K
1R
b000000000001 X
b000000000001 Z
1^
#120000000
0"
0(
0:
0>
0H
0K
0R
0^
#125000000
1"
1(
b1 0
b000000000010 8
1:
1>
b1 @
b00000000010 E
1H
b00000000001 J
1K
1R
b000000000010 X
b000000000010 Z
1^
1`
#130000000
0"
0(
0:
0>
0H
0K
0R
0^
#135000000
1"
1(
b1 2
b00000000000000000000000000000010 4
b00000000000000000000000000000001 6
b000000000011 8
1:
1>
b00000000000000000000000000000001 A
b1 C
b00000000011 E
1H
b00000000000000000000000000000010 I
b00000000010 J
1K
1M
b00000000000000000000000000000001 N
1R
b000000000011 X
b000000000011 Z
1^
b00000000000000000000000000000010 a
b00000000000000000000000000000001 b
#140000000
0"
0(
0:
0>
0H
0K
0R
0^
#145000000
1"
b00000000000000000000000000000001 %
1(
b00000000000000000000000000000001 +
b00000000000000000000000000000011 4
b00000000000000000000000000000010 6
b00000000000000000000000000000001 7
b000000000100 8
1:
1>
b00000000000000000000000000000010 A
b00000000000000000000000000000001 B
b00000000100 E
1H
b00000000000000000000000000000011 I
b00000000011 J
1K
b00000000000000000000000000000010 N
b00000000000000000000000000000001 O
1R
b000000000100 X
b000000000100 Z
1^
b00000000000000000000000000000011 a
b00000000000000000000000000000010 b
#150000000
0"
0(
0:
0>
0H
0K
0R
0^
#155000000
1"
b00000000000000000000000000000010 %
1(
b00000000000000000000000000000010 +
b00000000000000000000000000000100 4
b00000000000000000000000000000011 6
b00000000000000000000000000000010 7
b000000000101 8
1:
1>
b00000000000000000000000000000011 A
b00000000000000000000000000000010 B
b00000000101 E
1H
b00000000000000000000000000000100 I
b00000000100 J
1K
b00000000000000000000000000000011 N
b00000000000000000000000000000010 O
1R
b000000000101 X
b000000000101 Z
1^
b00000000000000000000000000000100 a
b00000000000000000000000000000011 b
#160000000
0"
0(
0:
0>
0H
0K
0R
0^
#165000000
1"
b00000000000000000000000000000011 %
1(
b00000000000000000000000000000011 +
b00000000000000000000000000000101 4
b00000000000000000000000000000100 6
b00000000000000000000000000000011 7
b000000000110 8
1:
1>
b00000000000000000000000000000100 A
b00000000000000000000000000000011 B
b00000000110 E
1H
b00000000000000000000000000000101 I
b00000000101 J
1K
b00000000000000000000000000000100 N
b00000000000000000000000000000011 O
1R
b000000000110 X
b000000000110 Z
1^
b00000000000000000000000000000101 a
b00000000000000000000000000000100 b
#170000000
0"
0(
0:
0>
0H
0K
0R
0^
#175000000
1"
b00000000000000000000000000000100 %
1(
b00000000000000000000000000000100 +
b00000000000000000000000000000110 4
b00000000000000000000000000000101 6
b00000000000000000000000000000100 7
b000000000111 8
1:
1>
b00000000000000000000000000000101 A
b00000000000000000000000000000100 B
b00000000111 E
1H
b00000000000000000000000000000110 I
b00000000110 J
1K
b00000000000000000000000000000101 N
b00000000000000000000000000000100 O
1R
b000000000111 X
b000000000111 Z
1^
b00000000000000000000000000000110 a
b00000000000000000000000000000101 b
#180000000
0"
0(
0:
0>
0H
0K
0R
0^
#185000000
1"
b00000000000000000000000000000101 %
1(
b00000000000000000000000000000101 +
b00000000000000000000000000000111 4
b00000000000000000000000000000110 6
b00000000000000000000000000000101 7
b000000001000 8
1:
1>
b00000000000000000000000000000110 A
b00000000000000000000000000000101 B
b00000001000 E
1H
b00000000000000000000000000000111 I
b00000000111 J
1K
b00000000000000000000000000000110 N
b00000000000000000000000000000101 O
1R
b000000001000 X
b000000001000 Z
1^
b00000000000000000000000000000111 a
b00000000000000000000000000000110 b
#190000000
0"
0(
0:
0>
0H
0K
0R
0^
#195000000
1"
b00000000000000000000000000000110 %
1(
b00000000000000000000000000000110 +
b00000000000000000000000000001000 4
b00000000000000000000000000000111 6
b00000000000000000000000000000110 7
b000000001001 8
1:
1>
b00000000000000000000000000000111 A
b00000000000000000000000000000110 B
b00000001001 E
1H
b00000000000000000000000000001000 I
b00000001000 J
1K
b00000000000000000000000000000111 N
b00000000000000000000000000000110 O
1R
b000000001001 X
b000000001001 Z
1^
b00000000000000000000000000001000 a
b00000000000000000000000000000111 b
#200000000
0"
0(
0:
0>
0H
0K
0R
0^
#205000000
1"
b00000000000000000000000000000111 %
1(
b00000000000000000000000000000111 +
b00000000000000000000000000000001 4
b00000000000000000000000000001000 6
b00000000000000000000000000000111 7
b000000001010 8
1:
1>
b00000000000000000000000000001000 A
b00000000000000000000000000000111 B
b00000001010 E
1H
b00000000000000000000000000000001 I
b00000001001 J
1K
b00000000000000000000000000001000 N
b00000000000000000000000000000111 O
1R
b000000001010 X
b000000001010 Z
1^
b00000000000000000000000000000001 a
b00000000000000000000000000001000 b
#210000000
0"
0(
0:
0>
0H
0K
0R
0^
#215000000
1"
b00000000000000000000000000001000 %
1(
b00000000000000000000000000001000 +
b0 2
b00000000000000000000000000000010 4
b00000000000000000000000000000001 6
b00000000000000000000000000001000 7
b000000001011 8
1:
1>
b00000000000000000000000000000001 A
b00000000000000000000000000001000 B
b0 C
b00000001011 E
1H
b00000000000000000000000000000010 I
b00000001010 J
1K
0M
b00000000000000000000000000000001 N
b00000000000000000000000000001000 O
1R
b000000001011 X
b000000001011 Z
1^
b00000000000000000000000000000010 a
b00000000000000000000000000000001 b
#220000000
0"
0(
0:
0>
0H
0K
0R
0^
#225000000
1"
1(
b00000000000000000000000000000011 4
b00000000000000000000000000000010 6
b000000001100 8
1:
1>
b00000000000000000000000000000010 A
b00000001100 E
1H
b00000000000000000000000000000011 I
b00000001011 J
1K
b00000000000000000000000000000010 N
1R
b000000001100 X
b000000001100 Z
1^
b00000000000000000000000000000011 a
b00000000000000000000000000000010 b
#230000000
0"
0(
0:
0>
0H
0K
0R
0^
#235000000
1"
1(
b00000000000000000000000000000100 4
b00000000000000000000000000000011 6
b000000001101 8
1:
1>
b00000000000000000000000000000011 A
b00000001101 E
1H
b00000000000000000000000000000100 I
b00000001100 J
1K
b00000000000000000000000000000011 N
1R
b000000001101 X
b000000001101 Z
1^
b00000000000000000000000000000100 a
b00000000000000000000000000000011 b
#240000000
0"
0(
0:
0>
0H
0K
0R
0^
#245000000
1"
1(
b00000000000000000000000000000101 4
b00000000000000000000000000000100 6
b000000001110 8
1:
1>
b00000000000000000000000000000100 A
b00000001110 E
1H
b00000000000000000000000000000101 I
b00000001101 J
1K
b00000000000000000000000000000100 N
1R
b000000001110 X
b000000001110 Z
1^
b00000000000000000000000000000101 a
b00000000000000000000000000000100 b
#250000000
0"
0(
0:
0>
0H
0K
0R
0^
#255000000
1"
1(
b00000000000000000000000000000110 4
b00000000000000000000000000000101 6
b000000001111 8
1:
1>
b00000000000000000000000000000101 A
b00000001111 E
1H
b00000000000000000000000000000110 I
b00000001110 J
1K
b00000000000000000000000000000101 N
1R
b000000001111 X
b000000001111 Z
1^
b00000000000000000000000000000110 a
b00000000000000000000000000000101 b
#260000000
0"
0(
0:
0>
0H
0K
0R
0^
#265000000
1"
1(
b00000000000000000000000000000111 4
b00000000000000000000000000000110 6
b000000010000 8
1:
1>
b00000000000000000000000000000110 A
b00000010000 E
1H
b00000000000000000000000000000111 I
b00000001111 J
1K
b00000000000000000000000000000110 N
1R
b000000010000 X
b000000010000 Z
1^
b00000000000000000000000000000111 a
b00000000000000000000000000000110 b
#270000000
0"
0(
0:
0>
0H
0K
0R
0^
#275000000
1"
1(
b00000000000000000000000000001000 4
b00000000000000000000000000000111 6
b000000010001 8
1:
1>
b00000000000000000000000000000111 A
b00000010001 E
1H
b00000000000000000000000000001000 I
b00000010000 J
1K
b00000000000000000000000000000111 N
1R
b000000010001 X
b000000010001 Z
1^
b00000000000000000000000000001000 a
b00000000000000000000000000000111 b
#280000000
0"
0(
0:
0>
0H
0K
0R
0^
#285000000
1"
1(
b00000000000000000000000000000001 4
b00000000000000000000000000001000 6
b000000010010 8
1:
1>
b00000000000000000000000000001000 A
b00000010010 E
1H
b00000000000000000000000000000001 I
b00000010001 J
1K
b00000000000000000000000000001000 N
1R
b000000010010 X
b000000010010 Z
1^
b00000000000000000000000000000001 a
b00000000000000000000000000001000 b
#290000000
0"
0(
0:
0>
0H
0K
0R
0^
#295000000
1"
1(
b00000000000000000000000000000010 4
b00000000000000000000000000000001 6
b000000010011 8
1:
1>
b00000000000000000000000000000001 A
b00000010011 E
1H
b00000000000000000000000000000010 I
b00000010010 J
1K
b00000000000000000000000000000001 N
1R
b000000010011 X
b000000010011 Z
1^
b00000000000000000000000000000010 a
b00000000000000000000000000000001 b
#300000000
0"
0(
0:
0>
0H
0K
0R
0^
#305000000
1"
1(
b00000000000000000000000000000011 4
b00000000000000000000000000000010 6
b000000010100 8
1:
1>
b00000000000000000000000000000010 A
b00000010100 E
1H
b00000000000000000000000000000011 I
b00000010011 J
1K
b00000000000000000000000000000010 N
1R
b000000010100 X
b000000010100 Z
1^
b00000000000000000000000000000011 a
b00000000000000000000000000000010 b
#310000000
0"
0(
0:
0>
0H
0K
0R
0^
#315000000
1"
1(
b00000000000000000000000000000100 4
b00000000000000000000000000000011 6
b000000010101 8
1:
1>
b00000000000000000000000000000011 A
b00000010101 E
1H
b00000000000000000000000000000100 I
b00000010100 J
1K
b00000000000000000000000000000011 N
1R
b000000010101 X
b000000010101 Z
1^
b00000000000000000000000000000100 a
b00000000000000000000000000000011 b
#320000000
0"
0(
0:
0>
0H
0K
0R
0^
#325000000
1"
1(
b00000000000000000000000000000101 4
b00000000000000000000000000000100 6
b000000010110 8
1:
1>
b00000000000000000000000000000100 A
b00000010110 E
1H
b00000000000000000000000000000101 I
b00000010101 J
1K
b00000000000000000000000000000100 N
1R
b000000010110 X
b000000010110 Z
1^
b00000000000000000000000000000101 a
b00000000000000000000000000000100 b
#330000000
0"
0(
0:
0>
0H
0K
0R
0^
#335000000
1"
1(
b00000000000000000000000000000110 4
b00000000000000000000000000000101 6
b000000010111 8
1:
1>
b00000000000000000000000000000101 A
b00000010111 E
1H
b00000000000000000000000000000110 I
b00000010110 J
1K
b00000000000000000000000000000101 N
1R
b000000010111 X
b000000010111 Z
1^
b00000000000000000000000000000110 a
b00000000000000000000000000000101 b
#340000000
0"
0(
0:
0>
0H
0K
0R
0^
#345000000
1"
1(
b00000000000000000000000000000111 4
b00000000000000000000000000000110 6
b000000011000 8
1:
1>
b00000000000000000000000000000110 A
b00000011000 E
1H
b00000000000000000000000000000111 I
b00000010111 J
1K
b00000000000000000000000000000110 N
1R
b000000011000 X
b000000011000 Z
1^
b00000000000000000000000000000111 a
b00000000000000000000000000000110 b
#350000000
0"
0(
0:
0>
0H
0K
0R
0^
#355000000
1"
1(
b00000000000000000000000000001000 4
b00000000000000000000000000000111 6
b000000011001 8
1:
1>
b00000000000000000000000000000111 A
b00000011001 E
1H
b00000000000000000000000000001000 I
b00000011000 J
1K
b00000000000000000000000000000111 N
1R
b000000011001 X
b000000011001 Z
1^
b00000000000000000000000000001000 a
b00000000000000000000000000000111 b
#360000000
0"
0(
0:
0>
0H
0K
0R
0^
#365000000
1"
1(
b00000000000000000000000000000001 4
b00000000000000000000000000001000 6
b000000011010 8
1:
1>
b00000000000000000000000000001000 A
b00000011010 E
1H
b00000000000000000000000000000001 I
b00000011001 J
1K
b00000000000000000000000000001000 N
1R
b000000011010 X
b000000011010 Z
1^
b00000000000000000000000000000001 a
b00000000000000000000000000001000 b
#370000000
0"
0(
0:
0>
0H
0K
0R
0^
#375000000
1"
1(
b00000000000000000000000000000010 4
b00000000000000000000000000000001 6
b000000011011 8
1:
1>
b00000000000000000000000000000001 A
b00000011011 E
1H
b00000000000000000000000000000010 I
b00000011010 J
1K
b00000000000000000000000000000001 N
1R
b000000011011 X
b000000011011 Z
1^
b00000000000000000000000000000010 a
b00000000000000000000000000000001 b
#380000000
0"
0(
0:
0>
0H
0K
0R
0^
#385000000
1"
1(
b00000000000000000000000000000011 4
b00000000000000000000000000000010 6
b000000011100 8
1:
1>
b00000000000000000000000000000010 A
b00000011100 E
1H
b00000000000000000000000000000011 I
b00000011011 J
1K
b00000000000000000000000000000010 N
1R
b000000011100 X
b000000011100 Z
1^
b00000000000000000000000000000011 a
b00000000000000000000000000000010 b
#390000000
0"
0(
0:
0>
0H
0K
0R
0^
#395000000
1"
1(
b00000000000000000000000000000100 4
b00000000000000000000000000000011 6
b000000011101 8
1:
1>
b00000000000000000000000000000011 A
b00000011101 E
1H
b00000000000000000000000000000100 I
b00000011100 J
1K
b00000000000000000000000000000011 N
1R
b000000011101 X
b000000011101 Z
1^
b00000000000000000000000000000100 a
b00000000000000000000000000000011 b
#400000000
0"
0(
0:
0>
0H
0K
0R
0^
#405000000
1"
1(
b00000000000000000000000000000101 4
b00000000000000000000000000000100 6
b000000011110 8
1:
1>
b00000000000000000000000000000100 A
b00000011110 E
1H
b00000000000000000000000000000101 I
b00000011101 J
1K
b00000000000000000000000000000100 N
1R
b000000011110 X
b000000011110 Z
1^
b00000000000000000000000000000101 a
b00000000000000000000000000000100 b
#410000000
0"
0(
0:
0>
0H
0K
0R
0^
#415000000
1"
1(
b00000000000000000000000000000110 4
b00000000000000000000000000000101 6
b000000011111 8
1:
1>
b00000000000000000000000000000101 A
b00000011111 E
1H
b00000000000000000000000000000110 I
b00000011110 J
1K
b00000000000000000000000000000101 N
1R
b000000011111 X
b000000011111 Z
1^
b00000000000000000000000000000110 a
b00000000000000000000000000000101 b
#420000000
0"
0(
0:
0>
0H
0K
0R
0^
#425000000
1"
1(
b00000000000000000000000000000111 4
b00000000000000000000000000000110 6
b000000100000 8
1:
1>
b00000000000000000000000000000110 A
b00000100000 E
1H
b00000000000000000000000000000111 I
b00000011111 J
1K
b00000000000000000000000000000110 N
1R
b000000100000 X
b000000100000 Z
1^
b00000000000000000000000000000111 a
b00000000000000000000000000000110 b
#430000000
0"
0(
0:
0>
0H
0K
0R
0^
#435000000
1"
1(
b00000000000000000000000000001000 4
b00000000000000000000000000000111 6
b000000100001 8
1:
1>
b00000000000000000000000000000111 A
b00000100001 E
1H
b00000000000000000000000000001000 I
b00000100000 J
1K
b00000000000000000000000000000111 N
1R
b000000100001 X
b000000100001 Z
1^
b00000000000000000000000000001000 a
b00000000000000000000000000000111 b
#440000000
0"
0(
0:
0>
0H
0K
0R
0^
#445000000
1"
1(
b00000000000000000000000000000001 4
b00000000000000000000000000001000 6
b000000100010 8
1:
1>
b00000000000000000000000000001000 A
b00000100010 E
1H
b00000000000000000000000000000001 I
b00000100001 J
1K
b00000000000000000000000000001000 N
1R
b000000100010 X
b000000100010 Z
1^
b00000000000000000000000000000001 a
b00000000000000000000000000001000 b
#450000000
0"
0(
0:
0>
0H
0K
0R
0^
#455000000
1"
1(
b00000000000000000000000000000010 4
b00000000000000000000000000000001 6
b000000100011 8
1:
1>
b00000000000000000000000000000001 A
b00000100011 E
1H
b00000000000000000000000000000010 I
b00000100010 J
1K
b00000000000000000000000000000001 N
1R
b000000100011 X
b000000100011 Z
1^
b00000000000000000000000000000010 a
b00000000000000000000000000000001 b
#460000000
0"
0(
0:
0>
0H
0K
0R
0^
#465000000
1"
1(
b00000000000000000000000000000011 4
b00000000000000000000000000000010 6
b000000100100 8
1:
1>
b00000000000000000000000000000010 A
b00000100100 E
1H
b00000000000000000000000000000011 I
b00000100011 J
1K
b00000000000000000000000000000010 N
1R
b000000100100 X
b000000100100 Z
1^
b00000000000000000000000000000011 a
b00000000000000000000000000000010 b
#470000000
0"
0(
0:
0>
0H
0K
0R
0^
#475000000
1"
1(
b00000000000000000000000000000100 4
b00000000000000000000000000000011 6
b000000100101 8
1:
1>
b00000000000000000000000000000011 A
b00000100101 E
1H
b00000000000000000000000000000100 I
b00000100100 J
1K
b00000000000000000000000000000011 N
1R
b000000100101 X
b000000100101 Z
1^
b00000000000000000000000000000100 a
b00000000000000000000000000000011 b
#480000000
0"
0(
0:
0>
0H
0K
0R
0^
#485000000
1"
1(
b00000000000000000000000000000101 4
b00000000000000000000000000000100 6
b000000100110 8
1:
1>
b00000000000000000000000000000100 A
b00000100110 E
1H
b00000000000000000000000000000101 I
b00000100101 J
1K
b00000000000000000000000000000100 N
1R
b000000100110 X
b000000100110 Z
1^
b00000000000000000000000000000101 a
b00000000000000000000000000000100 b
#490000000
0"
0(
0:
0>
0H
0K
0R
0^
#495000000
1"
1(
b00000000000000000000000000000110 4
b00000000000000000000000000000101 6
b000000100111 8
1:
1>
b00000000000000000000000000000101 A
b00000100111 E
1H
b00000000000000000000000000000110 I
b00000100110 J
1K
b00000000000000000000000000000101 N
1R
b000000100111 X
b000000100111 Z
1^
b00000000000000000000000000000110 a
b00000000000000000000000000000101 b
#500000000
0"
0(
0:
0>
0H
0K
0R
0^
#505000000
1"
1(
b00000000000000000000000000000111 4
b00000000000000000000000000000110 6
b000000101000 8
1:
1>
b00000000000000000000000000000110 A
b00000101000 E
1H
b00000000000000000000000000000111 I
b00000100111 J
1K
b00000000000000000000000000000110 N
1R
b000000101000 X
b000000101000 Z
1^
b00000000000000000000000000000111 a
b00000000000000000000000000000110 b
#510000000
0"
0(
0:
0>
0H
0K
0R
0^
#515000000
1"
1(
b00000000000000000000000000001000 4
b00000000000000000000000000000111 6
b000000101001 8
1:
1>
b00000000000000000000000000000111 A
b00000101001 E
1H
b00000000000000000000000000001000 I
b00000101000 J
1K
b00000000000000000000000000000111 N
1R
b000000101001 X
b000000101001 Z
1^
b00000000000000000000000000001000 a
b00000000000000000000000000000111 b
#520000000
0"
0(
0:
0>
0H
0K
0R
0^
#525000000
1"
1(
b00000000000000000000000000000001 4
b00000000000000000000000000001000 6
b000000101010 8
1:
1>
b00000000000000000000000000001000 A
b00000101010 E
1H
b00000000000000000000000000000001 I
b00000101001 J
1K
b00000000000000000000000000001000 N
1R
b000000101010 X
b000000101010 Z
1^
b00000000000000000000000000000001 a
b00000000000000000000000000001000 b
#530000000
0"
0(
0:
0>
0H
0K
0R
0^
#535000000
1"
1(
b00000000000000000000000000000010 4
b00000000000000000000000000000001 6
b000000101011 8
1:
1>
b00000000000000000000000000000001 A
b00000101011 E
1H
b00000000000000000000000000000010 I
b00000101010 J
1K
b00000000000000000000000000000001 N
1R
b000000101011 X
b000000101011 Z
1^
b00000000000000000000000000000010 a
b00000000000000000000000000000001 b
#540000000
0"
0(
0:
0>
0H
0K
0R
0^
#545000000
1"
1(
b00000000000000000000000000000011 4
b00000000000000000000000000000010 6
b000000101100 8
1:
1>
b00000000000000000000000000000010 A
b00000101100 E
1H
b00000000000000000000000000000011 I
b00000101011 J
1K
b00000000000000000000000000000010 N
1R
b000000101100 X
b000000101100 Z
1^
b00000000000000000000000000000011 a
b00000000000000000000000000000010 b
#550000000
0"
0(
0:
0>
0H
0K
0R
0^
#555000000
1"
1(
b00000000000000000000000000000100 4
b00000000000000000000000000000011 6
b000000101101 8
1:
1>
b00000000000000000000000000000011 A
b00000101101 E
1H
b00000000000000000000000000000100 I
b00000101100 J
1K
b00000000000000000000000000000011 N
1R
b000000101101 X
b000000101101 Z
1^
b00000000000000000000000000000100 a
b00000000000000000000000000000011 b
#560000000
0"
0(
0:
0>
0H
0K
0R
0^
#565000000
1"
1(
b00000000000000000000000000000101 4
b00000000000000000000000000000100 6
b000000101110 8
1:
1>
b00000000000000000000000000000100 A
b00000101110 E
1H
b00000000000000000000000000000101 I
b00000101101 J
1K
b00000000000000000000000000000100 N
1R
b000000101110 X
b000000101110 Z
1^
b00000000000000000000000000000101 a
b00000000000000000000000000000100 b
#570000000
0"
0(
0:
0>
0H
0K
0R
0^
#575000000
1"
1(
b00000000000000000000000000000110 4
b00000000000000000000000000000101 6
b000000101111 8
1:
1>
b00000000000000000000000000000101 A
b00000101111 E
1H
b00000000000000000000000000000110 I
b00000101110 J
1K
b00000000000000000000000000000101 N
1R
b000000101111 X
b000000101111 Z
1^
b00000000000000000000000000000110 a
b00000000000000000000000000000101 b
#580000000
0"
0(
0:
0>
0H
0K
0R
0^
#585000000
1"
1(
b00000000000000000000000000000111 4
b00000000000000000000000000000110 6
b000000110000 8
1:
1>
b00000000000000000000000000000110 A
b00000110000 E
1H
b00000000000000000000000000000111 I
b00000101111 J
1K
b00000000000000000000000000000110 N
1R
b000000110000 X
b000000110000 Z
1^
b00000000000000000000000000000111 a
b00000000000000000000000000000110 b
#590000000
0"
0(
0:
0>
0H
0K
0R
0^
#595000000
1"
1(
b00000000000000000000000000001000 4
b00000000000000000000000000000111 6
b000000110001 8
1:
1>
b00000000000000000000000000000111 A
b00000110001 E
1H
b00000000000000000000000000001000 I
b00000110000 J
1K
b00000000000000000000000000000111 N
1R
b000000110001 X
b000000110001 Z
1^
b00000000000000000000000000001000 a
b00000000000000000000000000000111 b
#600000000
0"
0(
0:
0>
0H
0K
0R
0^
#605000000
1"
1(
b00000000000000000000000000000001 4
b00000000000000000000000000001000 6
b000000110010 8
1:
1>
b00000000000000000000000000001000 A
b00000110010 E
1H
b00000000000000000000000000000001 I
b00000110001 J
1K
b00000000000000000000000000001000 N
1R
b000000110010 X
b000000110010 Z
1^
b00000000000000000000000000000001 a
b00000000000000000000000000001000 b
#610000000
0"
0(
0:
0>
0H
0K
0R
0^
#615000000
1"
1(
b00000000000000000000000000000010 4
b00000000000000000000000000000001 6
b000000110011 8
1:
1>
b00000000000000000000000000000001 A
b00000110011 E
1H
b00000000000000000000000000000010 I
b00000110010 J
1K
b00000000000000000000000000000001 N
1R
b000000110011 X
b000000110011 Z
1^
b00000000000000000000000000000010 a
b00000000000000000000000000000001 b
#620000000
0"
0(
0:
0>
0H
0K
0R
0^
#625000000
1"
1(
b00000000000000000000000000000011 4
b00000000000000000000000000000010 6
b000000110100 8
1:
1>
b00000000000000000000000000000010 A
b00000110100 E
1H
b00000000000000000000000000000011 I
b00000110011 J
1K
b00000000000000000000000000000010 N
1R
b000000110100 X
b000000110100 Z
1^
b00000000000000000000000000000011 a
b00000000000000000000000000000010 b
#630000000
0"
0(
0:
0>
0H
0K
0R
0^
#635000000
1"
1(
b00000000000000000000000000000100 4
b00000000000000000000000000000011 6
b000000110101 8
1:
1>
b00000000000000000000000000000011 A
b00000110101 E
1H
b00000000000000000000000000000100 I
b00000110100 J
1K
b00000000000000000000000000000011 N
1R
b000000110101 X
b000000110101 Z
1^
b00000000000000000000000000000100 a
b00000000000000000000000000000011 b
#640000000
0"
0(
0:
0>
0H
0K
0R
0^
#645000000
1"
1(
b00000000000000000000000000000101 4
b00000000000000000000000000000100 6
b000000110110 8
1:
1>
b00000000000000000000000000000100 A
b00000110110 E
1H
b00000000000000000000000000000101 I
b00000110101 J
1K
b00000000000000000000000000000100 N
1R
b000000110110 X
b000000110110 Z
1^
b00000000000000000000000000000101 a
b00000000000000000000000000000100 b
#650000000
0"
0(
0:
0>
0H
0K
0R
0^
#655000000
1"
1(
b00000000000000000000000000000110 4
b00000000000000000000000000000101 6
b000000110111 8
1:
1>
b00000000000000000000000000000101 A
b00000110111 E
1H
b00000000000000000000000000000110 I
b00000110110 J
1K
b00000000000000000000000000000101 N
1R
b000000110111 X
b000000110111 Z
1^
b00000000000000000000000000000110 a
b00000000000000000000000000000101 b
#660000000
0"
0(
0:
0>
0H
0K
0R
0^
#665000000
1"
1(
b00000000000000000000000000000111 4
b00000000000000000000000000000110 6
b000000111000 8
1:
1>
b00000000000000000000000000000110 A
b00000111000 E
1H
b00000000000000000000000000000111 I
b00000110111 J
1K
b00000000000000000000000000000110 N
1R
b000000111000 X
b000000111000 Z
1^
b00000000000000000000000000000111 a
b00000000000000000000000000000110 b
#670000000
0"
0(
0:
0>
0H
0K
0R
0^
#675000000
1"
1(
b00000000000000000000000000001000 4
b00000000000000000000000000000111 6
b000000111001 8
1:
1>
b00000000000000000000000000000111 A
b00000111001 E
1H
b00000000000000000000000000001000 I
b00000111000 J
1K
b00000000000000000000000000000111 N
1R
b000000111001 X
b000000111001 Z
1^
b00000000000000000000000000001000 a
b00000000000000000000000000000111 b
#680000000
0"
0(
0:
0>
0H
0K
0R
0^
#685000000
1"
1(
b00000000000000000000000000000001 4
b00000000000000000000000000001000 6
b000000111010 8
1:
1>
b00000000000000000000000000001000 A
b00000111010 E
1H
b00000000000000000000000000000001 I
b00000111001 J
1K
b00000000000000000000000000001000 N
1R
b000000111010 X
b000000111010 Z
1^
b00000000000000000000000000000001 a
b00000000000000000000000000001000 b
#690000000
0"
0(
0:
0>
0H
0K
0R
0^
