lalpDSE/src/br/ufscar/dc/lalp/examples/dotprod/gnu/t_dotprod1.vcd
$date
  Fri Jun 21 16:21:38 2013
$end
$version
  GHDL v0
$end
$timescale
  1 fs
$end
$var reg 1 ! \clear\ $end
$var reg 1 " \clk\ $end
$var reg 1 # \done\ $end
$var reg 1 $ \init\ $end
$var reg 1 % \reset\ $end
$var reg 32 & \sum\[31:0] $end
$scope module uut $end
$var reg 1 ' \clear\ $end
$var reg 1 ( \clk\ $end
$var reg 1 ) \done\ $end
$var reg 1 * \init\ $end
$var reg 1 + \reset\ $end
$var reg 32 , \sum\[31:0] $end
$var reg 16 - s0[15:0] $end
$var reg 1 . s100 $end
$var reg 1 / s104[0:0] $end
$var reg 1 0 s102[0:0] $end
$var reg 1 1 s103 $end
$var reg 1 2 s101 $end
$var reg 32 3 s7[31:0] $end
$var reg 32 4 s9[31:0] $end
$var reg 32 5 s5[31:0] $end
$var reg 16 6 s3[15:0] $end
$var reg 16 7 s1[15:0] $end
$var reg 32 8 s4[31:0] $end
$scope module \c131\ $end
$var reg 1 9 a[0:0] $end
$var reg 1 : clk $end
$var reg 1 ; reset $end
$var reg 1 < a_delayed[0:0] $end
$comment int is not handled $end
$upscope $end
$scope module \c130\ $end
$var reg 1 = a[0:0] $end
$var reg 1 > clk $end
$var reg 1 ? reset $end
$var reg 1 @ a_delayed[0:0] $end
$comment int is not handled $end
$upscope $end
$scope module \x_mult_op_s_p_y_1\ $end
$var reg 1 A clk $end
$var reg 32 B i0[31:0] $end
$var reg 32 C i1[31:0] $end
$var reg 32 D o0[31:0] $end
$comment int is not handled $end
$upscope $end
$scope module \acc\ $end
$var reg 1 E clk $end
$var reg 1 F reset $end
$var reg 1 G we $end
$var reg 1 H sel1[0:0] $end
$var reg 32 I i0[31:0] $end
$var reg 32 J i1[31:0] $end
$var reg 32 K o0[31:0] $end
$upscope $end
$scope module \x\ $end
$var reg 32 L data_in[31:0] $end
$var reg 11 M address[10:0] $end
$var reg 1 N we $end
$var reg 1 O oe $end
$var reg 1 P clk $end
$var reg 32 Q data_out[31:0] $end
$var reg 11 R read_a[10:0] $end
$comment ram is not handled $end
$upscope $end
$scope module \y\ $end
$var reg 32 S data_in[31:0] $end
$var reg 11 T address[10:0] $end
$var reg 1 U we $end
$var reg 1 V oe $end
$var reg 1 W clk $end
$var reg 32 X data_out[31:0] $end
$var reg 11 Y read_a[10:0] $end
$comment ram is not handled $end
$upscope $end
$scope module \i\ $end
$var reg 16 Z input[15:0] $end
$var reg 16 [ termination[15:0] $end
$var reg 1 \ clk $end
$var reg 1 ] clk_en $end
$var reg 1 ^ reset $end
$var reg 1 _ load $end
$var reg 1 ` step $end
$var reg 1 a done $end
$var reg 16 b output[15:0] $end
$var reg 1 c shsteps[0:0] $end
$var reg 16 d value[15:0] $end
$var reg 1 e init $end
$var reg 1 f stepi $end
$var reg 1 g cond $end
$upscope $end
$upscope $end
$enddefinitions $end
#0
0!
0"
0#
0$
1%
b00000000000000000000000000000000 &
0'
0(
0)
0*
1+
b00000000000000000000000000000000 ,
b0000000000000000 -
0.
b0 /
b0 0
01
02
bUUUUUUUUUUUUUUUUUUUUUUUUUUUUUUUU 3
b00000000000000000000000000000000 4
bUUUUUUUUUUUUUUUUUUUUUUUUUUUUUUUU 5
b0000000000000000 6
b0000100000000000 7
bUUUUUUUUUUUUUUUUUUUUUUUUUUUUUUUU 8
b0 9
0:
1;
b0 <
b0 =
0>
1?
b0 @
0A
bUUUUUUUUUUUUUUUUUUUUUUUUUUUUUUUU B
bUUUUUUUUUUUUUUUUUUUUUUUUUUUUUUUU C
bUUUUUUUUUUUUUUUUUUUUUUUUUUUUUUUU D
0E
1F
0G
b1 H
b00000000000000000000000000000000 I
bUUUUUUUUUUUUUUUUUUUUUUUUUUUUUUUU J
b00000000000000000000000000000000 K
b00000000000000000000000000000000 L
b00000000000 M
0N
1O
0P
bUUUUUUUUUUUUUUUUUUUUUUUUUUUUUUUU Q
bUUUUUUUUUUU R
b00000000000000000000000000000000 S
b00000000000 T
0U
1V
0W
bUUUUUUUUUUUUUUUUUUUUUUUUUUUUUUUU X
bUUUUUUUUUUU Y
b0000000000000000 Z
b0000100000000000 [
0\
0]
1^
0_
0`
0a
b0000000000000000 b
b1 c
b0000000000000000 d
1e
0f
1g
#5000000
1"
1(
bXXXXXXXXXXXXXXXXXXXXXXXXXXXXXXXX 3
b00000000000000000000000000000100 5
b00000000000000000000000000000001 8
1:
1>
1A
b00000000000000000000000000000001 B
b00000000000000000000000000000100 C
bXXXXXXXXXXXXXXXXXXXXXXXXXXXXXXXX D
1E
bXXXXXXXXXXXXXXXXXXXXXXXXXXXXXXXX J
1P
b00000000000000000000000000000001 Q
b00000000000 R
1W
b00000000000000000000000000000100 X
b00000000000 Y
1\
#10000000
0"
0(
0:
0>
0A
0E
0P
0W
0\
#15000000
1"
1(
b00000000000000000000000000000100 3
1:
1>
1A
b00000000000000000000000000000100 D
1E
b00000000000000000000000000000100 J
1P
1W
1\
#20000000
0"
0(
0:
0>
0A
0E
0P
0W
0\
#25000000
1"
1(
1:
1>
1A
1E
1P
1W
1\
#30000000
0"
0(
0:
0>
0A
0E
0P
0W
0\
#35000000
1"
1(
1:
1>
1A
1E
1P
1W
1\
#40000000
0"
0(
0:
0>
0A
0E
0P
0W
0\
#45000000
1"
1(
1:
1>
1A
1E
1P
1W
1\
#50000000
0"
0%
0(
0+
0:
0;
0>
0?
0A
0E
0F
0P
0W
0\
0^
#55000000
1"
1(
1:
1>
1A
1E
1P
1W
1\
#60000000
0"
0(
0:
0>
0A
0E
0P
0W
0\
#65000000
1"
1(
1:
1>
1A
1E
1P
1W
1\
#70000000
0"
0(
0:
0>
0A
0E
0P
0W
0\
#75000000
1"
1(
1:
1>
1A
1E
1P
1W
1\
#80000000
0"
0(
0:
0>
0A
0E
0P
0W
0\
#85000000
1"
1(
1:
1>
1A
1E
1P
1W
1\
#90000000
0"
0(
0:
0>
0A
0E
0P
0W
0\
#95000000
1"
1(
1:
1>
1A
1E
1P
1W
1\
#100000000
0"
1$
0(
1*
1.
0:
0>
0A
0E
0P
0W
0\
1]
#105000000
1"
1(
11
b1 9
1:
1>
1A
1E
1P
1W
1\
1`
0e
1f
#110000000
0"
0(
0:
0>
0A
0E
0P
0W
0\
#115000000
1"
1(
b0000000000000001 6
1:
1>
1A
1E
b00000000001 M
1P
b00000000001 T
1W
1\
b0000000000000001 b
b0000000000000001 d
#120000000
0"
0(
0:
0>
0A
0E
0P
0W
0\
#125000000
1"
1(
b0000000000000010 6
1:
1>
1A
1E
b00000000010 M
1P
b00000000001 R
b00000000010 T
1W
b00000000001 Y
1\
b0000000000000010 b
b0000000000000010 d
#130000000
0"
0(
0:
0>
0A
0E
0P
0W
0\
#135000000
1"
1(
b1 /
b00000000000000000000000000000101 5
b0000000000000011 6
b00000000000000000000000000000010 8
1:
b1 <
1>
1A
b00000000000000000000000000000010 B
b00000000000000000000000000000101 C
1E
1G
b00000000011 M
1P
b00000000000000000000000000000010 Q
b00000000010 R
b00000000011 T
1W
b00000000000000000000000000000101 X
b00000000010 Y
1\
b0000000000000011 b
b0000000000000011 d
#140000000
0"
0(
0:
0>
0A
0E
0P
0W
0\
#145000000
1"
b00000000000000000000000000000100 &
1(
b00000000000000000000000000000100 ,
b00000000000000000000000000001010 3
b00000000000000000000000000000100 4
b00000000000000000000000000000110 5
b0000000000000100 6
b00000000000000000000000000000011 8
1:
1>
1A
b00000000000000000000000000000011 B
b00000000000000000000000000000110 C
b00000000000000000000000000001010 D
1E
b00000000000000000000000000000100 I
b00000000000000000000000000001010 J
b00000000000000000000000000000100 K
b00000000100 M
1P
b00000000000000000000000000000011 Q
b00000000011 R
b00000000100 T
1W
b00000000000000000000000000000110 X
b00000000011 Y
1\
b0000000000000100 b
b0000000000000100 d
#150000000
0"
0(
0:
0>
0A
0E
0P
0W
0\
#155000000
1"
b00000000000000000000000000001110 &
1(
b00000000000000000000000000001110 ,
b00000000000000000000000000010010 3
b00000000000000000000000000001110 4
b00000000000000000000000000000000 5
b0000000000000101 6
b00000000000000000000000000000000 8
1:
1>
1A
b00000000000000000000000000000000 B
b00000000000000000000000000000000 C
b00000000000000000000000000010010 D
1E
b00000000000000000000000000001110 I
b00000000000000000000000000010010 J
b00000000000000000000000000001110 K
b00000000101 M
1P
b00000000000000000000000000000000 Q
b00000000100 R
b00000000101 T
1W
b00000000000000000000000000000000 X
b00000000100 Y
1\
b0000000000000101 b
b0000000000000101 d
#160000000
0"
0(
0:
0>
0A
0E
0P
0W
0\
#165000000
1"
b00000000000000000000000000100000 &
1(
b00000000000000000000000000100000 ,
b00000000000000000000000000000000 3
b00000000000000000000000000100000 4
b0000000000000110 6
1:
1>
1A
b00000000000000000000000000000000 D
1E
b00000000000000000000000000100000 I
b00000000000000000000000000000000 J
b00000000000000000000000000100000 K
b00000000110 M
1P
b00000000101 R
b00000000110 T
1W
b00000000101 Y
1\
b0000000000000110 b
b0000000000000110 d
#167000000
#170000000
0"
0(
0:
0>
0A
0E
0P
0W
0\
#175000000
1"
1(
b0000000000000111 6
1:
1>
1A
1E
b00000000111 M
1P
b00000000110 R
b00000000111 T
1W
b00000000110 Y
1\
b0000000000000111 b
b0000000000000111 d
#180000000
0"
0(
0:
0>
0A
0E
0P
0W
0\
#185000000
1"
1(
b0000000000001000 6
1:
1>
1A
1E
b00000001000 M
1P
b00000000111 R
b00000001000 T
1W
b00000000111 Y
1\
b0000000000001000 b
b0000000000001000 d
#190000000
0"
0(
0:
0>
0A
0E
0P
0W
0\
#195000000
1"
1(
b0000000000001001 6
1:
1>
1A
1E
b00000001001 M
1P
b00000001000 R
b00000001001 T
1W
b00000001000 Y
1\
b0000000000001001 b
b0000000000001001 d
#200000000
0"
0(
0:
0>
0A
0E
0P
0W
0\
#205000000
1"
1(
b0000000000001010 6
1:
1>
1A
1E
b00000001010 M
1P
b00000001001 R
b00000001010 T
1W
b00000001001 Y
1\
b0000000000001010 b
b0000000000001010 d
#210000000
0"
0(
0:
0>
0A
0E
0P
0W
0\
#215000000
1"
1(
b0000000000001011 6
1:
1>
1A
1E
b00000001011 M
1P
b00000001010 R
b00000001011 T
1W
b00000001010 Y
1\
b0000000000001011 b
b0000000000001011 d
#220000000
0"
0(
0:
0>
0A
0E
0P
0W
0\
#225000000
1"
1(
b0000000000001100 6
1:
1>
1A
1E
b00000001100 M
1P
b00000001011 R
b00000001100 T
1W
b00000001011 Y
1\
b0000000000001100 b
b0000000000001100 d
#230000000
0"
0(
0:
0>
0A
0E
0P
0W
0\
#235000000
1"
1(
b0000000000001101 6
1:
1>
1A
1E
b00000001101 M
1P
b00000001100 R
b00000001101 T
1W
b00000001100 Y
1\
b0000000000001101 b
b0000000000001101 d
#240000000
0"
0(
0:
0>
0A
0E
0P
0W
0\
#245000000
1"
1(
b0000000000001110 6
1:
1>
1A
1E
b00000001110 M
1P
b00000001101 R
b00000001110 T
1W
b00000001101 Y
1\
b0000000000001110 b
b0000000000001110 d
#250000000
0"
0(
0:
0>
0A
0E
0P
0W
0\
#255000000
1"
1(
b0000000000001111 6
1:
1>
1A
1E
b00000001111 M
1P
b00000001110 R
b00000001111 T
1W
b00000001110 Y
1\
b0000000000001111 b
b0000000000001111 d
#260000000
0"
0(
0:
0>
0A
0E
0P
0W
0\
#265000000
1"
1(
b0000000000010000 6
1:
1>
1A
1E
b00000010000 M
1P
b00000001111 R
b00000010000 T
1W
b00000001111 Y
1\
b0000000000010000 b
b0000000000010000 d
#270000000
0"
0(
0:
0>
0A
0E
0P
0W
0\
#275000000
1"
1(
b0000000000010001 6
1:
1>
1A
1E
b00000010001 M
1P
b00000010000 R
b00000010001 T
1W
b00000010000 Y
1\
b0000000000010001 b
b0000000000010001 d
#280000000
0"
0(
0:
0>
0A
0E
0P
0W
0\
#285000000
1"
1(
b0000000000010010 6
1:
1>
1A
1E
b00000010010 M
1P
b00000010001 R
b00000010010 T
1W
b00000010001 Y
1\
b0000000000010010 b
b0000000000010010 d
#290000000
0"
0(
0:
0>
0A
0E
0P
0W
0\
#295000000
1"
1(
b0000000000010011 6
1:
1>
1A
1E
b00000010011 M
1P
b00000010010 R
b00000010011 T
1W
b00000010010 Y
1\
b0000000000010011 b
b0000000000010011 d
#300000000
0"
0(
0:
0>
0A
0E
0P
0W
0\
#305000000
1"
1(
b0000000000010100 6
1:
1>
1A
1E
b00000010100 M
1P
b00000010011 R
b00000010100 T
1W
b00000010011 Y
1\
b0000000000010100 b
b0000000000010100 d
#310000000
0"
0(
0:
0>
0A
0E
0P
0W
0\
#315000000
1"
1(
b0000000000010101 6
1:
1>
1A
1E
b00000010101 M
1P
b00000010100 R
b00000010101 T
1W
b00000010100 Y
1\
b0000000000010101 b
b0000000000010101 d
#320000000
0"
0(
0:
0>
0A
0E
0P
0W
0\
#325000000
1"
1(
b0000000000010110 6
1:
1>
1A
1E
b00000010110 M
1P
b00000010101 R
b00000010110 T
1W
b00000010101 Y
1\
b0000000000010110 b
b0000000000010110 d
#330000000
0"
0(
0:
0>
0A
0E
0P
0W
0\
#335000000
1"
1(
b0000000000010111 6
1:
1>
1A
1E
b00000010111 M
1P
b00000010110 R
b00000010111 T
1W
b00000010110 Y
1\
b0000000000010111 b
b0000000000010111 d
#340000000
0"
0(
0:
0>
0A
0E
0P
0W
0\
#345000000
1"
1(
b0000000000011000 6
1:
1>
1A
1E
b00000011000 M
1P
b00000010111 R
b00000011000 T
1W
b00000010111 Y
1\
b0000000000011000 b
b0000000000011000 d
#350000000
0"
0(
0:
0>
0A
0E
0P
0W
0\
#355000000
1"
1(
b0000000000011001 6
1:
1>
1A
1E
b00000011001 M
1P
b00000011000 R
b00000011001 T
1W
b00000011000 Y
1\
b0000000000011001 b
b0000000000011001 d
#360000000
0"
0(
0:
0>
0A
0E
0P
0W
0\
#365000000
1"
1(
b0000000000011010 6
1:
1>
1A
1E
b00000011010 M
1P
b00000011001 R
b00000011010 T
1W
b00000011001 Y
1\
b0000000000011010 b
b0000000000011010 d
#370000000
0"
0(
0:
0>
0A
0E
0P
0W
0\
#375000000
1"
1(
b0000000000011011 6
1:
1>
1A
1E
b00000011011 M
1P
b00000011010 R
b00000011011 T
1W
b00000011010 Y
1\
b0000000000011011 b
b0000000000011011 d
#380000000
0"
0(
0:
0>
0A
0E
0P
0W
0\
#385000000
1"
1(
b0000000000011100 6
1:
1>
1A
1E
b00000011100 M
1P
b00000011011 R
b00000011100 T
1W
b00000011011 Y
1\
b0000000000011100 b
b0000000000011100 d
#390000000
0"
0(
0:
0>
0A
0E
0P
0W
0\
#395000000
1"
1(
b0000000000011101 6
1:
1>
1A
1E
b00000011101 M
1P
b00000011100 R
b00000011101 T
1W
b00000011100 Y
1\
b0000000000011101 b
b0000000000011101 d
#400000000
0"
0(
0:
0>
0A
0E
0P
0W
0\
#405000000
1"
1(
b0000000000011110 6
1:
1>
1A
1E
b00000011110 M
1P
b00000011101 R
b00000011110 T
1W
b00000011101 Y
1\
b0000000000011110 b
b0000000000011110 d
#410000000
0"
0(
0:
0>
0A
0E
0P
0W
0\
#415000000
1"
1(
b0000000000011111 6
1:
1>
1A
1E
b00000011111 M
1P
b00000011110 R
b00000011111 T
1W
b00000011110 Y
1\
b0000000000011111 b
b0000000000011111 d
#420000000
0"
0(
0:
0>
0A
0E
0P
0W
0\
#425000000
1"
1(
b0000000000100000 6
1:
1>
1A
1E
b00000100000 M
1P
b00000011111 R
b00000100000 T
1W
b00000011111 Y
1\
b0000000000100000 b
b0000000000100000 d
#430000000
0"
0(
0:
0>
0A
0E
0P
0W
0\
#435000000
1"
1(
b0000000000100001 6
1:
1>
1A
1E
b00000100001 M
1P
b00000100000 R
b00000100001 T
1W
b00000100000 Y
1\
b0000000000100001 b
b0000000000100001 d
#440000000
0"
0(
0:
0>
0A
0E
0P
0W
0\
#445000000
1"
1(
b0000000000100010 6
1:
1>
1A
1E
b00000100010 M
1P
b00000100001 R
b00000100010 T
1W
b00000100001 Y
1\
b0000000000100010 b
b0000000000100010 d
#450000000
0"
0(
0:
0>
0A
0E
0P
0W
0\
#455000000
1"
1(
b0000000000100011 6
1:
1>
1A
1E
b00000100011 M
1P
b00000100010 R
b00000100011 T
1W
b00000100010 Y
1\
b0000000000100011 b
b0000000000100011 d
#460000000
0"
0(
0:
0>
0A
0E
0P
0W
0\
#465000000
1"
1(
b0000000000100100 6
1:
1>
1A
1E
b00000100100 M
1P
b00000100011 R
b00000100100 T
1W
b00000100011 Y
1\
b0000000000100100 b
b0000000000100100 d
#470000000
0"
0(
0:
0>
0A
0E
0P
0W
0\
#475000000
1"
1(
b0000000000100101 6
1:
1>
1A
1E
b00000100101 M
1P
b00000100100 R
b00000100101 T
1W
b00000100100 Y
1\
b0000000000100101 b
b0000000000100101 d
#480000000
0"
0(
0:
0>
0A
0E
0P
0W
0\
#485000000
1"
1(
b0000000000100110 6
1:
1>
1A
1E
b00000100110 M
1P
b00000100101 R
b00000100110 T
1W
b00000100101 Y
1\
b0000000000100110 b
b0000000000100110 d
#490000000
0"
0(
0:
0>
0A
0E
0P
0W
0\
#495000000
1"
1(
b0000000000100111 6
1:
1>
1A
1E
b00000100111 M
1P
b00000100110 R
b00000100111 T
1W
b00000100110 Y
1\
b0000000000100111 b
b0000000000100111 d
#500000000
0"
0(
0:
0>
0A
0E
0P
0W
0\
#505000000
1"
1(
b0000000000101000 6
1:
1>
1A
1E
b00000101000 M
1P
b00000100111 R
b00000101000 T
1W
b00000100111 Y
1\
b0000000000101000 b
b0000000000101000 d
#510000000
0"
0(
0:
0>
0A
0E
0P
0W
0\
#515000000
1"
1(
b0000000000101001 6
1:
1>
1A
1E
b00000101001 M
1P
b00000101000 R
b00000101001 T
1W
b00000101000 Y
1\
b0000000000101001 b
b0000000000101001 d
#520000000
0"
0(
0:
0>
0A
0E
0P
0W
0\
#525000000
1"
1(
b0000000000101010 6
1:
1>
1A
1E
b00000101010 M
1P
b00000101001 R
b00000101010 T
1W
b00000101001 Y
1\
b0000000000101010 b
b0000000000101010 d
#530000000
0"
0(
0:
0>
0A
0E
0P
0W
0\
#535000000
1"
1(
b0000000000101011 6
1:
1>
1A
1E
b00000101011 M
1P
b00000101010 R
b00000101011 T
1W
b00000101010 Y
1\
b0000000000101011 b
b0000000000101011 d
#540000000
0"
0(
0:
0>
0A
0E
0P
0W
0\
#545000000
1"
1(
b0000000000101100 6
1:
1>
1A
1E
b00000101100 M
1P
b00000101011 R
b00000101100 T
1W
b00000101011 Y
1\
b0000000000101100 b
b0000000000101100 d
#550000000
0"
0(
0:
0>
0A
0E
0P
0W
0\
#555000000
1"
1(
b0000000000101101 6
1:
1>
1A
1E
b00000101101 M
1P
b00000101100 R
b00000101101 T
1W
b00000101100 Y
1\
b0000000000101101 b
b0000000000101101 d
#560000000
0"
0(
0:
0>
0A
0E
0P
0W
0\
#565000000
1"
1(
b0000000000101110 6
1:
1>
1A
1E
b00000101110 M
1P
b00000101101 R
b00000101110 T
1W
b00000101101 Y
1\
b0000000000101110 b
b0000000000101110 d
#570000000
0"
0(
0:
0>
0A
0E
0P
0W
0\
#575000000
1"
1(
b0000000000101111 6
1:
1>
1A
1E
b00000101111 M
1P
b00000101110 R
b00000101111 T
1W
b00000101110 Y
1\
b0000000000101111 b
b0000000000101111 d
#580000000
0"
0(
0:
0>
0A
0E
0P
0W
0\
#585000000
1"
1(
b0000000000110000 6
1:
1>
1A
1E
b00000110000 M
1P
b00000101111 R
b00000110000 T
1W
b00000101111 Y
1\
b0000000000110000 b
b0000000000110000 d
#590000000
0"
0(
0:
0>
0A
0E
0P
0W
0\
#595000000
1"
1(
b0000000000110001 6
1:
1>
1A
1E
b00000110001 M
1P
b00000110000 R
b00000110001 T
1W
b00000110000 Y
1\
b0000000000110001 b
b0000000000110001 d
#600000000
0"
0(
0:
0>
0A
0E
0P
0W
0\
#605000000
1"
1(
b0000000000110010 6
1:
1>
1A
1E
b00000110010 M
1P
b00000110001 R
b00000110010 T
1W
b00000110001 Y
1\
b0000000000110010 b
b0000000000110010 d
#610000000
0"
0(
0:
0>
0A
0E
0P
0W
0\
#615000000
1"
1(
b0000000000110011 6
1:
1>
1A
1E
b00000110011 M
1P
b00000110010 R
b00000110011 T
1W
b00000110010 Y
1\
b0000000000110011 b
b0000000000110011 d
#620000000
0"
0(
0:
0>
0A
0E
0P
0W
0\
#625000000
1"
1(
b0000000000110100 6
1:
1>
1A
1E
b00000110100 M
1P
b00000110011 R
b00000110100 T
1W
b00000110011 Y
1\
b0000000000110100 b
b0000000000110100 d
#630000000
0"
0(
0:
0>
0A
0E
0P
0W
0\
#635000000
1"
1(
b0000000000110101 6
1:
1>
1A
1E
b00000110101 M
1P
b00000110100 R
b00000110101 T
1W
b00000110100 Y
1\
b0000000000110101 b
b0000000000110101 d
#640000000
0"
0(
0:
0>
0A
0E
0P
0W
0\
#645000000
1"
1(
b0000000000110110 6
1:
1>
1A
1E
b00000110110 M
1P
b00000110101 R
b00000110110 T
1W
b00000110101 Y
1\
b0000000000110110 b
b0000000000110110 d
#650000000
0"
0(
0:
0>
0A
0E
0P
0W
0\
#655000000
1"
1(
b0000000000110111 6
1:
1>
1A
1E
b00000110111 M
1P
b00000110110 R
b00000110111 T
1W
b00000110110 Y
1\
b0000000000110111 b
b0000000000110111 d
#660000000
0"
0(
0:
0>
0A
0E
0P
0W
0\
#665000000
1"
1(
b0000000000111000 6
1:
1>
1A
1E
b00000111000 M
1P
b00000110111 R
b00000111000 T
1W
b00000110111 Y
1\
b0000000000111000 b
b0000000000111000 d
#670000000
0"
0(
0:
0>
0A
0E
0P
0W
0\
#675000000
1"
1(
b0000000000111001 6
1:
1>
1A
1E
b00000111001 M
1P
b00000111000 R
b00000111001 T
1W
b00000111000 Y
1\
b0000000000111001 b
b0000000000111001 d
#680000000
0"
0(
0:
0>
0A
0E
0P
0W
0\
#685000000
1"
1(
b0000000000111010 6
1:
1>
1A
1E
b00000111010 M
1P
b00000111001 R
b00000111010 T
1W
b00000111001 Y
1\
b0000000000111010 b
b0000000000111010 d
#690000000
0"
0(
0:
0>
0A
0E
0P
0W
0\
#695000000
1"
1(
b0000000000111011 6
1:
1>
1A
1E
b00000111011 M
1P
b00000111010 R
b00000111011 T
1W
b00000111010 Y
1\
b0000000000111011 b
b0000000000111011 d
#700000000
0"
0(
0:
0>
0A
0E
0P
0W
0\
#705000000
1"
1(
b0000000000111100 6
1:
1>
1A
1E
b00000111100 M
1P
b00000111011 R
b00000111100 T
1W
b00000111011 Y
1\
b0000000000111100 b
b0000000000111100 d
#710000000
0"
0(
0:
0>
0A
0E
0P
0W
0\
#715000000
1"
1(
b0000000000111101 6
1:
1>
1A
1E
b00000111101 M
1P
b00000111100 R
b00000111101 T
1W
b00000111100 Y
1\
b0000000000111101 b
b0000000000111101 d
#720000000
0"
0(
0:
0>
0A
0E
0P
0W
0\
#725000000
1"
1(
b0000000000111110 6
1:
1>
1A
1E
b00000111110 M
1P
b00000111101 R
b00000111110 T
1W
b00000111101 Y
1\
b0000000000111110 b
b0000000000111110 d
#730000000
0"
0(
0:
0>
0A
0E
0P
0W
0\
#735000000
1"
1(
b0000000000111111 6
1:
1>
1A
1E
b00000111111 M
1P
b00000111110 R
b00000111111 T
1W
b00000111110 Y
1\
b0000000000111111 b
b0000000000111111 d
#740000000
0"
0(
0:
0>
0A
0E
0P
0W
0\
#745000000
1"
1(
b0000000001000000 6
1:
1>
1A
1E
b00001000000 M
1P
b00000111111 R
b00001000000 T
1W
b00000111111 Y
1\
b0000000001000000 b
b0000000001000000 d
#750000000
0"
0(
0:
0>
0A
0E
0P
0W
0\
#755000000
1"
1(
b0000000001000001 6
1:
1>
1A
1E
b00001000001 M
1P
b00001000000 R
b00001000001 T
1W
b00001000000 Y
1\
b0000000001000001 b
b0000000001000001 d
#760000000
0"
0(
0:
0>
0A
0E
0P
0W
0\
#765000000
1"
1(
b0000000001000010 6
1:
1>
1A
1E
b00001000010 M
1P
b00001000001 R
b00001000010 T
1W
b00001000001 Y
1\
b0000000001000010 b
b0000000001000010 d
#770000000
0"
0(
0:
0>
0A
0E
0P
0W
0\
#775000000
1"
1(
b0000000001000011 6
1:
1>
1A
1E
b00001000011 M
1P
b00001000010 R
b00001000011 T
1W
b00001000010 Y
1\
b0000000001000011 b
b0000000001000011 d
#780000000
0"
0(
0:
0>
0A
0E
0P
0W
0\
#785000000
1"
1(
b0000000001000100 6
1:
1>
1A
1E
b00001000100 M
1P
b00001000011 R
b00001000100 T
1W
b00001000011 Y
1\
b0000000001000100 b
b0000000001000100 d
#790000000
0"
0(
0:
0>
0A
0E
0P
0W
0\
#795000000
1"
1(
b0000000001000101 6
1:
1>
1A
1E
b00001000101 M
1P
b00001000100 R
b00001000101 T
1W
b00001000100 Y
1\
b0000000001000101 b
b0000000001000101 d
#800000000
0"
0(
0:
0>
0A
0E
0P
0W
0\
#805000000
1"
1(
b0000000001000110 6
1:
1>
1A
1E
b00001000110 M
1P
b00001000101 R
b00001000110 T
1W
b00001000101 Y
1\
b0000000001000110 b
b0000000001000110 d
#810000000
0"
0(
0:
0>
0A
0E
0P
0W
0\
#815000000
1"
1(
b0000000001000111 6
1:
1>
1A
1E
b00001000111 M
1P
b00001000110 R
b00001000111 T
1W
b00001000110 Y
1\
b0000000001000111 b
b0000000001000111 d
#820000000
0"
0(
0:
0>
0A
0E
0P
0W
0\
#825000000
1"
1(
b0000000001001000 6
1:
1>
1A
1E
b00001001000 M
1P
b00001000111 R
b00001001000 T
1W
b00001000111 Y
1\
b0000000001001000 b
b0000000001001000 d
#830000000
0"
0(
0:
0>
0A
0E
0P
0W
0\
#835000000
1"
1(
b0000000001001001 6
1:
1>
1A
1E
b00001001001 M
1P
b00001001000 R
b00001001001 T
1W
b00001001000 Y
1\
b0000000001001001 b
b0000000001001001 d
#840000000
0"
0(
0:
0>
0A
0E
0P
0W
0\
#845000000
1"
1(
b0000000001001010 6
1:
1>
1A
1E
b00001001010 M
1P
b00001001001 R
b00001001010 T
1W
b00001001001 Y
1\
b0000000001001010 b
b0000000001001010 d
#850000000
0"
0(
0:
0>
0A
0E
0P
0W
0\
#855000000
1"
1(
b0000000001001011 6
1:
1>
1A
1E
b00001001011 M
1P
b00001001010 R
b00001001011 T
1W
b00001001010 Y
1\
b0000000001001011 b
b0000000001001011 d
#860000000
0"
0(
0:
0>
0A
0E
0P
0W
0\
#865000000
1"
1(
b0000000001001100 6
1:
1>
1A
1E
b00001001100 M
1P
b00001001011 R
b00001001100 T
1W
b00001001011 Y
1\
b0000000001001100 b
b0000000001001100 d
#870000000
0"
0(
0:
0>
0A
0E
0P
0W
0\
#875000000
1"
1(
b0000000001001101 6
1:
1>
1A
1E
b00001001101 M
1P
b00001001100 R
b00001001101 T
1W
b00001001100 Y
1\
b0000000001001101 b
b0000000001001101 d
#880000000
0"
0(
0:
0>
0A
0E
0P
0W
0\
#885000000
1"
1(
b0000000001001110 6
1:
1>
1A
1E
b00001001110 M
1P
b00001001101 R
b00001001110 T
1W
b00001001101 Y
1\
b0000000001001110 b
b0000000001001110 d
#890000000
0"
0(
0:
0>
0A
0E
0P
0W
0\
#895000000
1"
1(
b0000000001001111 6
1:
1>
1A
1E
b00001001111 M
1P
b00001001110 R
b00001001111 T
1W
b00001001110 Y
1\
b0000000001001111 b
b0000000001001111 d
#900000000
0"
0(
0:
0>
0A
0E
0P
0W
0\
#905000000
1"
1(
b0000000001010000 6
1:
1>
1A
1E
b00001010000 M
1P
b00001001111 R
b00001010000 T
1W
b00001001111 Y
1\
b0000000001010000 b
b0000000001010000 d
#910000000
0"
0(
0:
0>
0A
0E
0P
0W
0\
#915000000
1"
1(
b0000000001010001 6
1:
1>
1A
1E
b00001010001 M
1P
b00001010000 R
b00001010001 T
1W
b00001010000 Y
1\
b0000000001010001 b
b0000000001010001 d
#920000000
0"
0(
0:
0>
0A
0E
0P
0W
0\
#925000000
1"
1(
b0000000001010010 6
1:
1>
1A
1E
b00001010010 M
1P
b00001010001 R
b00001010010 T
1W
b00001010001 Y
1\
b0000000001010010 b
b0000000001010010 d
#930000000
0"
0(
0:
0>
0A
0E
0P
0W
0\
#935000000
1"
1(
b0000000001010011 6
1:
1>
1A
1E
b00001010011 M
1P
b00001010010 R
b00001010011 T
1W
b00001010010 Y
1\
b0000000001010011 b
b0000000001010011 d
#940000000
0"
0(
0:
0>
0A
0E
0P
0W
0\
#945000000
1"
1(
b0000000001010100 6
1:
1>
1A
1E
b00001010100 M
1P
b00001010011 R
b00001010100 T
1W
b00001010011 Y
1\
b0000000001010100 b
b0000000001010100 d
#950000000
0"
0(
0:
0>
0A
0E
0P
0W
0\
#955000000
1"
1(
b0000000001010101 6
1:
1>
1A
1E
b00001010101 M
1P
b00001010100 R
b00001010101 T
1W
b00001010100 Y
1\
b0000000001010101 b
b0000000001010101 d
#960000000
0"
0(
0:
0>
0A
0E
0P
0W
0\
#965000000
1"
1(
b0000000001010110 6
1:
1>
1A
1E
b00001010110 M
1P
b00001010101 R
b00001010110 T
1W
b00001010101 Y
1\
b0000000001010110 b
b0000000001010110 d
#970000000
0"
0(
0:
0>
0A
0E
0P
0W
0\
#975000000
1"
1(
b0000000001010111 6
1:
1>
1A
1E
b00001010111 M
1P
b00001010110 R
b00001010111 T
1W
b00001010110 Y
1\
b0000000001010111 b
b0000000001010111 d
#980000000
0"
0(
0:
0>
0A
0E
0P
0W
0\
#985000000
1"
1(
b0000000001011000 6
1:
1>
1A
1E
b00001011000 M
1P
b00001010111 R
b00001011000 T
1W
b00001010111 Y
1\
b0000000001011000 b
b0000000001011000 d
#990000000
0"
0(
0:
0>
0A
0E
0P
0W
0\
